fbcd18ma_Q1
fbcd18mb_Q1
fbcd18oa_Q1
fbcd18ob_Q1
fbcd18da_Q1
fbcd18db_Q1
fbcd18va_Q1
fbcd18vb_Q1
fbcd18pa_Q1
fbcd18pb_Q1
fbcd17ma_Q1
fbcd17mb_Q1
fbcd17oa_Q1
fbcd17ob_Q1
fbcd17da_Q1
fbcd17db_Q1
fbcd17va_Q1
fbcd17vb_Q1
fbcd17pa_Q1
fbcd17pb_Q1
fbcd16ma_Q1
fbcd16mb_Q1
fbcd16oa_Q1
fbcd16ob_Q1
fbcd16da_Q1
fbcd16db_Q1
fbcd16va_Q1
fbcd16vb_Q1
fbcd16pa_Q1
fbcd16pb_Q1
fbcd55ma_Q1
fbcd55mb_Q1
fbcd55oa_Q1
fbcd55ob_Q1
fbcd55da_Q1
fbcd55db_Q1
fbcd55va_Q1
fbcd55vb_Q1
fbcd55pa_Q1
fbcd55pb_Q1
fbcd15ma_Q1
fbcd15mb_Q1
fbcd15oa_Q1
fbcd15ob_Q1
fbcd15da_Q1
fbcd15db_Q1
fbcd15va_Q1
fbcd15vb_Q1
fbcd15pa_Q1
fbcd15pb_Q1
fbcd54ma_Q1
fbcd54mb_Q1
fbcd54oa_Q1
fbcd54ob_Q1
fbcd54da_Q1
fbcd54db_Q1
fbcd54va_Q1
fbcd54vb_Q1
fbcd54pa_Q1
fbcd54pb_Q1
fbcd14ma_Q1
fbcd14mb_Q1
fbcd14oa_Q1
fbcd14ob_Q1
fbcd14da_Q1
fbcd14db_Q1
fbcd14va_Q1
fbcd14vb_Q1
fbcd14pa_Q1
fbcd14pb_Q1
fbcd53ma_Q1
fbcd53mb_Q1
fbcd53da_Q1
fbcd53db_Q1
fbcd53va_Q1
fbcd53vb_Q1
fbcd53pa_Q1
fbcd53pb_Q1
fbcd13ma_Q1
fbcd13mb_Q1
fbcd13da_Q1
fbcd13db_Q1
fbcd13va_Q1
fbcd13vb_Q1
fbcd13pa_Q1
fbcd13pb_Q1
fbcd52ma_Q1
fbcd52mb_Q1
fbcd52da_Q1
fbcd52db_Q1
fbcd52va_Q1
fbcd52vb_Q1
fbcd52pa_Q1
fbcd52pb_Q1
fbcd12ma_Q1
fbcd12mb_Q1
fbcd12da_Q1
fbcd12db_Q1
fbcd12va_Q1
fbcd12vb_Q1
fbcd12pa_Q1
fbcd12pb_Q1
fbcd51ma_Q1
fbcd51mb_Q1
fbcd51da_Q1
fbcd51db_Q1
fbcd51va_Q1
fbcd51vb_Q1
fbcd51pa_Q1
fbcd51pb_Q1
fbcd11ma_Q1
fbcd11mb_Q1
fbcd11da_Q1
fbcd11db_Q1
fbcd11va_Q1
fbcd11vb_Q1
fbcd11pa_Q1
fbcd11pb_Q1
fbcd21ma_Q1
fbcd21mb_Q1
fbcd21da_Q1
fbcd21db_Q1
fbcd21va_Q1
fbcd21vb_Q1
fbcd21pa_Q1
fbcd21pb_Q1
fbcd61ma_Q1
fbcd61mb_Q1
fbcd61da_Q1
fbcd61db_Q1
fbcd61va_Q1
fbcd61vb_Q1
fbcd61pa_Q1
fbcd61pb_Q1
fbcd22ma_Q1
fbcd22mb_Q1
fbcd22da_Q1
fbcd22db_Q1
fbcd22va_Q1
fbcd22vb_Q1
fbcd22pa_Q1
fbcd22pb_Q1
fbcd62ma_Q1
fbcd62mb_Q1
fbcd62da_Q1
fbcd62db_Q1
fbcd62va_Q1
fbcd62vb_Q1
fbcd62pa_Q1
fbcd62pb_Q1
fbcd23ma_Q1
fbcd23mb_Q1
fbcd23da_Q1
fbcd23db_Q1
fbcd23va_Q1
fbcd23vb_Q1
fbcd23pa_Q1
fbcd23pb_Q1
fbcd63ma_Q1
fbcd63mb_Q1
fbcd63da_Q1
fbcd63db_Q1
fbcd63va_Q1
fbcd63vb_Q1
fbcd63pa_Q1
fbcd63pb_Q1
fbcd24ma_Q1
fbcd24mb_Q1
fbcd24oa_Q1
fbcd24ob_Q1
fbcd24da_Q1
fbcd24db_Q1
fbcd24va_Q1
fbcd24vb_Q1
fbcd24pa_Q1
fbcd24pb_Q1
fbcd64ma_Q1
fbcd64mb_Q1
fbcd64oa_Q1
fbcd64ob_Q1
fbcd64da_Q1
fbcd64db_Q1
fbcd64va_Q1
fbcd64vb_Q1
fbcd64pa_Q1
fbcd64pb_Q1
fbcd25ma_Q1
fbcd25mb_Q1
fbcd25oa_Q1
fbcd25ob_Q1
fbcd25da_Q1
fbcd25db_Q1
fbcd25va_Q1
fbcd25vb_Q1
fbcd25pa_Q1
fbcd25pb_Q1
fbcd65ma_Q1
fbcd65mb_Q1
fbcd65oa_Q1
fbcd65ob_Q1
fbcd65da_Q1
fbcd65db_Q1
fbcd65va_Q1
fbcd65vb_Q1
fbcd65pa_Q1
fbcd65pb_Q1
fbcd26ma_Q1
fbcd26mb_Q1
fbcd26oa_Q1
fbcd26ob_Q1
fbcd26da_Q1
fbcd26db_Q1
fbcd26va_Q1
fbcd26vb_Q1
fbcd26pa_Q1
fbcd26pb_Q1
fbcd27ma_Q1
fbcd27mb_Q1
fbcd27oa_Q1
fbcd27ob_Q1
fbcd27da_Q1
fbcd27db_Q1
fbcd27va_Q1
fbcd27vb_Q1
fbcd27pa_Q1
fbcd27pb_Q1
fbcd28ma_Q1
fbcd28mb_Q1
fbcd28oa_Q1
fbcd28ob_Q1
fbcd28da_Q1
fbcd28db_Q1
fbcd28va_Q1
fbcd28vb_Q1
fbcd28pa_Q1
fbcd28pb_Q1
fbcd38ma_Q1
fbcd38mb_Q1
fbcd38oa_Q1
fbcd38ob_Q1
fbcd38da_Q1
fbcd38db_Q1
fbcd38va_Q1
fbcd38vb_Q1
fbcd38pa_Q1
fbcd38pb_Q1
fbcd37ma_Q1
fbcd37mb_Q1
fbcd37oa_Q1
fbcd37ob_Q1
fbcd37da_Q1
fbcd37db_Q1
fbcd37va_Q1
fbcd37vb_Q1
fbcd37pa_Q1
fbcd37pb_Q1
fbcd36ma_Q1
fbcd36mb_Q1
fbcd36oa_Q1
fbcd36ob_Q1
fbcd36da_Q1
fbcd36db_Q1
fbcd36va_Q1
fbcd36vb_Q1
fbcd36pa_Q1
fbcd36pb_Q1
fbcd75ma_Q1
fbcd75mb_Q1
fbcd75oa_Q1
fbcd75ob_Q1
fbcd75da_Q1
fbcd75db_Q1
fbcd75va_Q1
fbcd75vb_Q1
fbcd75pa_Q1
fbcd75pb_Q1
fbcd35ma_Q1
fbcd35mb_Q1
fbcd35oa_Q1
fbcd35ob_Q1
fbcd35da_Q1
fbcd35db_Q1
fbcd35va_Q1
fbcd35vb_Q1
fbcd35pa_Q1
fbcd35pb_Q1
fbcd74ma_Q1
fbcd74mb_Q1
fbcd74oa_Q1
fbcd74ob_Q1
fbcd74da_Q1
fbcd74db_Q1
fbcd74va_Q1
fbcd74vb_Q1
fbcd74pa_Q1
fbcd74pb_Q1
fbcd34ma_Q1
fbcd34mb_Q1
fbcd34oa_Q1
fbcd34ob_Q1
fbcd34da_Q1
fbcd34db_Q1
fbcd34va_Q1
fbcd34vb_Q1
fbcd34pa_Q1
fbcd34pb_Q1
fbcd73ma_Q1
fbcd73mb_Q1
fbcd73da_Q1
fbcd73db_Q1
fbcd73va_Q1
fbcd73vb_Q1
fbcd73pa_Q1
fbcd73pb_Q1
fbcd33ma_Q1
fbcd33mb_Q1
fbcd33da_Q1
fbcd33db_Q1
fbcd33va_Q1
fbcd33vb_Q1
fbcd33pa_Q1
fbcd33pb_Q1
fbcd72ma_Q1
fbcd72mb_Q1
fbcd72da_Q1
fbcd72db_Q1
fbcd72va_Q1
fbcd72vb_Q1
fbcd72pa_Q1
fbcd72pb_Q1
fbcd32ma_Q1
fbcd32mb_Q1
fbcd32da_Q1
fbcd32db_Q1
fbcd32va_Q1
fbcd32vb_Q1
fbcd32pa_Q1
fbcd32pb_Q1
fbcd71ma_Q1
fbcd71mb_Q1
fbcd71da_Q1
fbcd71db_Q1
fbcd71va_Q1
fbcd71vb_Q1
fbcd71pa_Q1
fbcd71pb_Q1
fbcd31ma_Q1
fbcd31mb_Q1
fbcd31da_Q1
fbcd31db_Q1
fbcd31va_Q1
fbcd31vb_Q1
fbcd31pa_Q1
fbcd31pb_Q1
fbcd41ma_Q1
fbcd41mb_Q1
fbcd41da_Q1
fbcd41db_Q1
fbcd41va_Q1
fbcd41vb_Q1
fbcd41pa_Q1
fbcd41pb_Q1
fbcd81ma_Q1
fbcd81mb_Q1
fbcd81da_Q1
fbcd81db_Q1
fbcd81va_Q1
fbcd81vb_Q1
fbcd81pa_Q1
fbcd81pb_Q1
fbcd42ma_Q1
fbcd42mb_Q1
fbcd42da_Q1
fbcd42db_Q1
fbcd42va_Q1
fbcd42vb_Q1
fbcd42pa_Q1
fbcd42pb_Q1
fbcd82ma_Q1
fbcd82mb_Q1
fbcd82da_Q1
fbcd82db_Q1
fbcd82va_Q1
fbcd82vb_Q1
fbcd82pa_Q1
fbcd82pb_Q1
fbcd43ma_Q1
fbcd43mb_Q1
fbcd43da_Q1
fbcd43db_Q1
fbcd43va_Q1
fbcd43vb_Q1
fbcd43pa_Q1
fbcd43pb_Q1
fbcd83ma_Q1
fbcd83mb_Q1
fbcd83da_Q1
fbcd83db_Q1
fbcd83va_Q1
fbcd83vb_Q1
fbcd83pa_Q1
fbcd83pb_Q1
fbcd44ma_Q1
fbcd44mb_Q1
fbcd44oa_Q1
fbcd44ob_Q1
fbcd44da_Q1
fbcd44db_Q1
fbcd44va_Q1
fbcd44vb_Q1
fbcd44pa_Q1
fbcd44pb_Q1
fbcd84ma_Q1
fbcd84mb_Q1
fbcd84oa_Q1
fbcd84ob_Q1
fbcd84da_Q1
fbcd84db_Q1
fbcd84va_Q1
fbcd84vb_Q1
fbcd84pa_Q1
fbcd84pb_Q1
fbcd45ma_Q1
fbcd45mb_Q1
fbcd45oa_Q1
fbcd45ob_Q1
fbcd45da_Q1
fbcd45db_Q1
fbcd45va_Q1
fbcd45vb_Q1
fbcd45pa_Q1
fbcd45pb_Q1
fbcd85ma_Q1
fbcd85mb_Q1
fbcd85oa_Q1
fbcd85ob_Q1
fbcd85da_Q1
fbcd85db_Q1
fbcd85va_Q1
fbcd85vb_Q1
fbcd85pa_Q1
fbcd85pb_Q1
fbcd46ma_Q1
fbcd46mb_Q1
fbcd46oa_Q1
fbcd46ob_Q1
fbcd46da_Q1
fbcd46db_Q1
fbcd46va_Q1
fbcd46vb_Q1
fbcd46pa_Q1
fbcd46pb_Q1
fbcd47ma_Q1
fbcd47mb_Q1
fbcd47oa_Q1
fbcd47ob_Q1
fbcd47da_Q1
fbcd47db_Q1
fbcd47va_Q1
fbcd47vb_Q1
fbcd47pa_Q1
fbcd47pb_Q1
fbcd48ma_Q1
fbcd48mb_Q1
fbcd48oa_Q1
fbcd48ob_Q1
fbcd48da_Q1
fbcd48db_Q1
fbcd48va_Q1
fbcd48vb_Q1
fbcd48pa_Q1
fbcd48pb_Q1
fbpufa18_Q1
fbpufa17_Q1
fbpufa16_Q1
fbpufa15_Q1
fbpufa14_Q1
fbpufa13_Q1
fbpufa12_Q1
fbpufa11_Q1
fbpufa21_Q1
fbpufa22_Q1
fbpufa23_Q1
fbpufa24_Q1
fbpufa25_Q1
fbpufa26_Q1
fbpufa27_Q1
fbpufa28_Q1
fbpufa38_Q1
fbpufa37_Q1
fbpufa36_Q1
fbpufa35_Q1
fbpufa34_Q1
fbpufa33_Q1
fbpufa32_Q1
fbpufa31_Q1
fbpufa41_Q1
fbpufa42_Q1
fbpufa43_Q1
fbpufa44_Q1
fbpufa45_Q1
fbpufa46_Q1
fbpufa47_Q1
fbpufa48_Q1
fbcp1p_Q1
fbcp1c_Q1
fbcp2p_Q1
fbcp2c_Q1
fbcp3p_Q1
fbcp3c_Q1
fbcp4p_Q1
fbcp4c_Q1
fbcp5p_Q1
fbcp5c_Q1
fbcp6p_Q1
fbcp6c_Q1
fbpbv_Q1
fbp1_Q1
fbp2_Q1
fbp3_Q1