sba1_Q1
sba1a_Q1
sba1b_Q1
sbb1_Q1
sbb2_Q1
sbb3a_Q1
sbb3b_Q1
sbb4_Q1
sbb5_Q1
sbb6_Q1
sbc1_Q1
sbc2_Q1
sbc3_Q1
sba1_Q2
sba1a_Q2
sba1b_Q2
sbb1_Q2
sbb2_Q2
sbb3a_Q2
sbb3b_Q2
sbb4_Q2
sbb5_Q2
sbb6_Q2
sbc1_Q2
sbc2_Q2
sbc3_Q2