ID_number	center	age_group1	school	ac_seden_w	ac_light_w	ac_mode_w	ac_vigo_w	ac_perc_seden_w	ac_perc_light_w	ac_perc_mode_w	ac_perc_vigo_w	ac_MVPA_w	ac_perc_MVPA_w	ac_mean_MVPA_day_w	ac_steps_counts_w	ac_time_w	acc_days_w	ac_seden_wd	ac_light_wd	ac_mode_wd	ac_vigo_w0	ac_perc_seden_wd	ac_perc_light_wd	ac_perc_mode_wd	ac_perc_vigo_wd	ac_MVPA_wd	ac_perc_MVPA_wd	ac_mean_MVPA_day_wd	ac_steps_counts_wd	ac_time_wd	acc_days_wd	total_days	ac_seden_tt	ac_light_tt	ac_mode_tt	ac_vigo_tt	ac_perc_seden_tt	ac_perc_light_tt	ac_perc_mode_tt	ac_perc_vigo_tt	ac_MVPA_tt	ac_perc_MVPA_tt	ac_mean_MVPA_day_tt	ac_steps_counts_tt	ac_time_tt	acc_days_tt	_merge
1010005	1	0	0	699,375	186,2083333	59,79166667	194,625	61,35	16,335	5,245	17,075	254,4166667	22,32	13,4	14368,5	1140	2	733,4166667	151,8333333	56,70833333	198,0416667	64,335	13,32	4,975	17,37	254,75	22,345	13,4	11171	1140	2	4	2865,583333	676,083333	233	785,333333	62,84	14,83	5,11	17,22	1018,333333	22,33	254,583	51079	4560	4	3
1010008	1	0	0	574,5833333	184	81,33333333	300,0833333	50,405	16,14	7,13	26,325	381,4166667	33,46	20,1	16558	1140	2	805,1666667	136,0416667	52,70833333	146,0833333	70,63	11,935	4,62	12,815	198,7916667	17,435	10,45	7933	1140	2	4	2759,5	640,083333	268,083333	892,333333	60,52	14,04	5,88	19,57	1160,416667	25,45	290,104	48982	4560	4	3
1010050	1	0	0	683,7916667	202	66,16666667	188,0416667	59,98	17,72	5,805	16,495	254,2083333	22,3	13,4	11746	1140	2	854,1666667	136,75	41	108,0833333	74,93	11,995	3,595	9,48	149,0833333	13,075	7,85	7937	1140	2	4	3075,916667	677,5	214,333333	592,25	67,45	14,86	4,7	12,99	806,5833333	17,69	201,646	39366	4560	4	3
1010058	1	0	0	710,625	142,5833333	57,95833333	228,8333333	62,335	12,505	5,085	20,075	286,7916667	25,155	15,1	15523,5	1140	2	784,4166667	136,125	48	171,4583333	68,81	11,94	4,21	15,04	219,4583333	19,25	11,55	14991	1140	2	4	2990,083333	557,416667	211,916667	800,583333	65,57	12,22	4,65	17,56	1012,5	22,2	253,125	61029	4560	4	3
1010061	1	0	0	758,875	151,8333333	59,29166667	170	66,565	13,32	5,2	14,91	229,2916667	20,115	12,1	11007,5	1140	2	771,6666667	182,6666667	59,45833333	126,2083333	67,69	16,02	5,215	11,075	185,6666667	16,29	9,8	8042	1140	2	4	3061,083333	669	237,5	592,416667	67,13	14,67	5,21	12,99	829,9166667	18,2	207,479	38099	4560	4	3
1010063	1	0	0	682,4583333	196,8333333	69,70833333	191	59,865	17,265	6,115	16,755	260,7083333	22,87	13,7	13121	1140	2	923,3333333	107,4583333	34,20833333	75	80,995	9,425	3,005	6,58	109,2083333	9,575	5,75	4788	1140	2	4	3211,583333	608,583333	207,833333	532	70,43	13,35	4,56	11,67	739,8333333	16,22	184,958	35818	4560	4	3
1010064	1	0	0	803,375	142,25	55,20833333	139,1666667	70,475	12,48	4,845	12,21	194,375	17,05	10,25	8358,5	1140	2	1137,708333	0,5	0,416666667	1,375	99,8	0,045	0,035	0,12	1,791666667	0,155	0,1	43	1140	2	4	3882,166667	285,5	111,25	281,083333	85,14	6,26	2,44	6,16	392,3333333	8,6	98,083	16803	4560	4	3
1010066	1	0	0	677,25	175,5	66,83333333	220,4166667	59,405	15,395	5,865	19,335	287,25	25,2	15,1	16962	1140	2	726,125	164,4583333	62,75	186,6666667	63,695	14,425	5,505	16,375	249,4166667	21,88	13,1	11642,5	1140	2	4	2806,75	679,916667	259,166667	814,166667	61,55	14,91	5,68	17,85	1073,333333	23,54	268,333	57209	4560	4	3
1010067	1	0	0	705,625	163,7083333	66,79166667	203,875	61,895	14,365	5,86	17,88	270,6666667	23,74	14,25	11645,5	1140	2	848,375	124,4166667	39,95833333	127,25	74,42	10,915	3,505	11,16	167,2083333	14,67	8,8	9706	1140	2	4	3108	576,25	213,5	662,25	68,16	12,64	4,68	14,52	875,75	19,21	218,938	42703	4560	4	3
1010068	1	0	0	786,7083333	153,7083333	56,91666667	142,6666667	69,01	13,485	4,99	12,515	199,5833333	17,505	10,5	8352,5	1140	2	868	104,7916667	39,5	127,7083333	76,14	9,19	3,465	11,2	167,2083333	14,665	8,8	5364	1140	2	4	3309,416667	517	192,833333	540,75	72,57	11,34	4,23	11,86	733,5833333	16,09	183,396	27433	4560	4	3
1010069	1	0	0	775,375	145,4583333	45,375	173,7916667	68,015	12,76	3,98	15,245	219,1666667	19,225	11,55	11624	1140	2	815,5	119,7916667	39,79166667	164,9166667	71,535	10,505	3,495	14,47	204,7083333	17,955	10,75	8202	1140	2	4	3181,75	530,5	170,333333	677,416667	69,78	11,63	3,74	14,86	847,75	18,59	211,938	39652	4560	4	3
1011001	1	1	0	839,75	82,45833333	19,3125	52,70833333	83,936	8,5625	2,03275	5,46875	72,02083333	7,5015	4,25	5650	646,92	5	974,75	69,5	20,04166667	45,70833333	87,815	6,261	1,8055	4,118	65,75	5,923	3,45	4548,5	1110	2	7	5308,5	468,8333333	117,3333333	302,25	85,664	7,566	1,893	4,877	419,5833333	6,771	69,931	31697	6196,92	6	3
1011003	1	1	0	1003,3	63,83333333	13,66666667	29,2	90,3872	5,7508	1,231	2,6306	42,86666667	3,862	2,28	2584,4	1110	5	1109,541667	0,291666667	0,041666667	0,125	99,9585	0,0265	0,004	0,0115	0,166666667	0,015	0	2,5	1110	2	7	7235,583333	319,75	68,41666667	146,25	93,122	4,115	0,881	1,882	214,6666667	2,763	30,667	12927	7770	7	3
1011005	1	1	0	807,3166667	136,1166667	38,3	128,2666667	72,7314	12,2628	3,4506	11,5556	166,5666667	15,006	8,78	10954,6	1110	5	819,1666667	126,875	35,04166667	128,9166667	73,799	11,4305	3,157	11,614	163,9583333	14,7715	8,65	10899	1110	2	7	5674,916667	934,3333333	261,5833333	899,1666667	73,036	12,025	3,367	11,572	1160,75	14,939	165,821	76571	7770	7	3
1011007	1	1	0	848,6	105,8666667	34,95	120,5833333	76,4504	9,5378	3,1488	10,8632	155,5333333	14,0118	8,18	9375	1110	5	798,5416667	132,7916667	39,16666667	139,5	71,9405	11,963	3,5285	12,5675	178,6666667	16,096	9,4	12327,5	1110	2	7	5840,083333	794,9166667	253,0833333	881,9166667	75,162	10,231	3,257	11,35	1135	14,607	162,143	71530	7770	7	3
1011019	1	1	0	872,7666667	114,7166667	35,23333333	87,28333333	78,6276	10,3348	3,1742	7,8632	122,5166667	11,0376	6,44	7911,2	1110	5	865,4166667	120,8333333	46,33333333	77,41666667	77,9655	10,886	4,174	6,9745	123,75	11,1485	6,5	6308	1110	2	7	6094,666667	815,25	268,8333333	591,25	78,438	10,492	3,46	7,609	860,0833333	11,069	122,869	52172	7770	7	3
1011032	1	1	0	817,4333333	131,6166667	39,26666667	121,6833333	73,6426	11,8576	3,5378	10,9624	160,95	14,5	8,48	8558,4	1110	5	811,375	114,4583333	44,75	139,4166667	73,097	10,3115	4,0315	12,56	184,1666667	16,592	9,7	8281,5	1110	2	7	5709,916667	887	285,8333333	887,25	73,487	11,416	3,679	11,419	1173,083333	15,098	167,583	59355	7770	7	3
1011033	1	1	0	858,6333333	118,3166667	34,4	98,65	77,3544	10,659	3,099	8,8876	133,05	11,9864	7	7149	1110	5	793,0416667	142,0833333	42,91666667	131,9583333	71,445	12,8005	3,8665	11,8885	174,875	15,7545	9,2	8740,5	1110	2	7	5879,25	875,75	257,8333333	757,1666667	75,666	11,271	3,318	9,745	1015	13,063	145	53226	7770	7	3
1011034	1	1	0	836,1166667	117,95	37,53333333	118,4	75,3256	10,626	3,3812	10,6666	155,9333333	14,048	8,2	8777,8	1110	5	891,375	90,29166667	28,54166667	99,79166667	80,304	8,134	2,5715	8,99	128,3333333	11,5615	6,75	8821,5	1110	2	7	5963,333333	770,3333333	244,75	791,5833333	76,748	9,914	3,15	10,188	1036,333333	13,338	148,048	61532	7770	7	3
1011035	1	1	0	832,55	123,1	36,78333333	117,5666667	75,0046	11,09	3,3136	10,5916	154,35	13,9056	8,12	7700	1110	5	715,7916667	135,6666667	50,04166667	208,5	64,486	12,222	4,5085	18,784	258,5416667	23,292	13,6	17540	1110	2	7	5594,333333	886,8333333	284	1004,833333	71,999	11,414	3,655	12,932	1288,833333	16,587	184,119	73580	7770	7	3
1011036	1	2	2	810,4833333	155,5	42,66666667	101,35	73,0164	14,009	3,844	9,1306	144,0166667	12,9744	7,58	6862,4	1110	5	761,875	152,3333333	47,08333333	148,7083333	68,637	13,7235	4,242	13,3975	195,7916667	17,6385	10,3	11871,5	1110	2	7	5576,166667	1082,166667	307,5	804,1666667	71,765	13,927	3,958	10,35	1111,666667	14,307	158,81	58055	7770	7	3
1020004	1	0	1	1015,166667	76,02777778	13,11111111	5,694444444	91,45633333	6,849333333	1,181	0,513	18,80555556	1,694333333	1	2230,666667	1110	3	1110	0	0	0	100	0	0	0	0	0	0	0	1110	2	5	7485,5	228,0833333	39,33333333	17,08333333	96,338	2,935	0,506	0,22	56,41666667	0,726	8,06	6692	7770	7	3
1020005	1	0	1	881,6333333	166,3333333	40,26666667	21,76666667	79,4266	14,985	3,6276	1,961	62,03333333	5,5886	3,3	6219	1110	5	930,5	141,875	23,33333333	14,29166667	83,829	12,7815	2,102	1,2875	37,625	3,39	2	6178	1110	2	7	6269,166667	1115,416667	248	137,4166667	80,684	14,355	3,192	1,769	385,4166667	4,96	55,06	43451	7770	7	3
1020006	1	0	1	812,2333333	233,9833333	46,5	17,28333333	73,1742	21,0794	4,1892	1,5572	63,78333333	5,7462	3,36	8327,4	1110	5	798,5416667	247,7916667	47,83333333	15,83333333	71,9405	22,3235	4,309	1,4265	63,66666667	5,736	3,35	10742,5	1110	2	7	5658,25	1665,5	328,1666667	118,0833333	72,822	21,435	4,224	1,52	446,25	5,743	63,75	63122	7770	7	3
1020009	1	0	1	911,3666667	150,1666667	33,8	14,66666667	82,1052	13,5284	3,045	1,3214	48,46666667	4,3664	2,56	4596,2	1110	5	916,4166667	148,7083333	30,70833333	14,16666667	82,56	13,397	2,7665	1,2765	44,875	4,0425	2,35	5095	1110	2	7	6389,666667	1048,25	230,4166667	101,6666667	82,235	13,491	2,965	1,308	332,0833333	4,274	47,44	33171	7770	7	3
1020018	1	0	1	648,4	328,25	83,9	49,45	58,4146	29,572	7,5588	4,4548	133,35	12,0136	7,02	11379,2	1110	5	855	178,3333333	47,375	29,29166667	77,027	16,066	4,2685	2,639	76,66666667	6,907	4,05	7279,5	1110	2	7	4952	1997,916667	514,25	305,8333333	63,732	25,713	6,618	3,936	820,0833333	10,554	117,155	71455	7770	7	3
1020025	1	0	1	778,2833333	233,2166667	59,05	39,45	70,1154	21,0106	5,32	3,554	98,5	8,8738	5,2	9353	1110	5	773,6666667	256,5	49,125	30,70833333	69,7	23,108	4,4255	2,7665	79,83333333	7,1925	4,2	11944,5	1110	2	7	5438,75	1679,083333	393,5	258,6666667	69,997	21,61	5,064	3,329	652,1666667	8,393	93,167	70654	7770	7	3
1020027	1	0	1	813,4833333	227,15	48,41666667	20,95	73,2866	20,4642	4,3618	1,8872	69,36666667	6,2492	3,62	7841,2	1110	5	755,6666667	249,4166667	69,70833333	35,20833333	68,078	22,47	6,28	3,1715	104,9166667	9,452	5,5	9943,5	1110	2	7	5578,75	1634,583333	381,5	175,1666667	71,799	21,037	4,91	2,254	556,6666667	7,164	79,524	59093	7770	7	3
1020028	1	0	1	780,85	244,7	54,81666667	29,63333333	70,3468	22,045	4,9386	2,6698	84,45	7,608	4,46	8164,8	1110	5	740,2083333	262,9583333	70,79166667	36,04166667	66,6855	23,69	6,378	3,247	106,8333333	9,6245	5,6	8716	1110	2	7	5384,666667	1749,416667	415,6666667	220,25	69,301	22,515	5,35	2,835	635,9166667	8,184	90,845	58256	7770	7	3
1020038	1	0	1	767,5833333	283,1166667	41,95	17,35	69,1516	25,506	3,7794	1,5628	59,3	5,3424	3,14	9012	1110	5	1105,5	1,833333333	1,125	1,541666667	99,5945	0,165	0,1015	0,139	2,666666667	0,24	0,15	153	1110	2	7	6048,916667	1419,25	212	89,83333333	77,85	18,266	2,728	1,156	301,8333333	3,885	43,119	45366	7770	7	3
1020039	1	0	1	854,1333333	205,1	37,26666667	13,5	76,949	18,4776	3,3572	1,2164	50,76666667	4,5738	2,68	6677,4	1110	5	981,625	105	17,45833333	5,916666667	88,435	9,4595	1,5725	0,533	23,375	2,106	1,25	3829	1110	2	7	6233,916667	1235,5	221,25	79,33333333	80,231	15,901	2,847	1,021	300,5833333	3,869	42,94	41045	7770	7	3
1021001	1	1	1	784,2916667	248,7291667	48,52083333	28,45833333	70,657	22,408	4,3715	2,56375	76,97916667	6,93525	4,05	9459,25	1110	4	843,25	216,0416667	35,66666667	15,04166667	75,9685	19,4635	3,213	1,355	50,70833333	4,568	2,65	7694,5	1110	2	6	4823,666667	1427	265,4166667	143,9166667	72,427	21,426	3,985	2,161	409,3333333	6,146	68,222	53226	6660	6	3
1021004	1	1	1	760	285,2708333	46,52083333	18,20833333	68,4685	25,70025	4,191	1,64025	64,72916667	5,8315	3,4	10902,75	1110	4	854,375	210,75	28,875	16	76,971	18,9865	2,6015	1,4415	44,875	4,043	2,35	6759	1110	2	6	4748,75	1562,583333	243,8333333	104,8333333	71,303	23,462	3,661	1,574	348,6666667	5,235	58,111	57129	6660	6	3
1021005	1	1	1	787,2083333	258,3958333	41,27083333	23,125	70,9195	23,279	3,718	2,08325	64,39583333	5,8015	3,4	9215,75	1110	4	867,5	201	27,41666667	14,08333333	78,1535	18,108	2,47	1,269	41,5	3,7385	2,2	5434,5	1110	2	6	4883,833333	1435,583333	219,9166667	120,6666667	73,331	21,555	3,302	1,812	340,5833333	5,114	56,764	47732	6660	6	3
1021006	1	1	1	917,9	134,7666667	31,65	25,68333333	82,6938	12,1412	2,8514	2,3138	57,33333333	5,1654	3,02	6477,4	1110	5	809,5416667	224,8333333	47,29166667	28,33333333	72,9315	20,255	4,2605	2,5525	75,625	6,813	3,95	12160,5	1110	2	7	6208,583333	1123,5	252,8333333	185,0833333	79,905	14,459	3,254	2,382	437,9166667	5,636	62,56	56708	7770	7	3
1021012	1	1	1	799,9375	234,1875	46,85416667	29,02083333	72,06625	21,098	4,22125	2,6145	75,875	6,8355	3,975	11815	1110	4	902,7083333	167,625	30,41666667	9,25	81,3255	15,101	2,7405	0,833	39,66666667	3,5735	2,1	6922	1110	2	6	5005,166667	1272	248,25	134,5833333	75,153	19,099	3,727	2,021	382,8333333	5,748	63,806	61104	6660	6	3
1021013	1	1	1	1106,229167	2,770833333	0,6875	0,3125	99,66025	0,24975	0,062	0,02825	1	0,09025	0,05	101,25	1110	4	1108,666667	0,625	0,291666667	0,416666667	99,8795	0,0565	0,0265	0,038	0,708333333	0,064	0	32,5	1110	2	6	6642,25	12,33333333	3,333333333	2,083333333	99,733	0,185	0,05	0,031	5,416666667	0,081	0,903	470	6660	6	3
1021020	1	1	1	752,8125	261,75	56,5625	38,875	67,82125	23,581	5,09575	3,50225	95,4375	8,598	5	11091	1110	4	761,8333333	259,75	55,20833333	33,20833333	68,6335	23,4005	4,974	2,992	88,41666667	7,9655	4,65	10224	1110	2	6	4534,916667	1566,5	336,6666667	221,9166667	68,092	23,521	5,055	3,332	558,5833333	8,387	93,097	64812	6660	6	3
1021023	1	1	1	778,45	231,2333333	51,86666667	48,45	70,1308	20,832	4,6726	4,3648	100,3166667	9,0374	5,26	11391,4	1110	5	889,4166667	155,4583333	37,29166667	27,83333333	80,128	14,0055	3,3595	2,5075	65,125	5,8675	3,4	7528	1110	2	7	5671,083333	1467,083333	333,9166667	297,9166667	72,987	18,881	4,298	3,834	631,8333333	8,132	90,262	72013	7770	7	3
1021030	1	1	1	846,625	183,4166667	48,47916667	31,47916667	76,2725	16,52375	4,3675	2,83625	79,95833333	7,20325	4,225	10270,75	1110	4	852,125	179,5416667	48,20833333	30,125	76,768	16,175	4,343	2,7135	78,33333333	7,0575	4,1	10105	1110	2	6	5090,75	1092,75	290,3333333	186,1666667	76,438	16,408	4,359	2,795	476,5	7,155	79,417	61293	6660	6	3
1021031	1	1	1	847,3333333	214,7708333	35,60416667	12,29166667	76,33625	19,34875	3,20775	1,1075	47,89583333	4,31525	2,525	6360,5	1110	4	876,8333333	196,0416667	29,04166667	8,083333333	78,994	17,661	2,616	0,728	37,125	3,3445	1,95	6744,5	1110	2	6	5143	1251,166667	200,5	65,33333333	77,222	18,786	3,011	0,981	265,8333333	3,991	44,306	38931	6660	6	3
1021032	1	1	1	898,5166667	165,8166667	32,08333333	13,58333333	80,9474	14,9382	2,8904	1,2236	45,66666667	4,1144	2,4	6174,4	1110	5	990,8333333	93,75	19,54166667	5,875	89,2645	8,446	1,7605	0,5295	25,41666667	2,29	1,35	3877,5	1110	2	7	6474,25	1016,583333	199,5	79,66666667	83,324	13,083	2,568	1,025	279,1666667	3,593	39,881	38627	7770	7	3
1021038	1	1	1	826,8125	217,0625	37,27083333	28,85416667	74,4875	19,55525	3,35775	2,5995	66,125	5,95725	3,5	9563,25	1110	4	910,4583333	144,1666667	31,41666667	23,95833333	82,023	12,988	2,8305	2,1585	55,375	4,9885	2,9	6178,5	1110	2	6	5128,166667	1156,583333	211,9166667	163,3333333	76,999	17,366	3,182	2,452	375,25	5,634	62,542	50610	6660	6	3
1021039	1	1	1	850,2291667	213,9583333	29,1875	16,625	76,59725	19,2755	2,6295	1,49775	45,8125	4,12725	2,4	7965,5	1110	4	892,0833333	181,2083333	28,20833333	8,5	80,3675	16,3255	2,541	0,766	36,70833333	3,307	1,95	6378	1110	2	6	5185,083333	1218,25	173,1666667	83,5	77,854	18,292	2,6	1,254	256,6666667	3,854	42,778	44618	6660	6	3
1021041	1	1	1	832,9166667	210,55	41,83333333	24,7	75,0376	18,9684	3,7688	2,2254	66,53333333	5,994	3,5	9235,8	1110	5	919,5833333	154	25,70833333	10,70833333	82,845	13,874	2,316	0,965	36,41666667	3,281	1,9	4425	1110	2	7	6003,75	1360,75	260,5833333	144,9166667	77,268	17,513	3,354	1,865	405,5	5,219	57,929	55029	7770	7	3
1021047	1	1	1	867,4333333	171,1833333	41,05	30,33333333	78,1468	15,422	3,6984	2,7328	71,38333333	6,431	3,76	11481	1110	5	872,875	149,5416667	52,70833333	34,875	78,637	13,4725	4,7485	3,142	87,58333333	7,8905	4,6	12215	1110	2	7	6082,916667	1155	310,6666667	221,4166667	78,287	14,865	3,998	2,85	532,0833333	6,848	76,012	81835	7770	7	3
1021049	1	1	1	834,3833333	217,55	38,26666667	19,8	75,1696	19,599	3,4472	1,7838	58,06666667	5,2312	3,04	8095	1110	5	795,5	262,875	37,5	14,125	71,667	23,6825	3,378	1,273	51,625	4,651	2,7	8376	1110	2	7	5762,916667	1613,5	266,3333333	127,25	74,169	20,766	3,428	1,638	393,5833333	5,065	56,226	57227	7770	7	3
1021050	1	1	1	977,35	110,9	13,26666667	8,483333333	88,0494	9,9908	1,1952	0,7642	21,75	1,9592	1,14	4207,2	1110	5	967,625	116,125	17	9,25	87,1735	10,462	1,5315	0,8335	26,25	2,3645	1,4	3734	1110	2	7	6822	786,75	100,3333333	60,91666667	87,799	10,125	1,291	0,784	161,25	2,075	23,036	28504	7770	7	3
1021056	1	1	1	860,3125	215,4583333	23,10416667	11,125	77,50575	19,41075	2,0815	1,00225	34,22916667	3,084	1,8	7667	1110	4	942,0416667	144,875	16,41666667	6,666666667	84,8685	13,052	1,4785	0,6005	23,08333333	2,0795	1,2	4502,5	1110	2	6	5325,333333	1151,583333	125,25	57,83333333	79,96	17,291	1,881	0,868	183,0833333	2,749	30,514	39673	6660	6	3
2031001	2	1	2	779,8333333	150,25	46,70833333	132,2916667	70,3135	13,547	4,211	11,928	179	16,1395	9,4	8930,5	1109,08	2	1109,083333	0	0	0	100	0	0	0	0	0	0	0	1109,08	1	3	2668,75	300,5	93,41666667	264,5833333	80,209	9,031	2,808	7,952	358	10,76	119,333	17861	3327,25	3	3
2031002	2	1	2	803,5833333	131,1666667	40,75	133,5833333	72,455	11,8265	3,6745	12,0445	174,3333333	15,7185	9,2	10071,5	1109,08	2	796,9583333	110,0416667	48,25	153,8333333	71,8575	9,9215	4,3505	13,8705	202,0833333	18,2205	10,65	13552	1109,08	2	4	3201,083333	482,4166667	178	574,8333333	72,156	10,874	4,012	12,957	752,8333333	16,97	188,208	47247	4436,33	4	3
2031010	2	1	2	840,75	132,8333333	39,41666667	96,08333333	75,806	11,977	3,554	8,663	135,5	12,217	7,1	7015	1109,08	1	890,4583333	113,375	30,16666667	75,08333333	80,2875	10,2225	2,72	6,77	105,25	9,49	5,55	6842	1109,08	2	3	2621,666667	359,5833333	99,75	246,25	78,794	10,807	2,998	7,401	346	10,399	115,333	20699	3327,25	3	3
2031011	2	1	2	794,5833333	132	48,58333333	133,9166667	71,643	11,902	4,38	12,075	182,5	16,455	9,6	11003	1109,08	1	709,5	157,9166667	62,58333333	179,0833333	63,972	14,2385	5,6425	16,1465	241,6666667	21,79	12,7	13811,5	1109,08	2	3	2213,583333	447,8333333	173,75	492,0833333	66,529	13,46	5,222	14,789	665,8333333	20,012	221,944	38626	3327,25	3	3
2031012	2	1	2	.	.	.	.	.	.	.	.	.	.	.	.	.	.	903,7083333	88,125	32,04166667	85,20833333	81,4825	7,946	2,889	7,683	117,25	10,572	6,2	7427,5	1109,08	2	2	1807,416667	176,25	64,08333333	170,4166667	81,482	7,946	2,889	7,683	234,5	10,572	117,25	14855	2218,17	2	3
2031013	2	1	2	922	111	24	53	83,063	10	2,162	4,775	77	6,937	4,1	0	1110	1	1108	2	0	0	99,82	0,18	0	0	0	0	0	0	1110	2	3	3138	115	24	53	94,234	3,453	0,721	1,592	77	2,312	25,667	0	3330	3	3
2031017	2	1	2	841	52,75	6,25	12,75	92,595	5,4165	0,72925	1,25925	19	1,9885	1,125	0	912,75	4	1083,5	19,5	4	3	97,6125	1,757	0,36	0,2705	7	0,6305	0,4	0	1110	2	6	5531	250	33	57	94,209	4,258	0,562	0,971	90	1,533	15	0	5871	6	3
2031020	2	1	2	.	.	.	.	.	.	.	.	.	.	.	.	.	.	903,7083333	88,125	32,04166667	85,20833333	81,4825	7,946	2,889	7,683	117,25	10,572	6,2	7427,5	.	2	2	1807,416667	176,25	64,08333333	170,4166667	81,482	7,946	2,889	7,683	234,5	10,572	117,25	14855	2218,17	2	3
2031021	2	1	2	.	.	.	.	.	.	.	.	.	.	.	.	.	.	804,4583333	120	43,41666667	141,2083333	72,5335	10,8195	3,9145	12,7315	184,625	16,647	9,7	11818	1109,08	2	2	1608,916667	240	86,83333333	282,4166667	72,534	10,82	3,915	12,732	369,25	16,647	184,625	23636	2218,17	2	3
2031022	2	1	2	.	.	.	.	.	.	.	.	.	.	.	.	.	.	794,2916667	794,2916667	794,2916667	794,2916667	794,2916667	794,2916667	794,2916667	794,2916667	794,2916667	794,2916667	794,2916667	794,2916667	1109,08	2	2	1588,583333	253,4166667	89,33333333	286,8333333	71,617	11,425	4,027	12,931	376,1666667	16,958	188,083	16762	2218,17	2	3
2031030	2	1	2	605	341	73	91	54,505	30,721	6,577	8,198	164	14,775	8,6	0	1110	1	811,5	208,5	52,5	37,5	73,108	18,784	4,7295	3,3785	90	8,108	4,75	0	1110	2	3	2228	758	178	166	66,907	22,763	5,345	4,985	344	10,33	114,667	0	3330	3	3
2031033	2	1	2	824,8541667	143,4375	39,64583333	101,1458333	74,3725	12,93325	3,5745	9,11975	140,7916667	12,69425	7,425	0	1109,08	4	929,9166667	96,33333333	27,54166667	55,29166667	83,8455	8,686	2,483	4,9855	82,83333333	7,4685	4,35	0	1109,08	2	6	5159,25	766,4166667	213,6666667	515,1666667	77,53	11,517	3,211	7,742	728,8333333	10,952	121,472	0	6654,5	6	3
2031035	2	1	2	964,8333333	79,83333333	20,58333333	43,83333333	86,994	7,198	1,856	3,952	64,41666667	5,808	3,4	2853	1109,08	1	957,1666667	72,29166667	25,41666667	54,20833333	86,3025	6,5185	2,292	4,888	79,625	7,179	4,2	3422,5	1109,08	2	3	2879,166667	224,4166667	71,41666667	152,25	86,533	6,745	2,146	4,576	223,6666667	6,722	74,556	9698	3327,25	3	3
2031037	2	1	2	1039,75	23,91666667	9,083333333	36,33333333	93,749	2,156	0,819	3,276	45,41666667	4,095	2,4	3069	1109,08	1	885,0833333	77,83333333	39,33333333	106,8333333	79,803	7,018	3,546	9,633	146,1666667	13,179	7,7	7113	1109,08	1	2	2729,916667	211,75	90,66666667	294,9166667	82,047	6,364	2,725	8,864	385,5833333	11,589	128,528	23466	3327,25	3	3
2031039	2	1	2	681	266	57	106	61,351	23,964	5,135	9,55	163	14,685	8,6	0	1110	1	589,5	311	96,5	113	53,108	28,018	8,694	10,18	209,5	18,874	11,05	0	1110	2	3	1860	888	250	332	55,856	26,667	7,508	9,97	582	17,477	194	0	3330	3	3
2040002	2	0	2	989,0833333	44,73333333	15,23333333	48,21666667	90,0666	4,1092	1,4	4,424	63,45	5,824	3,38	3686,2	1089,86	5	1094,375	10,375	1,333333333	3	98,6735	0,9355	0,1205	0,2705	4,333333333	0,391	0,25	209,5	1109,08	2	7	7134,166667	244,4166667	78,83333333	247,0833333	92,597	3,172	1,023	3,207	325,9166667	4,23	46,56	18850	7704,5	7	3
2040025	2	2	2	790,625	159,75	49,625	109,0833333	71,2865	14,4035	4,4745	9,8355	158,7083333	14,31	8,35	8077	1109,09	2	1077,958333	0,75	0,25	0,583333333	99,8505	0,071	0,0235	0,0555	0,833333333	0,079	0,05	19,5	1079,54	2	4	3737,166667	321	99,75	219,3333333	85,377	7,333	2,279	5,011	319,0833333	7,29	79,771	16193	4377,25	4	3
2040027	2	0	2	830,375	148,375	44,20833333	86,125	74,8705	13,3785	3,986	7,7655	130,3333333	11,7515	6,9	6143,5	1109,09	2	722,125	162,8333333	51,875	142,7083333	66,9435	15,05	4,803	13,203	194,5833333	18,006	10,5	9566,5	1079,54	2	4	3105	622,4166667	192,1666667	457,6666667	70,935	14,219	4,39	10,456	649,8333333	14,846	162,458	31420	4377,25	4	3
2040029	2	0	2	927,25	94,75	25,29166667	61,79166667	83,605	8,5435	2,2805	5,5715	87,08333333	7,852	4,6	4026,5	1109,15	2	954,8333333	62,25	20,375	42,08333333	88,2245	5,8835	1,9285	3,963	62,45833333	5,892	3,45	2778	1079,54	2	4	3764,166667	314	91,33333333	207,75	85,994	7,173	2,087	4,746	299,0833333	6,833	74,771	13609	4377,25	4	3
2040031	2	0	2	848,5416667	116,25	36,91666667	107,375	76,5085	10,482	3,3285	9,6815	144,2916667	13,01	7,6	7209,5	1109,18	2	886,75	68,70833333	28,91666667	95,16666667	82,112	6,378	2,678	8,8325	124,0833333	11,51	6,75	6910,5	1079,54	2	4	3470,583333	369,9166667	131,6666667	405,0833333	79,287	8,451	3,008	9,254	536,75	12,262	134,188	28240	4377,25	4	3
2040039	2	0	2	798,9166667	165,5	46,41666667	98,25	72,034	14,922	4,185	8,859	144,6666667	13,044	7,6	5707	1109,08	1	767,2083333	146,3333333	48,16666667	147,375	69,175	13,194	4,343	13,288	195,5416667	17,6305	10,3	7118,5	1109,08	2	3	2333,333333	458,1666667	142,75	393	70,128	13,77	4,29	11,812	535,75	16,102	178,583	19944	3327,25	3	3
2040040	2	0	2	1074,958333	21,25	4,625	8,25	96,923	1,916	0,417	0,744	12,875	1,161	0,65	633	1109,21	2	1079,333333	0,083333333	0	0,125	99,981	0,008	0	0,0115	0,125	0,0115	0	3	1079,54	2	4	4308,583333	42,66666667	9,25	16,75	98,431	0,975	0,211	0,383	26	0,594	6,5	1272	4377,25	4	3
2040043	2	0	2	787,7083333	146,3333333	49,75	125,2916667	71,0235	13,194	4,4855	11,297	175,0416667	15,7825	9,2	7529,5	1109,08	2	947,0833333	66,70833333	20,25	45,5	87,815	6,1405	1,857	4,187	65,75	6,0445	3,5	2445,5	1079,54	2	4	3469,583333	426,0833333	140	341,5833333	79,264	9,734	3,198	7,804	481,5833333	11,002	120,396	19950	4377,25	4	3
2040044	2	0	2	842,4583333	123,2916667	37,66666667	105,6666667	75,96	11,1165	3,396	9,5275	143,3333333	12,9235	7,55	7653,5	1109,08	2	769,625	142,125	43,58333333	124,2083333	71,423	13,099	4,0135	11,464	167,7916667	15,4775	9	9389	1079,54	2	4	3224,166667	530,8333333	162,5	459,75	73,657	12,127	3,712	10,503	622,25	14,216	155,563	34085	4377,25	4	3
2041001	2	1	2	787,9166667	147,6666667	43,16666667	130,3333333	71,042	13,314	3,892	11,751	173,5	15,644	9,1	9567	1109,08	1	791,625	142,4166667	44,54166667	130,5	71,3765	12,841	4,016	11,766	175,0416667	15,783	9,2	8478,5	1109,08	2	3	2371,166667	432,5	132,25	391,3333333	71,265	12,999	3,975	11,761	523,5833333	15,736	174,528	26524	3327,25	3	3
2041002	2	1	2	827,1666667	128,1666667	42,75	111	74,581	11,556	3,855	10,008	153,75	13,863	8,1	8061	1109,08	1	841,3333333	139	41,08333333	87,66666667	75,8585	12,5325	3,7045	7,9045	128,75	11,609	6,8	5690,5	1109,08	2	3	2509,833333	406,1666667	124,9166667	286,3333333	75,433	12,207	3,754	8,606	411,25	12,36	137,083	19442	3327,25	3	3
2041011	2	1	2	856,8333333	114,5	36,58333333	101,1666667	77,256	10,324	3,299	9,122	137,75	12,42	7,3	6889	1109,08	1	862,5416667	111,3333333	34,66666667	100,5416667	77,771	10,0385	3,1255	9,0655	135,2083333	12,191	7,1	5294,5	1109,08	2	3	2581,916667	337,1666667	105,9166667	302,25	77,599	10,133	3,183	9,084	408,1666667	12,267	136,056	17478	3327,25	3	3
2041013	2	1	2	794,0833333	163,25	45	106,75	71,598	14,719	4,057	9,625	151,75	13,682	8	7162	1109,08	1	933,25	89,79166667	23,66666667	62,375	84,146	8,096	2,134	5,624	86,04166667	7,758	4,55	4916	1109,08	2	3	2660,583333	342,8333333	92,33333333	231,5	79,963	10,304	2,775	6,958	323,8333333	9,733	107,944	16994	3327,25	3	3
2041026	2	1	2	776,3333333	143,3333333	47,08333333	142,3333333	69,998	12,924	4,245	12,833	189,4166667	17,079	10	9051	1109,08	1	934,7916667	69,95833333	27,41666667	76,91666667	84,285	6,308	2,472	6,935	104,3333333	9,407	5,5	4983	1109,08	2	3	2645,916667	283,25	101,9166667	296,1666667	79,523	8,513	3,063	8,901	398,0833333	11,964	132,694	19017	3327,25	3	3
2041040	2	1	2	941,1666667	88,16666667	25,58333333	54,16666667	84,8595	7,95	2,307	4,884	79,75	7,1905	4,2	4524,5	1109,08	2	953,5	61,29166667	16,16666667	48,58333333	88,0915	5,784	1,528	4,596	64,75	6,124	3,6	2530,5	1079,54	2	4	3789,333333	298,9166667	83,5	205,5	86,569	6,829	1,908	4,695	289	6,602	72,25	14110	4377,25	4	3
2041041	2	1	2	848,5	152,0416667	39,875	68,66666667	76,5045	13,7085	3,5955	6,1915	108,5416667	9,7865	5,7	6737,5	1109,08	2	849,7916667	128,75	36,41666667	64,58333333	78,72	11,903	3,371	6,006	101	9,3775	5,45	6645,5	1079,54	2	4	3396,583333	561,5833333	152,5833333	266,5	77,596	12,83	3,486	6,088	419,0833333	9,574	104,771	26766	4377,25	4	3
2041042	2	1	2	747,4583333	187,8333333	53,375	120,4166667	67,394	16,936	4,8125	10,857	173,7916667	15,6695	9,15	9732,5	1109,08	2	790,9166667	142,2916667	39,54166667	106,7916667	73,322	13,193	3,6505	9,8335	146,3333333	13,485	7,9	7702	1079,54	2	4	3076,75	660,25	185,8333333	454,4166667	70,29	15,084	4,245	10,381	640,25	14,627	160,063	34869	4377,25	4	3
2041043	2	1	2	729,9166667	180,9583333	61,91666667	136,2916667	65,8125	16,316	5,583	12,289	198,2083333	17,871	10,4	11304,5	1109,08	2	762,5416667	144,75	50,66666667	121,5833333	70,667	13,41	4,6905	11,2325	172,25	15,923	9,3	7910,5	1079,54	2	4	2984,916667	651,4166667	225,1666667	515,75	68,192	14,882	5,144	11,783	740,9166667	16,927	185,229	38430	4377,25	4	3
2041044	2	1	2	1029	33,125	11,29166667	35,66666667	92,7795	2,987	1,018	3,216	46,95833333	4,234	2,45	1775	1109,08	2	1055,166667	10,08333333	3,666666667	10,625	97,7095	0,951	0,345	0,995	14,29166667	1,34	0,75	483	1079,54	2	4	4168,333333	86,41666667	29,91666667	92,58333333	95,227	1,974	0,683	2,115	122,5	2,799	30,625	4516	4377,25	4	3
2041045	2	1	2	848,5416667	116,25	36,91666667	107,375	76,5085	10,482	3,3285	9,6815	144,2916667	13,01	7,6	7209,5	1109,08	2	886,75	68,70833333	28,91666667	95,16666667	82,112	6,378	2,678	8,8325	124,0833333	11,51	6,75	6910,5	1079,54	2	4	3470,583333	369,9166667	131,6666667	405,0833333	79,287	8,451	3,008	9,254	536,75	12,262	134,188	28240	4377,25	4	3
2041046	2	1	2	918,0833333	101,5833333	29,29166667	60,125	82,7785	9,159	2,641	5,421	89,41666667	8,0625	4,7	5448	1109,08	2	950,125	73	21,16666667	35,25	88,3295	6,5825	1,9085	3,18	56,41666667	5,088	2,95	2729	1079,54	2	4	3736,416667	349,1666667	100,9166667	190,75	85,36	7,977	2,305	4,358	291,6666667	6,663	72,917	16354	4377,25	4	3
2041048	2	1	2	812,625	156,3333333	47,45833333	92,66666667	73,27	14,096	4,2795	8,355	140,125	12,6345	7,35	8812	1109,08	2	1078,083333	0,583333333	0,166666667	0,708333333	99,866	0,0545	0,0155	0,0645	0,875	0,08	0,05	23,5	1079,54	2	4	3781,416667	313,8333333	95,25	186,75	86,388	7,17	2,176	4,266	282	6,442	70,5	17671	4377,25	4	3
2041049	2	1	2	720,625	196,75	57,33333333	134,375	64,975	17,7395	5,1695	12,1155	191,7083333	17,2855	10,05	11612	1109,08	2	954,1666667	69,04166667	20,125	36,20833333	88,684	6,2315	1,816	3,2695	56,33333333	5,085	2,95	2706	1079,54	2	4	3349,583333	531,5833333	154,9166667	341,1666667	76,523	12,144	3,539	7,794	496,0833333	11,333	124,021	28636	4377,25	4	3
2041050	2	1	2	868,8333333	112	34,58333333	93,66666667	78,338	10,098	3,118	8,445	128,25	11,564	6,8	6332	1109,08	1	861,125	115,1666667	37,33333333	95,45833333	77,643	10,384	3,3665	8,607	132,7916667	11,973	7	5283	1109,08	2	3	2591,083333	342,3333333	109,25	284,5833333	77,875	10,289	3,283	8,553	393,8333333	11,837	131,278	16898	3327,25	3	3
2041051	2	1	2	895,1666667	106,75	32,16666667	75	80,712	9,625	2,9	6,762	107,1666667	9,663	5,6	5038	1109,08	1	861,125	99,625	33,16666667	115,1666667	77,643	8,983	2,9905	10,384	148,3333333	13,3745	7,8	6022,5	1109,08	2	3	2617,416667	306	98,5	305,3333333	78,666	9,197	2,96	9,177	403,8333333	12,137	134,611	17083	3327,25	3	3
2041052	2	1	2	755,7083333	146,6666667	58,91666667	147,7916667	68,138	13,2245	5,3125	13,3255	206,7083333	18,6375	10,9	11940,5	1109,08	2	794,7916667	128,2083333	45,33333333	111,2083333	73,6705	11,822	4,204	10,3035	156,5416667	14,5075	8,45	8749	1079,54	2	4	3101	549,75	208,5	518	70,844	12,559	4,763	11,834	726,5	16,597	181,625	41379	4377,25	4	3
2041053	2	1	2	864,7083333	137,875	34	72,5	77,9665	12,4315	3,0655	6,537	106,5	9,6025	5,6	6402	1109,08	2	828,0833333	110,0833333	38,625	102,75	76,7165	10,24	3,571	9,473	141,375	13,044	7,6	7875	1079,54	2	4	3385,583333	495,9166667	145,25	350,5	77,345	11,329	3,318	8,007	495,75	11,326	123,938	28554	4377,25	4	3
2041054	2	1	2	777,0416667	163,125	51,29166667	117,625	70,0615	14,708	4,625	10,6055	168,9166667	15,2305	8,85	8265	1109,08	2	833,9166667	127,8333333	36,29166667	81,5	77,1575	11,877	3,3805	7,5845	117,7916667	10,9655	6,4	6492,5	1079,54	2	4	3221,916667	581,9166667	175,1666667	398,25	73,606	13,294	4,002	9,098	573,4166667	13,1	143,354	29515	4377,25	4	3
4010137	4	0	0	807,6666667	147,4583333	44,58333333	110,2916667	72,7625	13,2845	4,0165	9,936	154,875	13,9525	8,15	7660	1110	2	835,625	134,9583333	42,45833333	96,95833333	75,2815	12,158	3,825	8,735	139,4166667	12,56	7,35	7263	1110	2	4	3286,583333	564,8333333	174,0833333	414,5	74,022	12,721	3,921	9,336	588,5833333	13,256	147,146	29846	4440	4	3
4010140	4	0	0	834,625	120,5416667	42,29166667	112,5416667	75,1915	10,8595	3,81	10,139	154,8333333	13,949	8,15	8096,5	1110	2	915,5833333	92,83333333	31,91666667	69,66666667	82,485	8,3635	2,8755	6,276	101,5833333	9,1515	5,35	3901,5	1110	2	4	3500,416667	426,75	148,4166667	364,4166667	78,838	9,611	3,343	8,208	512,8333333	11,55	128,208	23996	4440	4	3
4010142	4	0	0	818,5	151,4166667	47,91666667	92,16666667	73,7385	13,641	4,317	8,303	140,0833333	12,6205	7,4	6542	1110	2	948,2083333	102,7916667	23,41666667	35,58333333	85,424	9,2605	2,1095	3,2055	59	5,315	3,1	3557	1110	2	4	3533,416667	508,4166667	142,6666667	255,5	79,581	11,451	3,213	5,755	398,1666667	8,968	99,542	20198	4440	4	3
4010150	4	0	0	808,5416667	147,4166667	46,375	107,6666667	72,8415	13,281	4,178	9,6995	154,0416667	13,878	8,15	9152	1110	2	773,1666667	169	49,29166667	118,5416667	69,655	15,225	4,441	10,679	167,8333333	15,12	8,85	8962,5	1110	2	4	3163,416667	632,8333333	191,3333333	452,4166667	71,248	14,253	4,309	10,19	643,75	14,499	160,938	36229	4440	4	3
4010155	4	0	0	885,0833333	74,375	28,75	121,7916667	79,7375	6,7005	2,59	10,9725	150,5416667	13,5625	7,9	5201,5	1110	2	906,1666667	90,95833333	29,95833333	82,91666667	81,6365	8,1945	2,699	7,47	112,875	10,169	5,95	3597	1110	2	4	3582,5	330,6666667	117,4166667	409,4166667	80,687	7,447	2,645	9,221	526,8333333	11,866	131,708	17597	4440	4	3
4010156	4	0	0	907,5416667	72,70833333	28	101,75	81,7605	6,55	2,5225	9,1665	129,75	11,689	6,8	5196	1110	2	1004,583333	60	15	30,41666667	90,503	5,4055	1,3515	2,7405	45,41666667	4,0915	2,4	1594	1110	2	4	3824,25	265,4166667	86	264,3333333	86,132	5,978	1,937	5,953	350,3333333	7,89	87,583	13580	4440	4	3
4010157	4	0	0	709,5416667	211,2083333	63,16666667	126,0833333	63,9225	19,028	5,691	11,359	189,25	17,0495	9,95	7736	1110	2	844	153,9166667	39,58333333	72,5	76,036	13,866	3,566	6,5315	112,0833333	10,098	5,9	4908,5	1110	2	4	3107,083333	730,25	205,5	397,1666667	69,979	16,447	4,628	8,945	602,6666667	13,574	150,667	25289	4440	4	3
4010158	4	0	0	790,5	156,7916667	44,375	118,3333333	71,216	14,1255	3,998	10,661	162,7083333	14,658	8,55	6582	1110	2	779,2916667	170,625	50,45833333	109,625	70,2065	15,3715	4,546	9,8765	160,0833333	14,422	8,45	8344,5	1110	2	4	3139,583333	654,8333333	189,6666667	455,9166667	70,711	14,748	4,272	10,268	645,5833333	14,54	161,396	29853	4440	4	3
4010159	4	0	0	717,9583333	138,125	52,58333333	201,3333333	64,681	12,4435	4,7375	18,1385	253,9166667	22,875	13,35	10549,5	1110	2	775,1666667	134,4583333	49,08333333	151,2916667	69,8345	12,1135	4,422	13,63	200,375	18,052	10,55	7166	1110	2	4	2986,25	545,1666667	203,3333333	705,25	67,258	12,279	4,58	15,884	908,5833333	20,464	227,146	35431	4440	4	3
4010166	4	0	0	894,25	106,2083333	28,45833333	81,08333333	80,563	9,568	2,564	7,305	109,5416667	9,869	5,8	4868,5	1110	2	842,625	118,9166667	44,20833333	104,25	75,9125	10,713	3,9825	9,392	148,4583333	13,3745	7,8	7888	1110	2	4	3473,75	450,25	145,3333333	370,6666667	78,238	10,141	3,273	8,348	516	11,622	129	25513	4440	4	3
4010169	4	0	0	744,7083333	165,2083333	52,41666667	147,6666667	67,091	14,8835	4,722	13,303	200,0833333	18,0255	10,55	11830,5	1110	2	850,1666667	112,5	35,625	111,7083333	76,5915	10,135	3,2095	10,064	147,3333333	13,2735	7,75	8741	1110	2	4	3189,75	555,4166667	176,0833333	518,75	71,841	12,509	3,966	11,684	694,8333333	15,649	173,708	41143	4440	4	3
4010187	4	0	0	701,4166667	171,5	63,33333333	173,75	63,191	15,4505	5,7055	15,653	237,0833333	21,359	12,5	14651	1110	2	773,875	164,9583333	53,45833333	117,7083333	69,7185	14,8615	4,816	10,6045	171,1666667	15,42	9	9854	1110	2	7	2950,583333	672,9166667	233,5833333	582,9166667	66,455	15,156	5,261	13,129	816,5	18,39	204,125	49010	4440	4	3
5010181	5	2	2	814,5555556	63,08333333	24,38888889	77,05555556	82,579	6,614333333	2,597333333	8,209666667	101,4444444	10,807	6,4	4549	979,08	3	880,75	73,54166667	27,91666667	67,33333333	84,778	6,634	2,517	6,071	95,25	8,588	5	3806,5	1049,54	2	5	4205,166667	336,3333333	129	365,8333333	83,497	6,678	2,561	7,264	494,8333333	9,825	98,967	21260	5036,33	5	3
5010182	5	2	2	615,3055556	150,2222222	55,38888889	158,1666667	64,91833333	14,566	5,302666667	15,21333333	213,5555556	20,51566667	12,03333333	10461,66667	979,08	3	770,5416667	112,5833333	42,5	123,9166667	73,5955	10,6425	4,03	11,7315	166,4166667	15,7615	9,2	7556	1049,54	2	5	3387	675,8333333	251,1666667	722,3333333	67,251	13,419	4,987	14,342	973,5	19,33	194,7	46497	5036,33	5	3
5010183	5	2	2	665,9722222	159,75	52,02777778	101,3333333	68,26133333	16,489	5,287333333	9,962666667	153,3611111	15,25	8,966666667	6718,333333	979,08	3	791,8333333	119,625	41,20833333	96,875	75,9485	11,2525	3,857	8,9415	138,0833333	12,7985	7,5	6820	1049,54	2	5	3581,583333	718,5	238,5	497,75	71,115	14,266	4,736	9,883	736,25	14,619	147,25	33795	5036,33	5	3
5010184	5	2	2	743,9166667	95,88888889	32,61111111	106,6666667	77,12966667	9,31	3,136	10,42466667	139,2777778	13,56033333	7,933333333	8142	979,08	3	980,625	27,25	11,70833333	29,95833333	93,7825	2,459	1,0565	2,702	41,66666667	3,759	2,2	1743,5	1049,54	2	5	4193	342,1666667	121,25	379,9166667	83,255	6,794	2,408	7,544	501,1666667	9,951	100,233	27913	5036,33	5	3
5010185	5	2	2	960,25	5,333333333	2,305555556	11,19444444	97,381	0,741666667	0,320666667	1,556666667	13,5	1,877333333	1,133333333	882,6666667	979,08	3	981,7916667	30,75	7,791666667	29,20833333	93,506	2,923	0,748	2,823	37	3,571	2,05	1715,5	1049,54	2	5	4844,333333	77,5	22,5	92	96,188	1,539	0,447	1,827	114,5	2,273	22,9	6079	5036,33	5	3
5010186	5	2	2	699,9722222	126,5833333	47,13888889	105,3888889	71,862	12,865	4,702333333	10,57	152,5277778	15,27266667	9	7497,666667	979,08	3	753,2083333	145,0416667	42,79166667	108,5	71,7495	13,8525	4,064	10,3335	151,2916667	14,398	8,4	9012	1049,54	2	5	3606,333333	669,8333333	227	533,1666667	71,606	13,3	4,507	10,586	760,1666667	15,094	152,033	40517	5036,33	5	3
5010187	5	2	2	684,0277778	116,5	40,86111111	137,6944444	72,32766667	10,79466667	3,795666667	13,082	178,5555556	16,87733333	9,9	10124	979,08	3	743,8333333	125,2083333	45,58333333	134,9166667	70,829	11,9585	4,368	12,8445	180,5	17,212	10,05	10918,5	1049,54	2	5	3539,75	599,9166667	213,75	682,9166667	70,284	11,912	4,244	13,56	896,6666667	17,804	179,333	52209	5036,33	5	3
5010188	5	2	2	972,1388889	1,694444444	0,75	4,5	99,03433333	0,235666667	0,104333333	0,625666667	5,25	0,73	0,433333333	350,3333333	979,08	3	963,2916667	31,83333333	12,70833333	41,70833333	91,299	3,2105	1,2835	4,2075	54,41666667	5,491	3,2	1602	1049,54	2	5	4843	68,75	27,66666667	96,91666667	96,161	1,365	0,549	1,924	124,5833333	2,474	24,917	4255	5036,33	5	3
5020014	5	1	1	858,0416667	123,5416667	30,08333333	97,41666667	77,365	11,139	2,7125	8,7835	127,5	11,496	6,7	9089	1109,08	2	993,625	40	9,666666667	36,25	92,252	3,6065	0,872	3,2695	45,91666667	4,1415	2,4	3840	1079,54	2	4	3703,333333	327,0833333	79,5	267,3333333	84,604	7,472	1,816	6,107	346,8333333	7,924	86,708	25858	4377,25	4	3
5020016	5	1	1	852,4166667	123,7916667	36,29166667	96,58333333	76,858	11,1615	3,272	8,7085	132,875	11,9805	7	7383,5	1109,08	2	1040,083333	22	5,291666667	12,16666667	96,44	1,9845	0,477	1,0985	17,45833333	1,5755	0,9	891,5	1079,54	2	4	3785	291,5833333	83,16666667	217,5	86,47	6,661	1,9	4,969	300,6666667	6,869	75,167	16550	4377,25	4	3