ID_number	center	age_group1	school	sba1_Q2	sba1a_Q2	sba1b_Q2	sbb1_Q2	sbb2_Q2	sbb3a_Q2	sbb3b_Q2	sbb4_Q2	sbb5_Q2	sbb6_Q2	sbc1_Q2	sbc2_Q2	sbc3_Q2
1012001	1	2	0	4	3	.	.	.	.	.	3	3	4	5	1	1
1012002	1	2	0	4	2	.	1	1	22	5	2	2	4	4	1	1
1012004	1	2	0	4	1	.	.	.	24	9	3	2	3	4	.	1
1012007	1	2	0	4	1	.	.	.	32	0	2	2	2	4	4	1
1012009	1	2	0	4	1	.	1	.	30	2	3	3	6	5	.	1
1012013	1	2	0	3	1	.	.	.	11	7	3	2	6	5	.	1
1012014	1	2	0	4	1	.	1	1	26	6	4	2	2	4	.	1
1012015	1	2	0	4	2	.	.	.	.	.	.	2	2	5	4	1
1012017	1	2	0	3	1	.	.	.	0	.	3	2	5	3	1	1
1012026	1	2	0	4	1	.	.	.	27	5	3	4	4	4	1	1
1012027	1	2	0	4	1	.	.	.	31	.	2	2	4	5	1	1
1012045	1	2	0	4	1	YASMIN ARAUJO DE SOUZA	.	.	.	.	.	4	.	.	.	1
1031004	1	2	1	4	1	.	.	.	28	4	3	2	5	5	2	1
1031005	1	2	1	4	1	.	1	.	28	.	2	2	5	3	1	1
1031008	1	2	1	4	1	.	1	.	28	.	2	3	5	4	3	1
1031011	1	2	1	4	1	.	.	.	29	1	2	4	6	5	3	1
1031013	1	2	1	3	1	.	.	.	29	3	2	3	3	4	3	1
1031016	1	2	1	4	2	.	.	.	32	0	2	2	6	5	3	1
1031022	1	2	1	4	1	.	.	.	32	0	2	2	4	5	.	1
1031023	1	2	1	4	1	.	.	.	28	.	2	3	4	4	.	1
1031026	1	2	1	4	1	.	.	.	28	0	2	2	6	5	.	1
1031028	1	2	1	4	2	.	.	.	28	0	2	3	5	4	1	1
1031030	1	2	1	4	1	.	.	.	32	.	2	3	5	5	.	1
1031031	1	2	1	4	1	.	1	.	30	0	2	4	6	5	.	1
1031032	1	2	1	4	1	.	.	.	33	0	1	4	6	5	3	1
1031033	1	2	1	4	1	.	1	.	.	.	2	4	6	5	2	1
1031035	1	2	1	4	1	.	1	.	32	0	1	4	6	5	.	1
2032064	2	2	2	4	1	.	0	0	26	.	2	4	6	5	3	1
2042002	2	2	2	4	1	.	1	1	26	5	4	2	2	5	1	1
2042003	2	2	2	4	1	.	1	0	.	3	3	2	6	5	1	1
2042004	2	2	2	4	1	.	0	0	.	.	2	4	6	5	2	1
2042005	2	2	2	4	1	.	0	0	25	0	3	1	6	4	1	1
2042006	2	2	2	4	1	.	0	.	.	0	2	3	4	5	3	1
5020021	5	2	1	4	1	.	1	0	.	.	1	4	6	5	2	1
5020029	5	2	1	4	1	.	0	0	32	0	3	2	3	4	3	1
5020040	5	2	1	3	2	.	1	0	.	.	2	4	6	5	1	1
5020069	5	2	1	4	1	.	0	.	29	2	3	2	4	5	2	1
5020070	5	2	1	4	1	.	0	0	28	.	2	4	5	5	2	1
5020071	5	2	1	4	1	.	0	0	26	3	2	2	5	5	2	1
5020072	5	2	1	4	1	.	0	0	29	3	2	4	6	5	3	1
5020073	5	2	1	4	2	.	0	0	.	.	3	.	.	.	.	.
5020074	5	2	1	4	1	.	0	0	.	.	2	4	6	5	2	1
5020075	5	2	1	4	1	.	0	0	30	2	2	2	4	5	4	1
5020080	5	2	1	4	1	.	0	0	.	1	1	4	4	5	3	1
5020081	5	2	1	4	1	.	0	0	.	1	2	2	5	5	1	1
5020082	5	2	1	4	1	.	0	0	24	.	2	4	6	5	4	1
5020083	5	2	1	4	1	.	0	0	26	2	2	3	4	5	2	1
5020084	5	2	1	4	1	.	0	0	.	.	2	4	4	5	4	1
5020085	5	2	1	4	1	.	0	0	.	4	2	3	3	5	2	1
5020087	5	2	1	4	2	.	0	0	32	0	1	4	6	5	4	1
7010084	7	2	0	3	1	.	0	.	.	.	2	2	3	5	1	1
7010086	7	2	0	1	.	.	.	.	.	.	.	.	.	.	.	.
7010087	7	2	1	4	1	0	0	.	.	.	.	2	2	5	1	1
7010088	7	2	1	.	1	0	0	0	.	.	2	3	5	5	2	1
7010089	7	2	0	1	1	.	1	22	8	.	4	2	5	4	1	1
7010090	7	2	0	.	1	.	0	.	8	.	4	.	3	.	1	1
7010119	7	2	0	1	1	.	0	24	3	.	3	2	5	5	1	1
7010121	7	2	1	4	1	.	0	0	0	0	2	2	5	5	1	1
7020048	7	2	1	1	0	.	0	.	.	.	2	.	3	4	1	1
7020052	7	2	0	4	1	.	0	.	32	0	3	2	6	5	1	1
7020053	7	2	0	4	1	.	0	0	29	2	2	2	6	4	2	1
7020057	7	2	1	1	0	.	0	.	.	.	3	2	.	5	3	1
7020058	7	2	0	4	.	.	0	.	32	.	2	4	6	4	1	1
7020059	7	2	0	4	1	.	1	0	.	.	3	4	6	4	1	1
7020062	7	2	1	2	1	.	0	.	0	.	2	2	6	5	2	1
7020064	7	2	1	1	0	.	0	31	.	.	2	3	3	4	1	1
7020070	7	2	1	1	1	.	0	29	0	.	2	2	6	4	2	1
7020071	7	2	1	1	0	.	0	28	.	.	1	2	6	5	4	1
7020074	7	2	1	2	1	.	0	32	0	.	2	2	3	4	2	1