ID_number	center	age_group1	school	ffqcma_Q2	ffqcmb_Q2	ffqcmc_Q2	ffqlma_Q2	ffqlmb_Q2	ffqlmc_Q2	ffqaa_Q2	ffqab_Q2	ffqac_Q2	ffqlta_Q2	ffqltb_Q2	ffqltc_Q2	ffqja_Q2	ffqjb_Q2	ffqjc_Q2	ffqlada_Q2	ffqladb_Q2	ffqladc_Q2
2032034	2	2	2	0	0	0	0	0	0	0	0	0	0	0	0	0	0	0	0	0	0
2010002	2	0	2	1	0	0	0	2	0	2	0	3	1	0	0	1	0	0	0	0	0
2010021	2	0	2	1	0	0	0	2	0	1	0	0	1	0	0	1	0	0	1	0	0
2010022	2	0	2	1	0	0	3	2	0	1	0	0	1	0	0	1	0	0	1	0	0
2010042	2	0	2	1	0	0	0	2	0	1	0	0	1	0	0	1	0	0	1	0	0
2031023	2	1	2	1	0	0	0	1	0	1	0	0	0	0	1	0	0	1	3	0	0
2031030	2	1	2	1	0	0	0	0	0	1	0	0	2	0	0	1	0	0	0	0	0
2031033	2	1	2	1	0	0	0	2	0	1	0	0	1	0	0	1	0	0	1	0	0
2031034	2	1	2	1	0	0	0	2	0	1	0	0	1	0	0	1	0	0	1	0	0
2032037	2	2	2	1	0	0	0	2	0	1	0	0	2	0	0	1	0	0	1	0	0
2032039	2	2	2	1	0	0	0	2	0	1	0	0	0	0	2	1	0	0	0	0	0
2032040	2	2	2	1	2	3	0	2	0	1	2	1	1	2	1	1	0	2	0	2	1
2032048	2	2	2	1	0	0	0	2	0	1	0	0	1	0	0	1	0	0	1	0	0
2032064	2	2	2	1	2	0	1	0	0	1	0	0	1	0	0	1	0	0	1	0	0
2041043	2	1	2	1	0	0	3	2	0	1	0	0	1	0	0	1	0	0	1	0	0
2041044	2	1	2	1	0	0	0	2	0	1	0	0	1	0	0	1	0	0	1	0	0
2041049	2	1	2	1	0	0	0	1	0	1	0	0	1	0	0	1	0	0	1	0	0
2041053	2	1	2	1	0	0	3	2	0	1	0	0	1	0	0	1	0	0	1	0	0
2042002	2	2	2	1	0	0	0	2	0	1	0	0	1	0	0	1	0	0	1	0	0
2042003	2	2	2	1	0	0	0	2	0	1	0	0	1	0	0	1	0	0	1	0	0
2042005	2	2	2	1	0	0	0	2	0	1	0	0	1	0	0	1	0	0	1	0	0
2042008	2	2	2	1	0	0	1	2	0	1	0	0	1	0	0	1	0	0	1	0	0
2042009	2	2	2	1	0	0	0	2	0	0	0	2	0	0	2	2	0	0	3	0	0
2010006	2	0	2	2	0	0	0	0	0	2	0	0	2	0	0	2	0	0	2	0	0
2042004	2	2	2	2	0	0	0	2	0	1	0	0	1	0	0	1	0	0	1	0	0
2031027	2	1	2	3	0	0	0	0	0	1	0	0	2	0	0	1	0	0	1	0	0
2042006	2	2	2	3	0	0	3	0	0	1	0	0	1	0	0	1	0	0	2	0	0
1010067	1	0	0	0	2	0	0	2	0	0	2	0	3	0	0	0	0	0	2	0	0
1010075	1	0	0	0	2	0	0	0	0	0	2	0	1	0	0	1	0	0	1	0	0
1010076	1	0	0	0	2	0	0	2	0	2	0	0	2	0	0	2	0	0	2	0	0
1012001	1	2	0	0	1	0	0	2	0	0	1	0	0	2	0	1	0	0	1	0	0
1012012	1	2	0	0	2	0	0	2	0	0	2	0	0	2	0	1	0	0	1	0	0
1012045	1	2	0	0	2	0	0	2	0	0	2	0	0	2	0	1	0	0	1	0	0
1021006	1	1	1	0	0	0	0	0	0	0	0	0	0	0	0	0	0	0	0	0	0
1021012	1	1	1	0	0	0	0	2	0	3	2	0	0	2	0	3	0	0	1	0	0
1021047	1	1	1	0	0	0	0	0	0	0	0	0	0	0	0	0	0	0	0	0	0
1010069	1	0	0	1	0	0	3	2	0	3	2	0	1	0	0	1	0	0	1	0	0
1010071	1	0	0	1	2	0	0	2	0	1	2	0	1	0	0	1	0	0	0	0	0
1011007	1	1	0	1	0	3	0	0	0	0	0	0	0	0	0	0	0	0	0	0	0
1012003	1	2	0	1	0	0	0	2	0	3	0	0	1	0	0	2	0	0	0	0	0
1012004	1	2	0	1	0	0	3	2	0	3	2	0	1	0	0	1	0	0	1	0	0
1012005	1	2	0	1	0	0	0	2	3	3	2	0	1	2	0	3	0	0	0	0	0
1012007	1	2	0	1	0	0	0	2	0	3	2	0	0	2	0	1	0	0	0	0	0
1012010	1	2	0	1	1	3	1	1	3	3	2	3	1	1	3	1	0	3	1	0	3
1012011	1	2	0	1	2	3	1	2	0	3	2	3	1	0	3	1	0	3	3	0	0
1012013	1	2	0	1	0	0	0	2	0	0	2	0	0	1	0	1	0	0	1	0	0
1012017	1	2	0	1	0	0	0	2	0	0	2	0	1	0	0	1	0	0	0	0	0
1012018	1	2	0	1	0	0	0	1	0	0	2	0	0	2	0	1	0	0	1	0	0
1012019	1	2	0	1	0	0	0	2	0	3	2	0	0	2	0	1	0	0	1	0	0
1012022	1	2	0	1	0	0	0	2	0	3	2	0	2	0	0	2	0	3	0	0	0
1012024	1	2	0	1	0	0	0	2	0	0	2	0	0	2	0	2	0	0	1	0	0
1012025	1	2	0	1	0	3	0	2	0	3	2	3	0	2	0	1	0	3	0	0	0
1012026	1	2	0	1	0	0	0	2	0	0	2	0	0	2	0	1	0	0	0	0	0
1012027	1	2	0	1	0	0	0	2	0	0	2	0	0	0	2	2	0	0	1	0	0
1012030	1	2	0	1	0	0	3	2	0	3	2	0	3	2	0	1	0	0	3	0	0
1012034	1	2	0	1	0	0	0	2	0	0	2	0	0	2	0	1	0	0	1	0	0
1012035	1	2	0	1	2	3	1	2	3	1	2	3	1	2	3	1	0	3	1	0	3
1012036	1	2	0	1	0	0	0	2	0	3	2	0	0	2	0	1	0	0	0	0	0
1021001	1	1	1	1	0	0	3	2	0	3	2	3	3	2	0	1	0	3	0	0	0
1021005	1	1	1	1	0	0	2	0	3	3	2	0	1	0	2	0	3	0	0	0	0
1021013	1	1	1	1	0	0	0	2	0	0	0	0	3	0	1	1	0	0	1	0	0
1021020	1	1	1	1	0	0	3	2	0	0	2	3	3	2	0	1	0	0	1	0	0
1021024	1	1	1	1	0	0	3	2	0	3	2	3	1	0	0	1	0	3	0	0	0
1021030	1	1	1	1	0	0	3	2	3	1	0	3	1	0	3	1	0	3	0	0	0
1021032	1	1	1	1	0	0	3	2	0	3	2	3	3	2	0	1	0	3	0	0	0
1021039	1	1	1	1	0	0	0	2	0	2	0	3	1	0	0	2	0	3	0	0	0
1021041	1	1	1	1	0	0	0	2	0	1	0	0	1	0	0	1	0	0	1	0	0
1021046	1	1	1	1	0	0	3	2	0	3	2	0	3	2	0	1	0	0	1	0	0
1021050	1	1	1	1	0	0	0	2	3	1	0	0	1	0	0	1	0	0	0	0	0
1021055	1	1	1	1	0	0	0	2	0	3	2	0	0	2	0	1	0	0	0	0	0
1021056	1	1	1	1	0	0	0	2	0	0	2	0	0	2	0	1	0	0	1	0	0
1021062	1	1	1	1	0	0	0	2	0	1	0	0	1	0	0	1	0	0	1	0	0
1021063	1	1	1	1	0	0	3	2	0	1	2	3	1	0	3	1	0	3	0	0	0
1021068	1	1	1	1	0	3	3	2	3	1	0	3	1	0	3	1	0	3	0	0	0
1021069	1	1	1	1	0	0	3	2	0	2	0	3	1	0	0	2	0	3	1	0	0
1021070	1	1	1	1	0	0	3	2	0	1	0	0	1	0	0	1	0	0	0	0	0
1021072	1	1	1	1	0	0	3	2	0	3	2	0	3	0	2	1	0	0	3	0	0
1021073	1	1	1	1	0	0	3	2	0	3	2	0	3	0	2	1	0	0	3	0	0
1031001	1	2	1	1	0	0	0	2	0	3	0	2	2	0	0	1	0	0	3	0	0
1031002	1	2	1	1	0	0	0	2	0	3	2	2	4	4	4	1	0	0	4	4	4
1031004	1	2	1	1	0	0	0	2	0	1	0	0	1	0	0	1	0	0	4	4	4
1031005	1	2	1	1	0	0	0	2	0	1	0	0	4	4	4	1	0	0	4	4	4
1031006	1	2	1	1	0	1	0	0	0	1	2	3	0	0	0	1	2	2	0	0	0
1031009	1	2	1	1	0	0	4	4	4	3	0	2	4	4	4	4	4	4	4	4	4
1031011	1	2	1	1	0	0	0	2	0	1	0	0	4	4	4	1	0	3	4	4	4
1031012	1	2	1	1	0	0	0	2	0	2	0	3	1	0	3	2	0	3	4	4	4
1031013	1	2	1	1	0	0	0	2	0	0	2	3	4	4	4	1	0	0	4	4	4
1031014	1	2	1	1	0	0	0	2	0	2	2	3	2	0	0	2	0	3	0	0	0
1031015	1	2	1	1	0	0	0	2	0	2	0	0	0	0	2	1	0	0	0	0	0
1031016	1	2	1	1	0	0	0	2	0	2	0	3	2	0	0	2	0	3	4	4	4
1031017	1	2	1	1	0	0	0	2	0	1	0	0	4	4	4	1	0	0	4	4	4
1031018	1	2	1	1	0	0	3	2	0	1	0	0	1	0	0	2	0	3	1	0	0
1031023	1	2	1	1	0	0	0	0	0	1	0	0	1	0	0	1	0	0	3	0	0
1031024	1	2	1	1	0	0	0	2	0	1	0	0	1	0	0	1	0	0	1	0	0
1031026	1	2	1	1	0	0	0	2	0	2	0	0	2	0	0	2	0	0	1	0	0
1031028	1	2	1	1	0	0	1	0	0	2	0	3	2	0	3	2	0	3	2	0	3
1031030	1	2	1	1	0	0	0	2	0	1	0	0	1	0	0	1	0	0	0	0	0
1031031	1	2	1	1	0	0	0	2	0	1	0	0	1	0	0	1	0	0	1	0	0
1031035	1	2	1	1	0	0	0	1	0	0	0	0	1	0	0	1	0	0	0	0	0
1021065	1	1	1	2	0	3	0	2	0	2	0	3	0	0	2	2	0	3	1	0	0
1010058	1	0	0	3	2	0	3	2	0	3	2	0	1	0	0	1	0	0	1	0	0
1010063	1	0	0	3	2	3	3	2	3	3	2	3	3	2	3	1	0	3	0	0	0
1010064	1	0	0	3	2	0	3	2	0	3	2	0	3	2	0	1	0	0	1	0	0
1010068	1	0	0	3	2	0	3	2	0	1	2	0	1	0	0	1	0	0	1	0	0
1010072	1	0	0	3	2	0	3	2	0	3	2	0	1	0	0	1	0	0	1	0	0
1010074	1	0	0	3	2	0	3	2	0	3	2	0	1	0	0	1	0	0	1	0	0
1011035	1	1	0	3	2	0	3	2	0	1	0	0	1	0	0	1	0	0	0	0	0
1012002	1	2	0	3	2	3	3	0	3	3	2	3	1	2	3	3	0	3	1	0	3
1012009	1	2	0	3	1	3	3	0	3	1	1	3	3	0	3	1	0	3	0	0	0
1012014	1	2	0	3	2	0	3	2	0	3	2	0	3	2	0	3	2	0	3	0	0
1012015	1	2	0	3	0	0	3	0	0	0	0	3	3	0	0	3	0	0	3	0	0
1012023	1	2	0	3	0	0	0	1	0	0	1	0	0	1	0	3	0	0	3	0	0
1021066	1	1	1	3	0	0	3	2	0	3	2	3	1	2	3	1	0	3	0	0	0
1031022	1	2	1	3	0	0	0	2	0	1	0	0	1	0	0	1	0	0	0	0	0
7010090	7	2	0	0	2	0	4	4	4	3	2	0	4	4	4	1	0	0	4	4	4
7010100	7	1	0	0	0	0	3	2	0	3	2	0	0	0	0	0	0	0	4	4	4
7020050	7	2	1	0	0	0	0	0	0	0	0	0	0	0	0	0	0	0	0	0	0
7010085	7	2	0	1	0	0	0	2	0	1	0	0	0	0	0	1	0	0	1	0	0
7010087	7	2	0	1	0	0	2	0	0	3	2	0	0	0	0	1	0	0	4	4	4
7010091	7	2	0	1	1	3	4	4	4	1	0	3	4	4	4	2	0	3	4	4	4
7010092	7	2	0	1	0	0	0	2	0	1	0	0	1	0	0	4	4	4	1	0	0
7010093	7	1	0	1	0	0	3	2	0	1	0	0	1	0	0	1	0	0	0	0	0
7010094	7	1	0	1	0	0	0	2	0	1	0	0	1	0	0	4	4	4	1	0	0
7010097	7	1	0	1	0	0	0	2	0	1	0	0	0	0	0	4	4	4	1	0	0
7010099	7	1	0	1	0	0	3	2	0	3	2	0	1	0	0	1	0	0	1	0	0
7010109	7	1	0	1	0	0	0	2	0	2	2	0	0	0	0	1	4	4	3	3	3
7010112	7	1	0	1	0	0	0	2	0	3	2	0	0	0	0	1	0	0	1	0	0
7010114	7	1	0	1	0	0	0	1	0	3	2	0	0	0	0	0	0	0	1	0	0
7010118	7	2	0	1	0	0	0	2	0	1	0	0	4	4	4	1	0	0	4	4	4
7010122	7	2	0	1	2	0	2	2	0	1	0	0	1	0	0	1	0	0	0	0	0
7010126	7	1	0	1	0	0	0	2	0	3	2	0	1	0	0	1	0	0	1	0	0
7010138	7	1	0	1	0	0	0	2	0	1	0	0	0	0	0	1	0	0	4	4	4
7010147	7	1	0	1	2	0	1	2	0	1	2	0	4	4	4	1	0	0	2	0	0
7020001	7	1	1	1	0	0	3	2	0	3	2	0	1	0	0	4	4	4	1	0	0
7020002	7	1	1	1	0	0	3	2	0	3	2	0	0	0	0	1	0	0	1	0	0
7020004	7	1	1	1	0	0	3	2	0	3	2	0	4	4	4	1	0	0	4	4	4
7020005	7	1	1	1	0	0	3	2	0	3	2	0	1	0	0	4	4	4	1	0	0
7020007	7	1	1	1	0	0	3	2	0	3	2	0	1	0	0	1	0	0	4	4	4
7020009	7	1	1	1	0	0	3	2	0	3	2	0	4	4	4	1	0	0	4	4	4
7020010	7	1	1	1	0	0	3	2	0	3	2	0	1	0	0	1	0	0	1	0	0
7020011	7	1	1	1	0	0	3	2	0	3	2	0	1	0	0	1	0	0	4	4	4
7020012	7	1	1	1	0	0	3	2	0	3	2	0	1	0	0	1	0	0	4	4	4
7020014	7	1	1	1	0	0	3	2	0	3	2	0	4	4	4	1	0	0	1	0	0
7020017	7	1	1	1	0	0	3	2	0	3	2	0	3	2	0	1	0	0	1	0	0
7020018	7	1	1	1	0	0	3	2	0	3	2	0	1	0	0	1	0	0	4	4	4
7020019	7	1	1	1	0	0	0	2	0	3	2	0	4	4	4	1	0	0	1	0	0
7020020	7	1	1	1	0	0	0	1	0	0	1	0	1	0	0	2	0	0	1	0	0
7020021	7	1	1	1	0	0	3	2	0	3	2	0	3	2	0	1	0	0	1	0	0
7020022	7	1	1	1	0	0	3	2	0	0	1	0	1	0	0	1	0	0	1	0	0
7020027	7	1	1	1	0	0	1	0	0	3	2	0	1	0	0	1	0	0	1	0	0
7020028	7	1	1	1	0	0	0	2	0	0	2	0	2	0	0	1	0	0	4	0	0
7020033	7	1	1	1	0	0	2	2	0	3	2	0	1	0	0	1	0	0	0	0	0
7020035	7	2	1	1	0	0	0	2	0	2	0	0	4	4	4	1	0	0	2	0	3
7020036	7	2	1	1	0	0	3	2	0	3	2	0	4	4	4	1	0	0	1	0	0
7020037	7	2	1	1	0	0	4	4	4	3	2	0	4	4	4	1	0	0	4	4	4
7020038	7	2	1	1	0	0	0	2	0	3	2	0	1	0	0	1	0	0	1	0	0
7020040	7	2	1	1	0	0	3	2	0	3	2	0	0	0	0	1	0	0	4	4	4
7020041	7	2	1	1	0	0	3	2	0	3	2	0	1	0	0	1	0	0	1	0	0
7020042	7	2	1	1	0	0	0	2	0	3	2	3	2	0	0	4	4	4	3	0	3
7020043	7	2	1	1	0	0	3	2	0	3	2	0	1	0	0	1	0	0	1	0	0
7020044	7	2	1	1	0	0	0	2	0	3	2	0	0	0	0	1	0	0	1	0	0
7020046	7	2	1	1	0	0	0	2	0	0	2	3	4	4	4	2	0	0	4	4	4
7020049	7	2	1	1	0	0	2	3	0	1	0	0	1	0	0	1	0	0	1	0	0
7020051	7	2	1	1	0	0	0	2	3	3	2	0	1	0	0	1	0	0	1	0	0
7020052	7	2	1	1	0	0	0	2	0	3	2	0	0	0	0	3	0	0	1	0	0
7020053	7	2	1	1	0	0	3	2	0	3	2	0	0	0	2	1	0	0	4	4	4
7020056	7	2	1	1	0	0	0	2	0	0	2	0	0	0	0	1	0	0	1	0	0
7020057	7	2	1	1	0	0	4	4	4	3	2	0	4	4	4	4	4	4	1	0	0
7020059	7	2	1	1	0	0	0	2	0	3	2	0	0	0	0	1	0	0	4	4	4
7020060	7	2	1	1	0	0	3	2	0	3	2	0	4	4	4	1	0	0	4	4	4
7020061	7	2	1	1	0	0	0	2	0	3	2	0	0	0	0	1	0	0	0	0	0
7020062	7	2	1	1	0	0	3	2	0	3	2	0	3	2	0	1	0	0	4	4	4
7020063	7	2	1	1	0	0	2	0	0	0	0	0	0	0	0	0	0	0	3	0	0
7020064	7	2	1	1	0	0	0	2	0	3	2	0	4	4	4	1	0	0	1	0	0
7020070	7	2	1	1	1	0	2	2	0	1	2	0	2	2	0	1	1	0	3	2	0
7020071	7	2	1	1	2	0	0	2	0	0	2	0	2	0	0	2	0	0	1	0	0
7020073	7	2	1	1	0	0	0	2	0	0	2	0	0	0	0	0	0	0	1	0	0
7020074	7	2	1	1	0	0	3	2	0	3	2	0	0	0	0	1	0	0	1	0	0
7020076	7	2	1	1	0	0	0	2	3	2	0	3	2	0	0	1	0	0	1	0	0
7020078	7	2	1	1	0	0	0	1	0	0	1	0	1	0	0	1	0	0	0	0	0
7020080	7	1	1	1	0	0	3	2	0	3	2	0	4	4	4	1	0	0	1	0	0
7020081	7	1	1	1	0	0	3	2	0	3	2	0	1	0	0	4	4	4	1	0	0
7020082	7	1	1	1	0	0	3	2	0	3	2	0	3	2	0	1	0	0	1	0	0
7020083	7	1	1	1	0	0	3	2	0	3	2	0	1	0	0	1	0	0	4	4	4
7020084	7	1	1	1	0	0	3	2	0	3	2	0	1	0	0	1	0	0	1	0	0
7020086	7	1	1	1	0	0	0	2	3	1	0	0	1	0	3	1	0	3	1	0	0
7020087	7	0	1	1	0	0	3	2	0	1	0	0	1	0	0	1	0	0	0	0	0
7020090	7	0	1	1	0	0	3	2	0	2	0	3	2	0	3	0	0	0	1	0	0
7020091	7	0	1	1	0	0	0	2	0	1	0	0	1	0	0	1	0	0	4	4	4
7020094	7	0	1	1	0	0	3	2	0	1	0	0	1	0	0	1	0	0	4	4	4
7020095	7	0	1	1	0	0	3	2	0	1	0	0	1	0	0	1	0	0	4	4	4
7020096	7	0	1	1	0	0	3	2	0	1	0	0	1	0	0	1	0	0	1	0	0
7020097	7	0	1	1	0	0	3	2	0	1	0	0	1	0	0	1	0	0	1	0	0
7020099	7	0	1	1	0	0	0	2	0	1	0	0	0	0	0	1	0	0	1	0	0
7020101	7	0	1	1	0	0	0	2	0	1	0	0	1	0	0	1	0	0	1	0	0
7020102	7	0	1	1	0	0	0	2	0	1	0	0	1	0	0	0	0	0	1	0	0
7020103	7	0	1	1	0	0	3	2	0	3	0	2	3	0	2	0	0	0	1	0	0
7020104	7	0	1	1	0	0	3	2	0	3	2	0	3	2	0	1	0	0	1	0	0
7020106	7	0	1	1	0	0	0	2	0	0	2	0	0	2	0	0	2	0	1	0	0
7020107	7	0	1	1	0	0	0	2	0	0	2	0	0	2	0	0	2	0	1	0	0
7010120	7	2	0	2	0	0	0	2	0	3	2	0	0	0	0	1	0	0	0	0	0
7010135	7	2	0	2	0	3	4	4	4	1	0	0	4	4	4	4	4	4	1	0	0
7020030	7	1	1	2	0	3	0	2	3	0	2	3	0	2	3	4	4	4	2	0	3
7020068	7	2	1	2	2	2	3	1	3	1	1	1	3	2	3	2	2	1	1	2	1
7010084	7	2	0	3	0	0	3	2	0	1	0	0	1	0	0	1	0	0	4	4	4
7010086	7	2	0	3	2	0	0	2	0	3	2	0	1	0	0	1	0	0	1	0	0
7010088	7	2	0	3	2	0	0	2	0	3	1	0	0	0	0	1	0	0	4	4	4
7010089	7	2	0	3	2	0	4	4	4	1	2	0	3	0	0	1	0	0	4	4	4
7010096	7	1	0	3	2	0	3	2	0	1	0	0	1	0	0	1	0	0	0	0	0
7010111	7	1	0	3	2	0	0	0	0	2	1	0	1	0	0	1	0	0	1	0	0
7010119	7	2	0	3	2	0	0	2	0	1	2	0	4	4	4	1	0	0	4	4	4
7010121	7	2	0	3	2	0	0	2	0	3	2	0	0	0	0	1	0	0	0	0	0
7010133	7	2	0	3	2	0	0	2	0	3	2	0	1	0	0	1	0	0	4	4	4
7010134	7	2	0	3	2	0	0	2	0	3	2	0	0	0	0	1	0	0	4	4	4
7010137	7	1	0	3	2	0	0	2	0	3	2	0	0	0	0	1	0	0	4	4	4
7010140	7	1	0	3	2	0	3	2	0	3	2	0	3	2	0	2	0	0	2	0	0
7010144	7	2	0	3	0	0	4	4	4	0	1	0	1	0	0	0	1	0	0	0	0
7020045	7	2	1	3	2	0	3	2	0	3	2	0	3	2	0	1	0	0	1	0	0
7020047	7	2	1	3	2	0	3	2	0	3	2	0	3	2	0	3	2	0	1	0	0
7020048	7	2	1	3	2	0	3	2	0	3	2	0	1	0	0	0	0	0	1	0	0
7020055	7	2	1	3	2	0	3	2	0	3	2	0	1	0	0	1	0	0	4	4	4
7020058	7	2	1	3	0	0	0	2	0	3	2	0	0	0	0	1	0	0	0	0	0
7020069	7	2	1	4	4	4	2	0	0	1	1	0	2	0	0	2	0	0	1	0	0
6010005	6	0	0	0	0	0	0	0	0	0	0	0	0	0	0	0	0	0	0	0	0
6010009	6	0	0	0	0	0	0	0	0	0	0	0	0	0	0	0	0	0	0	0	0
6010018	6	0	0	0	2	0	0	2	0	0	2	0	0	2	0	1	0	0	1	0	0
6010024	6	1	0	0	3	0	0	2	0	0	1	0	0	0	2	0	1	0	0	0	0
6010027	6	1	0	0	2	0	0	2	0	0	0	2	0	0	2	1	0	0	0	0	0
6010087	6	0	0	0	0	0	0	0	0	0	0	0	0	0	0	0	0	0	0	0	0
6010002	6	0	0	1	0	0	3	0	0	1	0	0	1	0	0	1	0	0	1	0	0
6010012	6	0	0	1	2	0	3	2	0	3	2	0	1	2	0	1	0	0	1	0	0
6010013	6	0	0	1	0	0	1	0	0	1	0	0	1	0	0	1	0	0	1	0	0
6010014	6	0	0	1	0	0	0	0	0	3	1	0	3	1	0	1	0	0	0	0	0
6010015	6	0	0	1	0	0	1	0	0	0	2	0	0	2	0	1	0	0	1	0	0
6010019	6	0	0	1	0	0	0	0	0	3	1	0	3	1	0	1	0	0	0	0	0
6010026	6	1	0	1	0	0	0	2	0	0	2	0	0	0	2	1	0	0	0	0	0
6010031	6	2	0	1	0	2	1	0	1	0	0	1	1	0	0	1	0	0	1	0	0
6010032	6	2	0	1	0	0	0	0	2	0	2	0	1	2	0	1	0	0	1	0	0
6010033	6	2	0	1	2	0	1	0	0	1	1	0	1	1	0	1	0	0	1	0	0
6010034	6	2	0	1	0	0	2	0	0	1	0	0	1	0	0	1	0	0	1	0	0
6010035	6	2	0	1	0	0	0	0	2	1	0	0	1	0	0	1	0	0	0	0	0
6010038	6	2	0	1	0	0	1	0	0	1	0	0	0	2	2	1	0	0	1	0	0
6010040	6	2	0	1	0	0	3	0	2	1	0	0	1	2	0	1	0	0	4	4	4
6010042	6	2	0	1	0	2	3	0	0	3	0	0	4	4	4	1	0	0	1	0	0
6010048	6	2	0	1	0	0	1	0	0	0	0	2	0	0	2	1	0	0	4	4	4
6010050	6	2	0	1	0	0	0	2	0	1	0	0	1	0	0	1	0	0	1	0	0
6010051	6	2	0	1	0	0	4	0	0	1	0	0	1	0	0	4	0	0	4	0	0
6010053	6	2	0	1	0	0	2	0	2	0	0	2	2	0	2	1	0	0	4	4	4
6010055	6	2	0	1	2	2	0	2	0	1	2	2	1	0	2	1	0	0	0	0	0
6010056	6	2	0	1	0	0	1	0	0	0	0	1	0	0	1	1	0	0	1	0	0
6010060	6	0	0	1	0	0	1	0	0	1	0	0	1	0	0	1	0	0	0	0	0
6010061	6	0	0	1	0	0	1	0	0	1	0	0	1	1	0	1	0	0	1	0	0
6010062	6	0	0	1	0	0	1	0	0	1	0	0	1	0	0	1	0	0	0	0	0
6010063	6	0	0	1	0	0	1	0	0	1	0	0	3	2	0	1	0	0	1	0	0
6010064	6	0	0	1	0	0	1	0	0	1	0	0	0	2	0	1	0	0	1	0	0
6010065	6	0	0	1	0	0	1	0	0	1	0	0	3	2	0	1	0	0	1	0	0
6010067	6	0	0	1	0	0	4	4	4	1	0	0	1	0	0	1	0	0	4	4	4
6010068	6	0	0	1	0	0	0	0	0	1	2	0	1	0	0	1	0	0	0	0	0
6010069	6	0	0	1	0	0	1	0	0	1	0	0	1	0	0	1	0	0	1	0	0
6010070	6	0	0	1	0	0	1	0	0	1	0	0	0	2	0	1	0	0	1	0	0
6010071	6	0	0	1	0	0	1	0	0	1	0	0	1	0	0	1	0	0	1	0	0
6010073	6	0	0	1	0	0	1	0	0	1	0	0	3	2	0	1	0	0	1	0	0
6010074	6	0	0	1	0	0	1	0	0	1	0	0	1	2	0	1	0	0	1	0	0
6010075	6	0	0	1	0	0	4	4	4	1	0	0	1	0	0	1	0	0	4	4	4
6010076	6	0	0	1	0	0	1	0	0	1	0	0	1	0	0	1	0	0	0	0	0
6010077	6	0	0	1	0	0	1	0	0	1	0	0	1	0	0	1	0	0	0	0	0
6010078	6	0	0	1	0	0	0	0	0	1	0	0	1	2	0	1	0	0	0	0	0
6010086	6	0	0	1	0	0	1	0	0	1	0	0	1	0	0	1	0	0	1	0	0
6010091	6	0	0	1	0	0	1	0	0	1	0	0	1	2	0	4	0	0	4	0	0
6010092	6	0	0	1	0	0	1	0	0	1	0	0	0	2	0	1	0	0	1	0	0
6010093	6	0	0	1	0	0	4	4	4	1	0	0	3	2	0	1	0	0	4	4	4
6010094	6	0	0	1	0	0	0	0	0	1	0	0	1	2	0	1	0	0	1	0	0
6010095	6	0	0	1	0	0	0	0	0	1	0	0	1	2	0	1	0	0	0	0	0
6010096	6	0	0	1	0	0	0	0	0	1	0	0	0	2	0	1	0	0	1	0	0
6010097	6	0	0	1	0	0	1	0	0	1	0	0	1	0	0	1	0	0	0	0	0
6010098	6	0	0	1	0	0	0	0	0	1	0	0	3	2	0	1	0	0	0	0	0
6010101	6	1	0	1	0	0	4	4	4	1	0	0	1	0	0	1	0	0	4	4	4
6010102	6	1	0	1	0	3	0	0	0	1	0	0	1	0	0	1	0	3	0	0	0
6010103	6	1	0	1	0	0	4	4	4	1	0	3	3	0	2	1	0	3	4	4	4
6010104	6	1	0	1	0	0	1	0	0	1	0	0	3	2	0	1	0	0	1	0	0
6010105	6	2	0	1	0	0	0	0	0	1	0	0	1	0	0	1	0	0	0	0	0
6010106	6	1	0	1	0	0	4	4	4	1	0	0	1	0	0	1	0	0	4	4	4
6010109	6	2	0	1	0	0	4	4	4	1	0	0	4	4	4	1	0	0	4	4	4
6010110	6	2	0	1	0	0	3	2	0	3	2	0	1	0	0	1	0	0	1	0	0
6010111	6	2	0	1	0	0	3	2	0	3	2	0	3	2	0	1	0	0	0	0	0
6010112	6	2	0	1	0	0	0	2	0	1	0	0	2	0	0	1	0	0	1	0	0
6010113	6	2	0	1	0	0	3	0	0	3	2	0	3	2	0	3	0	0	0	0	0
6010114	6	2	0	1	2	0	0	2	0	3	2	0	1	2	0	1	0	0	3	0	0
6010044	6	2	0	2	1	1	2	0	0	2	2	2	2	1	2	1	0	0	1	0	0
6010059	6	0	0	2	0	3	2	0	3	2	0	3	2	2	3	2	0	3	1	0	0
6010099	6	0	0	2	0	0	1	0	0	2	0	0	0	2	0	1	0	0	0	0	0
6010006	6	0	0	3	2	0	3	2	0	0	2	0	1	0	0	1	0	0	0	0	0
6010020	6	1	0	3	0	2	3	0	2	3	0	3	3	0	2	3	0	2	0	0	0
6010025	6	1	0	3	0	0	0	2	0	0	1	0	0	0	2	0	1	0	0	0	0
6010052	6	2	0	3	2	0	3	2	0	3	0	2	3	0	2	1	0	0	0	0	0
6010057	6	2	0	3	2	0	4	4	4	3	2	0	3	2	0	3	0	0	3	0	0
6010089	6	0	0	3	0	2	3	0	2	3	0	2	1	2	0	1	0	0	0	0	0
6010054	6	2	0	4	4	4	2	0	0	0	0	2	3	0	2	1	0	0	0	0	0
6010085	6	0	0	4	4	4	1	0	0	0	0	0	0	2	0	1	0	0	1	0	0
4010001	4	0	0	0	0	0	0	0	0	0	0	0	0	0	0	0	0	0	0	0	0
4010003	4	0	0	0	0	0	0	0	0	0	0	0	0	0	0	0	0	0	0	0	0
4010004	4	0	0	0	0	0	0	0	0	0	0	0	0	0	0	0	0	0	0	0	0
4010005	4	0	0	0	0	0	0	0	0	0	0	0	0	0	0	0	0	0	0	0	0
4010006	4	0	0	0	0	0	0	0	0	0	0	0	0	0	0	0	0	0	0	0	0
4010009	4	0	0	0	0	0	0	0	0	0	0	0	0	0	0	0	0	0	0	0	0
4010011	4	0	0	0	0	0	0	0	0	0	0	0	0	0	0	0	0	0	0	0	0
4010014	4	0	0	0	0	0	0	0	0	0	0	0	0	0	0	0	0	0	0	0	0
4010015	4	0	0	0	0	0	0	0	0	0	0	0	0	0	0	0	0	0	0	0	0
4010016	4	0	0	0	0	0	0	0	0	0	0	0	0	0	0	0	0	0	0	0	0
4010017	4	0	0	0	0	0	0	0	0	0	0	0	0	0	0	0	0	0	0	0	0
4010018	4	0	0	0	0	0	0	0	0	0	0	0	0	0	0	0	0	0	0	0	0
4010021	4	0	0	0	0	0	0	0	0	0	0	0	0	0	0	0	0	0	0	0	0
4010023	4	0	0	0	0	0	0	0	0	0	0	0	0	0	0	0	0	0	0	0	0
4010024	4	0	0	0	0	0	0	0	0	0	0	0	0	0	0	0	0	0	0	0	0
4010025	4	0	0	0	0	0	0	0	0	0	0	0	0	0	0	0	0	0	0	0	0
4010027	4	0	0	0	0	0	0	0	0	0	0	0	0	0	0	0	0	0	0	0	0
4010033	4	0	0	0	0	0	0	0	0	0	0	0	0	0	0	0	0	0	0	0	0
4010044	4	2	0	0	0	0	0	0	0	0	0	0	0	0	0	0	0	0	0	0	0
4010046	4	2	0	0	0	0	0	0	0	0	0	0	0	0	0	0	0	0	0	0	0
4010049	4	2	0	0	0	0	0	0	0	0	0	0	0	0	0	0	0	0	0	0	0
4010051	4	2	0	0	1	0	4	4	4	0	1	0	0	3	0	0	1	0	4	4	4
4010053	4	2	0	0	0	0	0	0	0	0	0	0	0	0	0	0	0	0	0	0	0
4010057	4	2	0	0	0	0	0	0	0	0	0	0	0	0	0	0	0	0	0	0	0
4010059	4	2	0	0	0	0	0	0	0	0	0	0	0	0	0	0	0	0	0	0	0
4010060	4	2	0	0	0	0	0	0	0	0	0	0	0	0	0	0	0	0	0	0	0
4010063	4	2	0	0	0	0	0	0	0	0	0	0	0	0	0	0	0	0	0	0	0
4010064	4	2	0	0	0	0	0	0	0	0	0	0	0	0	0	0	0	0	0	0	0
4010065	4	2	0	0	0	0	0	0	0	0	0	0	0	0	0	0	0	0	0	0	0
4010072	4	2	0	0	0	0	0	0	0	0	0	0	0	0	0	0	0	0	0	0	0
4010073	4	2	0	0	0	0	0	0	0	0	0	0	0	0	0	0	0	0	0	0	0
4010074	4	2	0	0	0	0	0	0	0	0	0	0	0	0	0	0	0	0	0	0	0
4010075	4	2	0	0	0	0	0	0	0	0	0	0	0	0	0	0	0	0	0	0	0
4010076	4	2	0	0	0	0	0	0	0	0	0	0	0	0	0	0	0	0	0	0	0
4010077	4	2	0	0	0	0	0	0	0	0	0	0	0	0	0	0	0	0	0	0	0
4010078	4	2	0	0	0	0	0	0	0	0	0	0	0	0	0	0	0	0	0	0	0
4010081	4	2	0	0	0	0	0	0	0	0	0	0	0	0	0	0	0	0	0	0	0
4010090	4	2	0	0	0	0	0	0	0	0	0	0	0	0	0	0	0	0	0	0	0
4010091	4	2	0	0	0	0	0	0	0	0	0	0	0	0	0	0	0	0	0	0	0
4010092	4	2	0	0	0	0	0	0	0	0	0	0	0	0	0	0	0	0	0	0	0
4010093	4	2	0	0	0	0	0	0	0	0	0	0	0	0	0	0	0	0	0	0	0
4010094	4	2	0	0	0	0	0	0	0	0	0	0	0	0	0	0	0	0	0	0	0
4010095	4	2	0	0	0	0	0	0	0	0	0	0	0	0	0	0	0	0	0	0	0
4010096	4	2	0	0	0	0	0	0	0	0	0	0	0	0	0	0	0	0	0	0	0
4010136	4	0	0	0	0	2	0	0	2	0	0	2	0	0	0	1	0	0	1	0	0
4010138	4	0	0	0	0	0	0	0	0	0	0	0	0	0	0	0	0	0	0	0	0
4010139	4	0	0	0	0	0	0	0	0	0	0	0	0	0	0	0	0	0	0	0	0
4010143	4	0	0	0	1	0	0	1	0	0	1	0	0	1	0	1	0	0	1	0	0
4010144	4	0	0	0	0	0	0	0	0	0	0	0	0	0	0	0	0	0	0	0	0
4010153	4	0	0	0	1	0	0	2	0	0	2	0	0	2	0	1	0	0	1	0	0
4010154	4	0	0	0	2	0	0	2	0	0	2	0	0	2	0	1	0	0	1	0	0
4010158	4	0	0	0	3	2	0	3	2	0	3	2	0	3	2	1	0	0	1	0	0
4010164	4	0	0	0	2	0	0	2	0	0	2	0	0	2	0	1	0	0	1	0	0
4010171	4	0	0	0	0	0	0	0	0	0	0	0	0	0	0	0	0	0	0	0	0
4010172	4	0	0	0	2	0	0	2	0	0	2	0	0	2	0	1	0	0	1	0	0
4010187	4	0	0	0	0	0	0	0	0	0	0	0	0	0	0	0	0	0	0	0	0
4010192	4	0	0	0	0	0	0	0	0	0	0	0	0	0	0	0	0	0	0	0	0
4010194	4	0	0	0	2	0	0	2	0	0	2	0	0	2	0	2	0	0	0	2	0
4010195	4	0	0	0	0	0	0	0	0	0	0	0	0	0	0	0	0	0	0	0	0
4020200	4	0	1	0	0	0	0	0	0	0	0	0	0	0	0	0	0	0	0	0	0
4020204	4	0	1	0	0	0	0	0	0	0	0	0	0	0	0	0	0	0	0	0	0
4020207	4	0	1	0	0	0	0	0	0	0	0	0	0	0	0	0	0	0	0	0	0
4020214	4	0	1	0	0	0	0	0	0	0	0	0	0	0	0	0	0	0	0	0	0
4020219	4	0	1	0	0	0	0	0	0	0	0	0	0	0	0	0	0	0	0	0	0
4020221	4	0	1	0	0	0	0	0	0	0	0	0	0	0	0	0	0	0	0	0	0
4020229	4	0	1	0	0	0	0	0	0	0	0	0	0	0	0	0	0	0	0	0	0
4020268	4	0	1	0	0	0	0	0	0	0	0	0	0	0	0	0	0	0	0	0	0
4020269	4	0	1	0	0	0	0	0	0	0	0	0	0	0	0	0	0	0	0	0	0
4020271	4	0	1	0	0	0	0	0	0	0	0	0	0	0	0	0	0	0	0	0	0
4020273	4	0	1	0	0	0	0	0	0	0	0	0	0	0	0	0	0	0	0	0	0
4020278	4	0	1	0	0	0	0	0	0	0	0	0	0	0	0	0	0	0	0	0	0
4020281	4	0	1	0	0	0	0	0	0	0	0	0	0	0	0	0	0	0	0	0	0
4020283	4	0	1	0	0	0	0	0	0	0	0	0	0	0	0	0	0	0	0	0	0
4020284	4	0	1	0	0	0	0	0	0	0	0	0	0	0	0	0	0	0	0	0	0
4020289	4	0	1	0	0	0	0	0	0	0	0	0	0	0	0	0	0	0	0	0	0
4020332	4	2	1	0	0	0	0	0	0	0	0	0	0	0	0	0	0	0	0	0	0
4020333	4	2	1	0	0	0	0	0	0	0	0	0	0	0	0	0	0	0	0	0	0
4020338	4	2	1	0	0	0	0	0	0	0	0	0	0	0	0	0	0	0	0	0	0
4020344	4	2	1	0	0	0	0	0	0	0	0	0	0	0	0	0	0	0	0	0	0
4020347	4	2	1	0	2	3	3	2	3	2	0	3	1	0	3	1	0	3	1	0	0
4020352	4	2	1	0	0	0	0	0	0	0	0	0	0	0	0	0	0	0	0	0	0
4010002	4	0	0	1	0	0	3	2	0	1	0	0	1	0	0	1	0	0	1	0	0
4010007	4	0	0	1	0	0	3	2	0	3	2	0	1	0	0	1	0	0	1	0	0
4010010	4	0	0	1	2	0	1	0	0	1	0	0	1	0	0	1	0	0	1	0	0
4010012	4	0	0	1	0	0	0	2	0	1	0	0	1	0	0	1	0	0	4	4	4
4010013	4	0	0	1	1	0	1	1	0	1	0	3	1	0	3	1	0	0	4	4	4
4010019	4	0	0	1	0	0	3	2	0	1	0	0	4	4	4	1	0	0	4	4	4
4010020	4	0	0	1	0	0	1	0	0	1	0	0	1	0	0	1	0	0	1	0	0
4010022	4	0	0	1	0	0	0	2	0	1	0	0	1	0	0	1	0	0	0	0	0
4010030	4	1	0	1	0	0	3	2	0	1	0	0	1	0	0	1	0	0	4	4	4
4010042	4	2	0	1	0	0	4	4	4	1	0	0	4	4	4	1	0	0	4	4	4
4010043	4	2	0	1	0	0	0	2	0	1	0	0	1	0	0	1	0	0	1	0	0
4010045	4	2	0	1	0	0	4	4	4	1	0	0	0	1	0	1	0	0	1	0	0
4010047	4	2	0	1	0	0	0	0	0	0	0	0	0	0	0	0	0	0	0	0	0
4010048	4	2	0	1	0	0	4	4	4	0	2	0	4	4	4	1	0	0	4	4	4
4010050	4	2	0	1	0	0	1	0	0	1	0	0	3	2	0	2	0	3	2	0	3
4010052	4	2	0	1	0	0	1	0	0	1	0	0	2	0	0	1	0	0	2	0	0
4010054	4	2	0	1	0	0	3	0	0	1	0	0	3	2	0	1	0	0	2	0	0
4010055	4	2	0	1	0	0	4	4	4	1	0	0	0	2	0	1	0	0	4	4	4
4010056	4	2	0	1	0	0	1	0	0	1	0	0	0	2	0	1	0	0	1	0	0
4010058	4	2	0	1	0	0	0	0	0	1	0	0	0	0	0	1	0	0	0	0	0
4010061	4	2	0	1	0	0	2	0	0	1	0	0	3	2	0	1	0	0	3	0	0
4010062	4	2	0	1	0	0	4	4	4	1	0	0	3	2	0	1	0	0	4	4	4
4010067	4	2	0	1	0	0	2	0	0	1	0	0	2	0	0	1	0	0	4	4	4
4010068	4	2	0	1	0	0	1	0	0	1	0	0	2	3	0	1	0	0	3	0	0
4010069	4	2	2	1	0	0	1	0	0	1	0	0	0	2	0	1	0	0	4	4	4
4010070	4	2	0	1	0	0	4	4	4	1	0	0	4	4	4	1	0	0	4	4	4
4010071	4	2	0	1	0	0	2	0	3	2	0	3	0	2	0	1	0	0	4	4	4
4010079	4	2	0	1	0	0	4	4	4	0	2	0	0	2	0	1	0	0	1	0	0
4010080	4	2	0	1	0	0	4	4	4	3	2	0	0	2	0	1	0	0	4	4	4
4010082	4	2	0	1	0	0	4	4	4	3	0	0	0	2	0	2	0	3	4	4	4
4010084	4	2	0	1	0	0	3	2	0	1	0	0	1	0	0	1	0	0	1	0	0
4010088	4	2	0	1	0	0	4	4	4	1	.	.	4	4	4	1	.	.	4	4	4
4010163	4	0	0	1	2	0	0	2	0	3	2	0	3	2	0	1	0	0	4	4	4
4020202	4	0	1	1	0	0	3	2	0	1	0	0	1	0	0	1	0	0	4	4	4
4020203	4	0	1	1	0	0	0	2	0	1	0	0	1	0	0	1	0	0	1	0	0
4020205	4	0	1	1	0	0	3	2	0	2	0	3	1	0	0	1	0	0	1	0	0
4020206	4	0	1	1	0	0	3	2	0	2	0	3	1	0	0	1	0	3	1	0	0
4020213	4	0	1	1	0	0	3	2	0	2	0	3	1	0	0	1	0	0	4	4	4
4020216	4	0	1	1	0	0	3	2	0	1	0	0	1	0	0	1	0	0	0	0	0
4020220	4	0	1	1	0	0	0	2	0	2	0	0	2	0	0	2	0	0	4	4	4
4020222	4	0	1	1	0	0	3	2	0	2	0	3	2	0	3	2	0	3	1	0	0
4020224	4	0	1	1	0	0	2	2	0	2	0	3	2	0	3	1	0	0	1	0	0
4020225	4	0	1	1	0	0	3	2	0	1	0	0	1	0	0	1	0	0	1	0	0
4020227	4	0	1	1	0	0	3	2	0	1	0	0	1	0	0	1	0	0	4	4	4
4020228	4	0	1	1	0	0	3	2	0	2	0	3	2	0	3	1	0	0	4	4	4
4020230	4	0	1	1	0	0	3	2	0	3	2	0	3	2	0	1	0	0	1	0	0
4020231	4	0	1	1	0	0	3	2	0	1	0	0	1	0	0	1	0	0	1	0	0
4020232	4	0	1	1	0	0	3	2	0	1	0	0	1	0	0	1	0	0	1	0	0
4020233	4	0	1	1	0	0	3	2	0	1	0	0	1	0	0	1	0	0	1	0	0
4020266	4	0	1	1	0	0	3	2	0	2	0	3	0	0	1	2	0	3	4	4	4
4020267	4	1	1	1	0	0	0	2	0	1	0	0	1	0	0	1	0	0	1	0	0
4020270	4	0	1	1	0	0	0	2	0	1	0	0	1	0	0	1	0	0	4	4	4
4020272	4	1	1	1	0	0	0	2	0	1	0	0	1	0	0	1	0	0	1	0	0
4020274	4	1	1	1	0	0	0	1	0	1	0	0	1	0	0	1	0	0	1	0	0
4020275	4	0	1	1	0	0	3	2	3	1	0	0	1	0	0	1	0	0	1	0	0
4020276	4	1	1	1	0	0	0	2	0	2	0	3	4	4	4	2	0	3	4	4	4
4020277	4	1	1	1	0	0	1	0	0	1	0	0	3	2	0	1	0	0	1	0	0
4020279	4	0	1	1	0	0	0	2	0	1	0	0	1	0	0	1	0	0	4	4	4
4020280	4	0	1	1	0	0	3	2	0	1	0	0	1	0	0	1	0	0	4	4	4
4020282	4	1	1	1	0	0	1	0	0	1	0	0	3	2	0	1	0	0	1	0	0
4020286	4	1	1	1	0	0	0	2	0	1	0	0	2	0	3	2	0	3	4	4	4
4020287	4	2	1	1	0	0	0	2	0	0	2	0	2	0	0	2	0	0	0	0	0
4020288	4	0	1	1	0	0	0	2	0	1	0	0	3	0	0	1	0	0	4	4	4
4020331	4	2	1	1	0	0	0	2	0	1	0	0	1	0	0	1	0	0	1	0	0
4020334	4	2	1	1	0	0	3	2	0	3	2	0	4	4	4	1	0	0	4	4	4
4020335	4	2	1	1	0	0	0	2	0	2	0	0	2	0	0	2	0	0	1	0	0
4020336	4	2	1	1	0	0	3	2	0	3	2	0	3	2	0	2	0	3	1	0	0
4020340	4	2	1	1	0	0	0	2	0	2	0	0	1	0	0	1	0	0	4	4	4
4020341	4	2	1	1	0	0	0	2	0	1	0	0	2	0	0	1	0	0	0	0	0
4020342	4	2	1	1	1	0	0	2	0	3	2	0	1	0	0	1	0	0	4	4	4
4020346	4	2	1	1	0	0	3	2	0	1	0	0	1	0	0	1	0	0	4	4	4
4020348	4	2	1	1	2	0	2	2	0	1	0	0	1	0	0	1	0	0	4	4	4
4020349	4	2	1	1	1	1	3	3	3	1	1	1	2	2	2	1	1	1	2	2	2
4020351	4	2	1	1	0	0	0	2	0	1	0	0	3	0	0	2	0	0	4	4	4
4020353	4	2	1	1	0	0	0	2	0	3	2	0	4	4	4	1	0	0	4	4	4
4020354	4	2	1	1	0	0	0	2	0	1	0	0	1	0	0	1	0	0	1	0	0
4010034	4	0	0	2	0	3	3	2	0	1	0	0	1	0	0	1	0	0	4	4	4
4010066	4	2	0	2	0	0	4	4	4	1	0	0	0	2	0	1	0	0	4	4	4
4010083	4	2	0	2	0	3	0	2	0	2	0	0	4	4	4	1	0	0	2	0	3
4020201	4	0	1	2	0	3	0	2	3	2	0	3	2	0	3	2	0	3	4	4	4
4020337	4	2	1	2	0	3	2	0	3	0	2	3	2	0	0	2	0	3	4	4	4
4010028	4	0	0	3	2	0	3	2	0	1	0	0	1	0	0	1	0	0	1	0	0
4010041	4	2	0	3	0	0	4	4	4	1	0	0	0	2	0	1	0	0	4	4	4
4010086	4	2	0	3	2	0	3	2	0	1	0	0	4	4	4	1	0	0	2	0	3
4010087	4	2	0	3	2	0	3	2	0	1	0	0	1	0	3	2	0	3	1	0	0
4010135	4	0	0	3	2	0	3	2	0	3	2	0	3	2	0	1	0	0	1	0	0
4010140	4	0	0	3	2	0	3	2	0	3	2	0	3	2	0	1	0	0	1	0	0
4010141	4	0	0	3	2	3	3	2	0	3	2	3	3	2	3	1	0	0	1	0	0
4010142	4	0	0	3	2	0	3	2	0	3	2	0	3	2	0	1	0	0	1	0	0
4010145	4	0	0	3	2	0	3	2	0	3	2	0	3	2	0	1	0	0	1	0	0
4010146	4	0	0	3	2	0	3	2	0	3	2	0	3	2	0	1	0	0	1	0	0
4010147	4	0	0	3	2	0	3	2	0	3	2	0	3	2	0	1	0	0	4	4	4
4010148	4	0	0	3	2	0	3	2	0	3	2	0	3	2	0	3	0	0	3	0	0
4010149	4	0	0	3	2	0	3	2	0	3	2	0	3	2	0	1	0	0	1	0	0
4010150	4	0	0	3	2	0	3	2	0	3	2	0	3	2	0	1	0	0	1	0	0
4010151	4	0	0	3	2	0	3	2	0	3	2	0	3	2	0	1	0	0	1	0	0
4010152	4	0	0	3	2	0	3	2	0	3	2	0	3	2	0	1	0	0	1	0	0
4010155	4	0	0	3	2	0	3	2	0	3	2	0	3	2	0	1	0	0	1	0	0
4010156	4	0	0	3	2	0	3	2	0	3	2	0	3	2	0	1	0	0	1	0	0
4010159	4	0	0	3	2	0	3	2	0	3	2	0	3	2	0	2	0	3	4	4	4
4010160	4	0	0	3	0	0	3	0	0	3	0	0	3	0	0	3	0	0	3	0	0
4010161	4	0	0	3	2	0	3	2	0	3	2	0	3	2	0	1	1	0	1	1	0
4010162	4	0	0	3	2	0	3	2	0	3	2	0	1	0	0	1	0	0	1	0	0
4010166	4	0	0	3	2	0	3	2	0	3	2	0	3	2	0	1	0	0	1	0	0
4010167	4	0	0	3	2	0	0	2	0	3	2	0	0	2	0	1	0	0	2	0	0
4010168	4	0	0	3	2	0	3	2	0	3	2	0	3	2	0	1	0	0	4	4	4
4010169	4	0	0	3	2	3	3	2	3	3	2	3	3	2	3	1	0	3	1	0	0
4010170	4	0	0	3	2	0	3	2	0	3	2	0	3	2	0	1	0	0	4	4	4
4010173	4	0	0	3	2	0	0	2	0	3	2	0	0	2	0	1	0	0	0	0	0
4010174	4	0	0	3	2	0	3	2	0	3	2	0	3	2	0	1	0	0	4	4	4
4010175	4	0	0	3	2	0	3	2	0	3	2	0	1	0	0	1	0	0	1	0	0
4010178	4	0	0	3	2	0	3	2	0	3	2	0	3	2	0	3	0	0	3	0	0
4010179	4	0	0	3	2	0	3	2	0	3	2	0	3	2	0	1	0	0	1	0	0
4010180	4	0	0	3	2	0	3	2	0	3	2	0	3	2	0	1	0	0	1	0	0
4010181	4	0	0	3	2	0	3	2	0	3	2	0	3	2	0	1	0	0	0	0	0
4010182	4	0	0	3	2	0	3	2	0	3	2	0	3	2	0	1	0	0	1	0	0
4010183	4	0	2	3	2	0	3	2	0	3	2	0	1	0	0	1	0	0	4	4	4
4010185	4	0	0	3	2	0	3	2	0	3	2	0	1	0	0	1	0	0	1	0	0
4010186	4	0	0	3	2	0	3	2	0	3	2	0	3	2	0	3	2	0	1	0	0
4010188	4	0	0	3	2	0	3	2	0	3	2	0	3	2	0	1	0	0	1	0	0
4010189	4	0	0	3	2	0	3	2	0	3	2	0	3	2	0	1	0	0	4	4	4
4010191	4	0	0	3	4	0	0	2	0	3	2	0	3	2	0	1	0	0	0	0	0
4010193	4	0	0	3	2	0	3	2	0	3	2	0	3	2	0	3	0	0	3	0	0
4020208	4	0	1	3	2	0	3	2	0	1	0	0	1	0	0	1	0	0	1	0	0
4020209	4	0	1	3	0	0	.	2	0	1	.	0	1	0	0	1	0	0	1	0	0
4020210	4	0	1	3	2	0	0	2	0	1	0	0	0	0	0	1	0	0	0	0	0
4020211	4	0	1	3	2	0	3	2	0	1	0	0	1	0	0	1	0	0	1	0	0
4020212	4	0	1	3	2	0	3	2	0	1	0	0	1	0	0	1	0	0	1	0	0
4020215	4	0	1	3	2	0	3	2	0	1	0	0	2	0	3	1	0	0	1	0	0
4020217	4	0	1	3	2	0	0	2	0	2	0	3	1	0	0	1	0	0	0	0	0
4020223	4	0	1	3	2	0	3	2	0	1	0	0	1	0	0	1	0	0	4	4	4
4020226	4	0	1	3	2	.	3	2	0	1	0	0	1	0	0	1	0	0	1	0	0
4010085	4	2	0	4	4	4	0	2	0	2	0	0	4	4	4	2	0	0	4	4	4
4010157	4	0	0	.	2	0	0	2	0	0	2	0	0	2	0	1	0	0	1	0	0
5020005	5	1	1	0	0	0	3	2	0	1	0	0	1	0	0	1	0	0	0	0	0
5020006	5	1	1	0	0	0	0	0	0	0	0	0	0	0	0	0	0	0	0	0	0
5020043	5	2	1	0	0	0	0	0	0	0	0	0	0	0	0	0	0	0	0	0	0
5020046	5	2	1	0	0	0	0	0	0	0	0	0	0	0	0	0	0	0	0	0	0
5020086	5	1	1	0	2	0	0	2	0	1	0	0	0	0	0	1	0	0	0	0	0
5020087	5	2	1	0	0	0	0	0	0	0	0	0	0	0	0	0	0	0	0	0	0
5020001	5	2	1	1	0	0	0	0	0	1	0	0	0	0	0	0	0	0	0	0	0
5020003	5	2	1	1	0	0	0	2	0	0	2	0	0	0	0	0	0	0	0	0	0
5020004	5	2	1	1	0	0	3	2	0	3	2	0	1	0	0	1	0	0	0	0	0
5020007	5	1	1	1	0	0	0	2	0	1	2	0	0	0	0	1	0	0	0	0	0
5020008	5	1	1	1	0	0	1	1	0	1	1	0	1	0	0	1	0	0	0	0	0
5020009	5	1	1	1	0	0	0	0	0	2	0	0	1	0	0	1	0	0	0	0	0
5020010	5	1	1	1	0	0	0	1	0	1	0	0	1	0	0	1	0	0	0	0	0
5020011	5	1	1	1	0	0	0	1	0	0	1	0	1	0	0	1	0	0	1	0	0
5020012	5	1	1	1	0	0	0	2	0	3	2	0	3	2	0	1	0	0	0	0	0
5020013	5	1	1	1	0	0	3	2	0	3	2	3	1	0	0	1	0	0	0	0	0
5020015	5	1	1	1	0	0	0	1	0	0	1	0	1	0	0	1	0	0	0	0	0
5020018	5	2	1	1	0	0	0	0	0	0	2	1	0	0	0	2	0	0	0	0	0
5020019	5	1	1	1	0	0	0	1	0	1	0	0	1	0	0	1	0	0	0	0	0
5020020	5	1	1	1	0	0	0	2	0	0	2	0	0	2	0	1	0	0	0	0	0
5020021	5	2	1	1	0	0	0	2	0	1	0	0	1	0	0	1	0	0	0	0	0
5020022	5	2	1	1	0	0	3	2	0	3	2	0	0	0	0	0	0	0	1	0	0
5020023	5	2	1	1	0	0	3	2	0	3	2	0	3	0	2	0	0	0	0	0	0
5020024	5	2	1	1	0	0	0	2	0	0	2	3	2	0	0	2	0	0	0	0	0
5020025	5	1	1	1	0	0	0	1	0	0	1	0	1	0	0	1	0	0	1	0	0
5020026	5	1	1	1	0	0	0	1	0	0	2	0	1	0	0	1	0	0	0	0	0
5020027	5	1	1	1	0	0	0	2	0	1	0	0	1	0	0	1	0	0	0	0	0
5020028	5	2	1	1	0	0	0	2	0	3	2	0	0	0	0	1	0	0	0	0	0
5020029	5	2	1	1	2	0	0	2	0	3	2	0	1	0	0	1	0	0	0	0	0
5020032	5	1	1	1	0	0	0	2	0	1	0	0	0	0	0	1	0	0	0	0	0
5020034	5	2	1	1	0	0	0	0	0	3	2	3	0	0	0	1	0	0	0	0	0
5020035	5	2	1	1	0	0	0	2	0	0	2	0	0	0	0	0	0	0	0	0	0
5020036	5	2	1	1	0	0	3	2	3	3	2	3	3	0	3	3	0	3	3	0	3
5020037	5	2	1	1	0	0	0	2	0	3	2	0	0	0	0	1	0	0	0	0	0
5020038	5	2	1	1	2	3	3	0	3	1	2	3	0	0	3	0	0	2	0	0	0
5020039	5	2	1	1	2	3	0	2	0	3	2	3	2	0	0	1	0	3	0	0	0
5020040	5	2	1	1	0	0	0	2	0	2	2	0	1	0	0	1	0	0	0	0	0
5020044	5	2	1	1	0	0	0	2	0	1	0	0	1	0	0	0	0	0	0	0	0
5020045	5	2	1	1	0	0	0	0	0	1	0	0	0	0	0	1	0	0	0	0	0
5020049	5	2	1	1	0	0	0	2	0	0	2	3	3	0	0	1	0	3	0	0	0
5020050	5	2	1	1	0	0	0	2	0	1	0	0	0	0	0	1	0	0	0	0	0
5020051	5	2	1	1	1	1	2	2	3	1	1	1	2	2	2	1	2	2	0	0	0
5020052	5	2	1	1	0	0	0	2	0	0	2	3	3	0	0	2	0	3	2	0	0
5020053	5	2	1	1	0	0	0	0	0	0	2	3	0	0	0	1	0	0	0	0	0
5020054	5	2	1	1	0	0	3	2	0	2	0	3	1	0	0	2	0	3	1	0	0
5020056	5	2	1	1	2	0	0	0	1	0	2	3	0	0	0	1	0	0	0	0	0
5020057	5	2	1	1	0	0	3	2	0	3	2	0	1	0	0	1	0	0	0	0	0
5020058	5	2	1	1	0	0	3	2	0	3	2	3	2	0	0	1	0	0	0	0	0
5020059	5	2	1	1	0	0	0	1	0	0	1	0	0	0	0	1	0	0	0	0	0
5020060	5	2	1	1	0	0	0	2	0	1	0	0	0	0	2	1	0	0	3	0	0
5020061	5	2	1	1	0	3	1	1	0	1	0	3	1	0	0	1	0	3	0	0	0
5020062	5	2	1	1	0	0	2	0	0	1	0	0	0	0	0	3	0	0	0	0	0
5020063	5	2	1	1	0	0	2	2	0	1	0	0	3	0	0	1	0	0	0	0	0
5020065	5	2	1	1	0	0	0	1	0	0	1	0	0	1	0	1	0	0	1	0	0
5020066	5	2	1	1	0	0	0	2	0	0	2	0	0	0	2	1	0	0	0	0	0
5020067	5	2	1	1	0	0	3	2	0	3	2	0	1	0	0	1	0	0	1	0	0
5020068	5	2	1	1	0	0	0	2	0	0	2	0	0	2	0	1	0	0	1	0	0
5020069	5	2	1	1	0	0	0	0	0	2	2	0	0	0	0	1	0	0	0	0	0
5020070	5	2	1	1	0	0	0	2	0	1	0	0	0	0	0	1	0	0	0	0	0
5020072	5	2	1	1	0	3	0	2	0	1	0	3	0	2	0	1	0	0	0	0	0
5020073	5	2	1	1	2	0	0	2	0	0	2	0	0	2	0	2	0	0	3	0	0
5020074	5	2	1	1	0	0	0	2	0	0	0	0	2	0	0	1	0	0	0	0	0
5020075	5	2	1	1	0	0	0	2	0	0	0	0	2	0	0	1	0	0	0	0	0
5020076	5	2	1	1	0	0	0	0	0	1	0	0	0	0	0	1	0	0	0	0	0
5020078	5	2	1	1	2	3	2	0	3	1	2	3	2	0	3	1	3	3	0	3	3
5020079	5	2	1	1	0	0	2	2	0	2	0	0	0	0	0	1	0	0	0	0	0
5020080	5	2	1	1	0	3	1	2	0	1	1	1	0	0	0	0	0	0	0	0	0
5020081	5	2	1	1	0	0	3	2	0	1	0	0	0	0	0	1	0	0	0	0	0
5020082	5	2	1	1	0	0	0	2	0	0	2	0	1	0	0	2	0	3	0	0	0
5020083	5	2	1	1	0	0	3	2	0	2	3	0	1	0	0	1	0	0	1	0	0
5020085	5	2	1	1	0	0	3	2	0	1	0	0	2	0	3	2	0	3	1	0	0
5020089	5	1	1	1	0	0	3	2	0	3	2	0	0	0	2	1	0	0	1	0	0
5020090	5	2	1	1	0	0	0	2	3	3	2	0	3	2	0	1	0	0	0	0	3
5020091	5	2	1	1	0	0	2	0	0	1	0	0	2	0	0	1	0	0	3	0	0
5020093	5	2	1	1	0	0	1	0	0	1	0	0	0	2	2	1	0	1	0	0	0
5020094	5	1	1	1	0	0	0	2	0	2	0	0	2	0	0	2	0	0	0	0	0
5020095	5	1	1	1	0	0	0	2	0	2	0	0	2	0	0	2	0	0	0	0	0
5020096	5	1	1	1	0	0	0	2	0	1	0	0	1	0	0	1	0	0	1	0	0
5020097	5	1	1	1	0	0	0	2	0	1	0	0	1	0	0	1	0	0	0	0	0
5020098	5	1	1	1	0	0	0	1	0	0	2	0	2	0	0	1	0	0	0	0	0
5020100	5	1	1	1	0	0	3	1	0	1	0	0	1	0	0	1	0	0	1	0	0
5020002	5	2	1	2	0	3	0	2	0	0	2	3	0	0	0	2	0	3	0	0	0
5020016	5	1	1	2	0	0	0	2	0	0	2	0	2	0	0	2	0	0	2	0	0
5020030	5	2	1	2	0	0	0	2	0	0	2	0	1	0	0	1	0	3	0	0	0
5020033	5	2	1	2	0	0	0	0	0	0	2	0	0	0	0	1	0	0	0	0	0
5020064	5	2	1	2	0	0	0	2	0	2	0	0	0	0	2	2	0	0	0	0	0
5020071	5	2	1	2	0	3	0	2	0	2	0	3	0	0	0	1	0	0	0	0	0
5020092	5	2	1	2	0	0	0	2	0	1	0	0	0	2	0	1	0	0	1	0	0
5020014	5	1	1	3	0	2	3	2	0	3	2	0	3	0	0	2	0	0	0	0	0
5020017	5	2	1	3	0	0	0	2	0	3	2	0	2	0	3	1	0	0	0	0	0
5020041	5	1	1	3	2	0	0	0	0	3	2	0	3	2	0	1	0	0	0	0	0
5020042	5	2	1	3	2	0	0	2	0	0	2	0	1	0	0	0	0	0	1	0	0
5020047	5	2	1	3	2	0	3	2	0	0	2	3	0	0	0	1	0	0	0	0	0
5020048	5	2	1	3	1	0	0	2	0	3	2	0	0	0	0	0	0	0	0	0	0
5020077	5	2	1	3	1	0	3	2	3	2	2	3	2	0	3	1	0	3	1	0	3
3020019	3	2	1	0	0	0	0	0	0	0	0	0	0	0	0	0	0	0	0	0	0
3010164	3	1	0	0	2	0	0	0	0	0	2	0	1	0	0	1	0	0	1	0	0
3010175	3	1	0	0	2	0	0	0	0	0	2	0	1	0	0	1	0	0	1	0	0
3020002	3	2	1	1	0	0	0	2	0	1	0	0	1	0	3	1	0	2	4	4	4
3020003	3	2	1	1	4	4	4	2	4	1	4	4	0	0	3	1	4	4	4	4	4
3020007	3	2	1	1	0	0	4	4	4	1	0	0	1	0	0	1	0	0	4	4	4
3020008	3	2	1	1	0	0	0	2	0	0	2	0	2	0	0	1	0	0	4	4	4
3020009	3	2	1	1	0	0	4	4	4	1	2	0	1	0	0	1	0	0	3	0	0
3020012	3	2	1	1	0	0	2	0	0	1	0	0	2	0	0	1	0	0	2	0	0
3020017	3	2	1	1	0	0	4	4	4	3	2	0	1	0	0	1	0	0	0	0	0
3020018	3	2	1	1	0	0	4	4	4	1	0	0	1	0	0	1	0	0	4	4	4
3010109	3	1	0	1	0	0	1	0	0	3	2	0	1	2	0	1	0	0	0	0	0
3010147	3	1	0	1	2	0	3	0	0	3	2	0	1	0	0	1	0	0	0	0	0
3010149	3	1	0	1	2	0	3	0	0	3	2	0	1	0	0	1	0	0	0	0	0
3010150	3	1	0	1	2	0	3	0	0	0	2	0	1	0	0	1	0	0	0	0	0
3010151	3	1	0	1	2	0	3	0	0	0	2	0	1	0	0	1	0	0	0	0	0
3010166	3	1	0	1	2	0	4	4	4	3	2	0	1	0	0	1	0	0	4	4	4
3010167	3	1	0	1	2	0	4	4	4	3	2	0	1	0	0	1	0	0	4	4	4
3010168	3	1	0	1	2	0	4	4	4	3	2	0	1	0	0	1	0	0	4	4	4
3010171	3	1	0	1	2	0	0	0	0	1	2	0	1	0	0	1	0	0	0	0	0
3010191	3	1	0	1	2	0	3	0	0	3	2	0	1	0	0	1	0	0	0	0	0
3020010	3	2	1	2	0	3	0	2	0	2	0	0	2	0	0	2	0	3	1	0	0
3020014	3	2	1	2	0	0	0	2	0	1	0	0	3	0	0	1	0	0	4	4	4
3020015	3	2	1	2	0	0	4	4	4	2	0	0	4	4	4	1	0	0	4	4	4
3020004	3	2	1	3	0	0	0	2	0	1	0	0	1	0	0	1	0	0	4	4	4
3020011	3	2	1	3	2	0	0	2	0	1	0	0	1	0	0	1	0	0	3	0	0
3010102	3	1	0	3	2	0	3	0	0	3	2	0	1	0	0	1	0	0	0	0	0
3010110	3	1	0	3	2	0	4	4	4	3	2	0	1	0	0	1	0	0	4	4	4
3010121	3	1	0	3	2	0	3	0	0	1	2	0	1	0	0	1	0	0	4	4	4
3010127	3	1	0	3	2	0	3	2	0	1	2	0	1	2	0	1	0	0	1	0	0
3010129	3	1	0	3	2	0	3	2	0	3	2	0	3	0	0	3	0	0	0	0	0
3010145	3	1	0	3	2	0	0	0	0	3	2	0	1	0	0	1	0	0	0	0	0
3010146	3	1	0	3	2	0	0	0	0	3	2	0	1	0	0	1	0	0	0	0	0
3010148	3	1	0	3	1	0	0	0	0	3	1	0	1	0	0	1	0	0	0	0	0
3010152	3	1	0	3	2	0	0	2	0	3	2	0	1	0	0	1	0	0	0	0	0
3010153	3	1	0	3	2	0	0	2	0	0	2	0	1	0	0	1	0	0	0	0	0
3010154	3	1	0	3	2	0	0	0	0	3	2	0	1	0	0	1	0	0	4	4	4
3010161	3	1	0	3	2	0	0	0	0	3	2	0	1	0	0	1	0	0	0	0	0
3010162	3	1	0	3	2	0	3	2	0	3	2	0	1	0	0	1	0	0	4	4	4
3010163	3	1	0	3	2	0	3	2	0	3	2	0	1	0	0	1	0	0	4	4	4
3010177	3	1	0	3	2	0	3	2	0	3	2	0	1	0	0	1	0	0	0	0	0
3010178	3	1	0	3	2	0	4	4	4	3	2	0	1	0	0	1	0	0	4	4	4
3010179	3	1	0	3	2	0	4	4	4	3	2	0	1	0	0	1	0	0	4	4	4
3010180	3	1	0	3	2	0	3	2	0	3	2	0	2	0	0	2	0	0	4	4	4
3010185	3	1	0	3	2	0	3	0	0	3	2	0	1	0	0	1	0	0	3	0	0
3010189	3	1	0	3	2	0	0	2	0	3	2	4	1	4	4	1	4	4	0	0	0
3010190	3	1	0	3	2	4	4	2	4	3	2	4	1	4	4	1	4	4	0	0	0
3010203	3	1	0	3	2	0	4	4	4	3	2	0	1	0	0	1	0	0	0	0	0
