ID_number	center	age_group1	school	sba1_Q1	sba1a_Q1	sba1b_Q1	sbb1_Q1	sbb2_Q1	sbb3a_Q1	sbb3b_Q1	sbb4_Q1	sbb5_Q1	sbb6_Q1	sbc1_Q1	sbc2_Q1	sbc3_Q1
1010005	1	0	0	4	1	.	1	.	24	8	.	4	6	5	3	1
1010008	1	0	0	4	1	.	.	.	32	0	2	3	4	5	4	1
1010050	1	0	0	4	1	.	1	.	25	4	4	2	4	4	2	1
1010053	1	0	0	4	1	.	.	.	22	1	5	2	6	5	1	1
1010058	1	0	0	4	1	.	.	.	.	4	3	4	6	5	4	1
1010061	1	0	0	4	1	.	.	.	27	5	3	3	5	5	4	1
1010062	1	0	0	3	2	.	.	.	28	0	2	2	5	4	.	1
1010063	1	0	0	4	1	.	.	.	28	1	2	2	5	4	4	1
1010064	1	0	0	4	3	DAVI	.	.	33	1	2	4	4	5	2	1
1010067	1	0	0	4	1	.	1	1	30	2	2	4	6	5	3	1
1010068	1	0	0	4	1	.	1	1	22	7	2	4	6	5	1	1
1010069	1	0	0	4	1	.	1	.	27	2	4	2	4	5	4	1
1010071	1	0	0	4	1	.	1	.	31	.	.	.	.	4	.	.
1010072	1	0	0	4	1	.	.	.	.	.	5	2	4	5	3	1
1010073	1	0	0	4	1	.	.	.	.	.	3	2	4	4	2	1
1010074	1	0	0	4	1	.	.	.	.	.	2	2	2	5	1	1
1010075	1	0	0	4	1	.	.	.	32	0	1	2	4	5	3	1
1010076	1	0	0	4	1	.	1	1	.	32	3	1	2	2	2	1
1011002	1	1	0	4	1	.	.	.	24	4	3	4	6	4	1	.
1011004	1	1	0	4	2	.	0	0	25	2	1	4	6	4	3	1
1011005	1	1	0	4	2	.	1	.	35	7	2	2	6	5	2	1
1011006	1	1	0	4	1	.	.	.	.	.	3	.	3	5	2	1
1011007	1	1	0	3	1	.	.	.	29	2	3	.	2	4	3	1
1011008	1	1	0	4	1	.	.	.	.	7	5	2	4	5	2	1
1011009	1	1	0	3	1	.	0	0	32	0	2	4	4	4	1	1
1011010	1	1	0	4	2	.	.	.	29	3	2	2	4	5	4	1
1011011	1	1	0	4	1	.	.	.	25	4	1	.	2	4	3	1
1011014	1	1	0	4	2	.	.	.	.	2	2	2	6	5	2	1
1011015	1	1	0	3	2	.	.	.	9	.	3	3	3	4	2	1
1011016	1	1	0	4	1	.	.	.	.	.	3	2	3	5	2	1
1011018	1	1	0	4	1	.	.	.	.	4	1	2	4	5	2	1
1011019	1	1	0	4	1	.	1	1	.	.	3	3	6	5	4	1
1011020	1	1	0	4	1	.	.	.	28	4	3	2	4	4	2	1
1011024	1	1	0	4	1	.	.	.	23	3	1	4	6	4	3	1
1011025	1	1	0	3	1	.	.	.	.	4	.	3	.	.	3	1
1011027	1	1	0	3	1	.	.	.	.	.	3	1	.	3	1	1
1011028	1	1	0	4	1	.	.	1	23	8	2	2	6	4	1	.
1011031	1	1	0	4	1	.	.	.	32	1	3	2	4	5	2	1
1011032	1	1	0	.	.	.	.	.	.	.	.	.	5	4	3	1
1011033	1	1	0	4	1	.	.	.	28	0	3	3	5	5	3	1
1011034	1	1	0	3	1	.	.	.	29	3	2	3	4	5	4	1
1011035	1	1	0	4	1	.	.	.	27	1	2	3	6	5	2	1
1011038	1	1	0	4	1	.	.	.	.	.	5	2	.	4	3	1
1020004	1	0	1	4	1	.	.	.	27	2	1	4	6	5	3	1
1020005	1	0	1	4	1	.	.	.	28	.	1	4	6	5	4	1
1020006	1	0	1	4	1	.	.	.	28	.	1	4	4	5	3	1
1020009	1	0	1	4	1	.	.	.	31	3	2	4	6	5	3	1
1020025	1	0	1	4	1	.	1	1	31	1	3	4	6	5	4	1
1020026	1	0	1	4	1	.	1	.	29	3	3	2	6	5	4	1
1020027	1	0	1	4	1	.	.	.	28	4	1	3	6	5	1	1
1020028	1	0	1	4	1	.	.	.	28	.	2	3	5	4	2	1
1020038	1	0	1	4	1	.	.	.	32	.	2	2	3	5	2	1
1020039	1	0	1	4	1	.	.	.	26	4	3	4	6	5	3	1
1021001	1	1	1	4	1	.	1	.	30	0	2	4	4	5	4	1
1021004	1	1	1	4	1	.	1	.	.	.	2	3	3	5	2	1
1021005	1	1	1	4	1	.	1	.	.	.	2	3	3	5	2	1
1021006	1	1	1	4	1	.	1	.	.	0	2	2	6	5	1	1
1021012	1	1	1	4	1	.	.	.	30	2	2	3	3	5	4	1
1021013	1	1	1	4	1	.	.	.	32	0	1	4	6	5	3	1
1021016	1	1	1	4	1	.	.	.	32	0	2	4	5	5	3	1
1021018	1	1	1	4	1	.	.	.	.	.	2	4	5	5	3	1
1021020	1	1	1	4	1	.	.	.	.	4	2	2	6	5	2	1
1021021	1	1	1	4	1	.	.	.	29	2	2	.	3	5	2	1
1021024	1	1	1	4	1	.	.	.	.	.	2	3	6	5	4	1
1021028	1	1	1	4	1	.	.	.	.	.	2	3	5	5	4	1
1021029	1	1	1	4	1	.	.	.	28	4	2	4	6	5	3	1
1021030	1	1	1	4	1	.	.	.	.	.	2	4	6	5	3	1
1021031	1	1	1	4	1	.	.	.	31	1	2	4	5	5	3	1
1021032	1	1	1	4	2	.	.	.	26	1	2	4	6	5	3	1
1021038	1	1	1	4	1	.	.	.	.	0	1	4	6	5	3	1
1021039	1	1	1	4	3	.	.	.	32	0	2	3	4	5	3	1
1021040	1	1	1	4	1	.	.	.	27	1	2	2	3	5	1	1
1021041	1	1	1	4	1	.	.	.	28	1	2	2	3	5	3	1
1021042	1	1	1	4	1	.	.	.	32	0	2	4	6	5	4	1
1021044	1	1	1	4	1	.	.	.	28	4	3	4	6	5	3	1
1021046	1	1	1	4	2	.	.	.	27	1	2	3	6	5	4	1
1021047	1	1	1	4	2	.	.	.	28	0	2	4	6	5	4	1
1021049	1	1	1	4	1	.	0	0	28	4	1	4	6	5	4	1
1021050	1	1	1	4	1	.	1	1	.	.	2	4	6	5	3	1
1021051	1	1	1	4	1	.	.	.	32	.	2	3	6	5	3	1
1021054	1	1	1	3	1	.	.	.	32	0	1	4	6	5	2	1
1021055	1	1	1	4	2	.	.	.	31	.	2	2	3	4	2	1
1021056	1	1	1	4	2	.	1	1	32	0	1	4	6	5	1	1
1021059	1	1	1	4	1	.	1	.	.	0	1	4	.	5	2	1
1021062	1	1	1	4	1	.	1	.	32	5	2	4	6	5	4	1
1021063	1	1	1	4	1	.	.	.	29	.	2	3	5	5	2	1
1021065	1	1	1	4	.	.	.	.	.	2	2	4	6	5	3	1
1021066	1	1	1	4	1	.	.	.	28	4	1	3	6	5	1	1
1021068	1	1	1	4	1	.	.	.	28	4	2	3	3	5	3	1
1021069	1	1	1	4	1	.	.	.	27	0	3	4	5	5	3	1
1021070	1	1	1	4	1	.	.	.	.	1	2	4	6	5	3	1
1021071	1	1	1	4	1	.	.	.	28	0	2	4	4	4	2	1
1021072	1	1	1	4	1	.	.	.	27	1	2	4	6	5	4	1
1021073	1	1	1	4	1	.	.	.	28	4	2	3	4	5	4	1
2010001	2	0	2	4	1	.	1	0	26	4	3	4	5	4	3	1
2010002	2	0	2	4	1	.	0	.	30	2	2	3	3	5	2	1
2010006	2	0	2	4	1	.	0	0	.	.	5	2	4	4	2	1
2010019	2	0	2	4	2	.	0	0	.	.	2	4	6	5	3	1
2010021	2	0	2	4	1	.	1	0	32	.	2	2	4	5	4	1
2010022	2	0	2	4	1	.	0	.	30	2	2	3	3	5	2	1
2010024	2	0	2	4	1	.	1	0	38	2	2	3	2	5	1	0
2010029	2	0	2	4	1	.	0	.	.	0	2	2	3	4	1	1
2010042	2	0	2	4	1	.	0	0	.	.	2	2	6	5	1	1
2031023	2	1	2	4	1	.	0	0	32	0	1	4	6	5	2	1
2031027	2	1	2	4	1	.	1	1	.	.	3	2	6	5	4	1
2031030	2	1	2	4	2	.	0	0	.	.	1	2	4	4	2	1
2031033	2	1	2	4	3	.	0	0	.	1	2	2	4	5	2	1
2031034	2	1	2	4	3	.	0	0	.	1	2	2	4	5	2	1
2031037	2	1	2	4	1	.	0	0	32	0	1	4	6	5	2	1
2040001	2	0	2	3	1	.	0	0	.	2	2	4	6	5	3	1
2040002	2	0	2	4	1	.	0	0	28	0	2	2	3	5	4	1
2040003	2	0	2	3	1	.	1	1	28	3	3	2	6	5	2	1
2040005	2	0	2	3	1	.	0	0	.	4	2	4	6	5	4	1
2040017	2	0	2	3	1	.	0	0	30	0	2	3	6	5	3	1
2040027	2	0	2	4	1	.	0	0	29	2	2	4	5	5	4	1
2040029	2	0	2	4	1	.	0	0	25	7	3	2	5	5	4	1
2040031	2	0	2	4	1	PAI	1	0	29	3	2	2	5	5	4	1
2040034	2	0	2	.	.	.	.	.	.	.	.	.	.	.	.	.
2040040	2	0	2	4	3	.	0	0	28	4	2	2	4	4	2	1
2040041	2	0	2	4	1	.	1	0	32	.	2	4	.	5	4	1
2040042	2	0	2	4	1	.	0	.	23	0	2	4	5	5	4	1
2040043	2	0	2	4	1	.	1	1	28	4	3	2	6	4	2	1
2040044	2	0	2	4	1	.	0	0	28	4	2	3	6	5	1	1
2040047	2	0	2	.	.	.	.	.	.	.	.	.	.	.	.	.
2040048	2	0	2	3	1	.	1	0	28	1	2	2	6	5	4	1
2040051	2	0	2	4	1	.	0	.	.	0	2	4	1	4	1	1
2040056	2	0	2	4	1	.	1	1	.	4	2	2	6	5	2	1
2041014	2	1	2	4	1	.	1	0	30	3	3	2	3	5	2	1
2041015	2	1	2	3	2	PAI	0	0	.	3	1	2	4	4	3	1
2041017	2	1	2	4	1	.	1	0	43	0	3	2	4	5	4	1
2041018	2	1	2	4	1	.	1	0	26	5	3	3	4	5	2	1
2041023	2	1	2	4	1	.	1	1	.	1	3	2	6	4	4	1
2041033	2	1	2	4	1	.	1	.	26	6	2	2	6	5	4	1
2041034	2	1	2	3	1	.	0	0	28	0	2	2	4	5	4	1
2041035	2	1	2	4	1	.	0	0	30	1	2	2	2	4	2	1
2041036	2	1	2	4	1	.	0	0	32	0	2	3	5	4	2	1
2041038	2	1	2	4	1	.	1	0	28	2	3	2	3	5	3	1
2041039	2	1	2	4	1	.	0	.	31	1	2	4	6	5	4	1
2041043	2	1	2	4	1	.	1	1	25	2	3	2	6	5	2	1
2041044	2	1	2	.	1	.	0	.	32	0	1	4	6	.	.	1
2041049	2	1	2	4	1	.	0	0	31	4	2	2	4	5	4	1
2041053	2	1	2	4	1	.	0	0	30	1	2	4	5	5	2	1
5010010	5	1	0	3	1	.	0	0	32	2	2	4	6	3	1	1
5010014	5	1	0	4	1	.	0	0	.	.	1	1	1	5	4	1
5010017	5	1	0	4	2	.	0	0	28	.	2	4	5	5	3	1
5010018	5	1	0	3	2	.	1	1	28	3	4	2	4	3	1	1
5010019	5	1	0	4	1	.	0	0	.	.	1	3	6	5	4	1
5010022	5	0	0	.	.	.	.	.	.	.	.	.	.	.	.	.
5010023	5	0	0	1	1	.	1	1	.	.	5	1	2	3	1	1
5010024	5	1	0	.	1	.	0	0	21	1	1	.	5	.	1	.
5010027	5	1	0	4	1	.	0	1	29	3	3	1	2	5	1	1
5010028	5	0	0	4	1	.	0	0	30	2	3	2	4	4	1	1
5010030	5	1	0	4	2	.	0	.	28	.	3	2	3	4	3	1
5010033	5	1	0	.	.	.	.	.	.	.	.	.	.	.	.	.
5010034	5	1	0	4	.	.	1	1	31	1	.	3	6	3	1	1
5010036	5	1	0	.	.	.	.	.	.	.	.	.	.	.	.	.
5010037	5	1	0	.	.	.	.	.	.	.	.	.	.	.	.	.
5010038	5	1	0	4	1	.	1	1	32	.	2	2	6	5	1	1
5010040	5	1	0	4	1	.	0	1	30	4	3	1	2	4	2	1
5010041	5	1	0	4	1	.	1	0	27	3	3	2	6	4	1	1
5010042	5	1	0	4	1	.	1	0	27	.	3	2	6	4	1	1
5010058	5	1	0	4	1	.	0	.	.	.	3	2	6	4	1	1
5010059	5	1	0	3	1	.	1	0	.	6	3	4	6	3	1	1
5010061	5	1	0	3	1	.	1	0	30	2	3	2	5	4	2	1
5010064	5	1	0	4	1	.	0	.	26	3	2	2	4	4	3	1
5010066	5	1	0	.	.	.	.	.	.	.	.	.	.	.	.	.
5020005	5	1	1	4	2	.	0	0	32	.	2	2	4	5	1	1
5020006	5	1	1	4	1	.	0	.	31	.	3	1	3	4	1	1
5020007	5	1	1	4	1	.	0	.	30	.	2	3	6	5	3	1
5020008	5	1	1	4	1	.	0	.	16	.	2	3	5	5	2	1
5020009	5	1	1	4	1	.	0	0	24	.	3	4	6	5	4	1
5020010	5	1	1	4	1	.	1	0	30	.	2	3	6	5	2	1
5020011	5	1	1	4	1	.	0	0	27	.	1	4	6	5	2	1
5020012	5	1	1	4	1	.	1	0	30	.	2	2	6	4	3	1
5020013	5	1	1	4	1	.	1	0	27	.	3	3	4	5	2	1
5020014	5	1	1	3	1	.	0	0	32	.	2	2	5	4	1	1
5020015	5	1	1	4	1	.	0	0	28	.	1	4	4	5	3	1
5020016	5	1	1	4	1	.	1	0	.	.	2	4	6	4	2	1
5020019	5	1	1	4	1	.	1	1	.	.	5	2	3	5	1	1
5020020	5	1	1	4	1	.	1	0	26	.	3	2	3	5	1	1
5020025	5	1	1	4	1	.	1	0	.	4	2	2	3	5	1	1
5020026	5	1	1	4	2	.	0	.	36	0	1	3	2	4	4	1
5020027	5	1	1	4	1	.	1	0	22	5	3	2	6	4	3	1
5020031	5	1	1	4	1	.	0	0	30	2	2	4	6	5	1	1
5020032	5	1	1	4	1	.	1	0	22	5	3	2	6	4	3	1
5020041	5	1	1	4	1	.	0	0	32	.	2	2	4	5	1	1
5020086	5	1	1	4	1	.	0	.	.	7	3	3	5	5	3	1
5020088	5	1	1	4	1	.	0	0	29	3	2	4	6	5	3	1
5020089	5	1	1	4	1	.	0	0	29	2	3	2	4	5	4	1
5020094	5	1	1	4	1	.	1	0	20	12	4	2	6	5	.	1
5020095	5	1	1	4	1	.	1	0	20	12	4	2	6	5	.	1
5020096	5	1	1	4	1	.	0	.	26	2	3	2	5	4	1	1
5020097	5	1	1	4	2	.	0	0	.	6	2	2	5	5	2	1
5020098	5	1	1	4	2	.	0	0	30	2	2	3	3	5	3	1
5020100	5	1	1	4	1	.	1	0	32	0	1	2	5	5	4	1
6010001	6	0	0	4	1	.	0	0	.	2	4	6	4	1	1	.
6010002	6	0	0	4	1	.	1	0	27	2	2	2	6	5	2	1
6010005	6	0	0	4	1	.	0	0	21	5	2	4	6	5	1	1
6010006	6	0	0	4	1	.	0	0	30	.	1	4	6	5	5	4
6010008	6	0	0	4	1	.	0	.	28	4	2	2	6	5	3	1
6010009	6	0	0	4	1	.	0	0	30	2	2	3	5	4	4	1
6010010	6	0	0	4	1	.	0	0	.	1	1	4	5	5	4	1
6010011	6	0	0	4	1	.	1	0	5	27	3	3	6	4	1	1
6010012	6	0	0	2	1	.	0	0	.	1	2	6	2	1	1	.
6010013	6	0	0	2	1	.	0	.	.	1	2	6	2	1	1	.
6010014	6	0	0	4	1	.	0	.	32	1	4	4	5	.	1	.
6010015	6	0	0	4	1	.	1	0	.	2	2	5	4	1	1	.
6010016	6	0	0	4	1	.	1	0	26	4	4	4	6	5	2	1
6010017	6	0	0	4	1	.	1	1	30	2	2	2	6	4	3	1
6010018	6	0	0	3	1	.	0	0	.	2	4	6	4	.	1	.
6010020	6	1	0	4	1	.	0	.	0	0	4	1	2	4	1	1
6010021	6	1	0	4	1	.	0	0	28	0	2	1	2	5	1	1
6010022	6	1	0	2	1	.	0	0	0	2	2	2	5	3	1	1
6010023	6	1	0	4	1	.	0	0	.	2	.	.	5	1	1	.
6010024	6	1	0	4	1	.	0	0	5	0	2	.	4	5	1	1
6010025	6	1	0	4	1	.	0	0	5	.	2	.	4	5	1	1
6010026	6	1	0	4	1	PADRE	0	0	.	.	1	1	3	4	4	1
6010027	6	1	0	3	2	.	0	0	36	2	1	2	2	3	1	1
6010028	6	1	0	4	1	.	0	0	.	3	3	2	3	5	1	1
6010029	6	1	0	4	1	.	0	.	32	.	2	2	5	4	3	1
6010030	6	1	0	4	1	.	0	0	32	0	2	2	2	5	1	1
6010058	6	0	0	4	1	.	0	.	32	2	2	4	4	3	1	.
6010059	6	0	0	4	1	PADRE	1	1	28	2	2	2	5	5	1	1
6010060	6	0	0	1	1	.	0	0	32	0	2	1	6	4	4	1
6010061	6	0	0	4	1	.	0	.	30	2	2	4	6	5	4	1
6010062	6	0	0	4	1	.	0	0	24	6	1	2	6	5	4	1
6010063	6	0	0	3	2	.	0	0	32	0	1	1	2	3	1	1
6010064	6	0	0	3	2	.	0	0	32	0	2	2	2	5	1	1
6010065	6	0	0	.	.	.	.	.	.	.	.	.	.	.	.	.
6010066	6	0	0	3	1	.	1	0	.	.	2	4	3	1	1	.
6010067	6	0	0	4	1	.	0	0	31	3	1	1	6	5	3	1
6010068	6	0	0	4	1	.	0	0	32	0	2	2	5	4	2	1
6010069	6	0	0	4	1	.	0	.	24	5	2	2	4	5	1	1
6010070	6	0	0	4	1	.	1	0	26	5	3	2	6	5	1	1
6010071	6	0	0	4	1	.	1	1	30	2	2	.	.	.	.	.
6010072	6	0	0	1	1	.	0	0	.	2	2	4	5	1	1	.
6010073	6	0	0	4	1	.	0	0	.	1	2	3	6	5	4	1
6010074	6	0	0	4	1	.	1	0	.	2	3	1	1	4	2	1
6010075	6	0	0	4	1	.	1	0	30	2	2	4	6	5	2	1
6010076	6	0	0	3	1	.	0	.	.	2	3	4	5	2	1	.
6010077	6	0	0	4	2	.	0	0	.	2	3	2	5	2	1	.
6010077	6	0	0	4	2	.	0	0	.	.	2	3	2	5	2	1
6010078	6	0	0	3	1	.	1	0	.	.	3	2	6	3	1	1
6010081	6	0	0	4	1	.	0	0	30	0	2	4	6	5	4	1
6010082	6	0	0	4	1	.	0	0	32	3	2	3	5	2	1	.
6010084	6	0	0	3	1	.	0	.	.	1	2	2	3	4	2	1
6010085	6	0	0	.	.	.	.	.	.	.	.	.	.	.	.	.
6010086	6	0	0	4	1	.	0	.	32	.	1	4	6	5	2	1
6010087	6	0	0	4	1	.	0	.	32	.	1	4	6	5	3	1
6010088	6	0	0	.	.	.	.	.	.	.	.	.	.	.	.	.
6010089	6	0	0	4	1	.	0	.	12	2	1	2	5	5	2	1
6010090	6	0	0	3	1	.	0	.	.	3	2	3	6	4	1	1
6010091	6	0	0	4	1	.	1	0	28	3	2	3	6	5	2	1
6010092	6	0	0	4	1	.	0	.	.	.	3	2	5	4	1	1
6010093	6	0	0	4	1	.	0	0	29	3	2	2	4	5	1	1
6010094	6	0	0	4	1	.	0	0	.	.	2	2	6	4	3	1
6010095	6	0	0	4	1	.	1	0	28	3	2	3	6	5	2	1
6010096	6	0	0	3	2	.	0	0	.	.	2	4	6	5	2	1
6010097	6	0	0	4	1	.	1	1	.	.	3	2	6	4	1	1
6010098	6	0	0	3	1	.	1	1	27	3	2	2	5	4	1	1
6010099	6	0	0	3	1	.	0	0	.	0	2	3	5	4	2	1
6010100	6	1	0	4	1	.	1	1	21	7	3	4	6	5	4	1
6010101	6	1	0	4	1	.	0	0	.	3	2	3	6	5	4	1
6010102	6	1	0	4	1	.	0	.	29	3	3	2	4	4	2	1
6010103	6	1	0	4	2	.	0	0	.	.	2	3	4	4	4	1
6010104	6	1	0	4	1	.	0	.	17	15	2	2	5	4	1	1
6010106	6	1	0	4	1	.	0	0	26	3	2	2	3	4	2	1
6010106	6	1	0	4	1	.	0	0	26	3	2	2	3	4	2	1
6010108	6	1	0	4	1	.	0	0	.	.	2	4	5	4	2	1
7010094	7	1	0	4	1	.	1	0	29	3	3	.	3	5	3	1
7010096	7	1	0	4	1	.	0	0	.	6	2	4	6	5	2	1
7010099	7	1	0	3	1	.	1	1	18	.	3	2	6	3	1	1
7010100	7	1	0	4	1	.	0	0	.	.	2	2	.	5	2	1
7010111	7	1	0	4	3	.	0	0	28	1	3	2	3	5	1	1
7010112	7	1	0	3	1	.	0	.	.	.	2	3	3	4	1	1
7010116	7	1	0	4	1	.	0	0	.	2	3	2	3	5	2	1
7010126	7	1	0	4	3	ABUELA PATERNA	1	0	.	5	3	1	2	5	1	1
7010130	7	1	0	4	1	.	1	0	28	1	3	2	5	5	2	1
7010137	7	1	0	4	1	.	1	1	32	1	3	4	5	5	1	.
7020001	7	1	1	4	1	.	1	0	25	7	2	4	6	5	3	1
7020002	7	1	1	4	1	0	0	0	26	1	2	2	5	5	1	1
7020004	7	1	1	4	1	.	0	.	.	.	.	.	.	.	.	.
7020005	7	1	1	4	1	.	0	.	.	.	2	2	4	4	2	1
7020008	7	1	1	4	1	0	0	0	30	2	3	2	6	4	1	1
7020010	7	1	1	4	.	.	0	0	.	.	2	.	.	.	.	.
7020012	7	1	1	4	1	.	0	0	.	.	.	.	5	.	.	.
7020017	7	1	1	4	1	.	0	0	.	.	2	.	5	.	.	.
7020018	7	1	1	4	1	.	0	0	28	4	1	4	6	5	3	1
7020019	7	1	1	3	1	.	0	.	28	.	2	.	.	.	.	.
7020021	7	1	1	4	1	.	0	0	28	4	1	4	6	4	2	1
7020022	7	1	1	.	1	.	0	0	32	.	2	3	6	4	3	1
7020023	7	1	1	4	1	.	0	0	31	1	2	2	4	5	2	1
7020025	7	1	1	4	1	.	0	0	31	.	2	2	4	5	2	1
7020027	7	1	1	3	1	.	0	.	.	1	2	3	6	5	2	1
7020028	7	1	1	4	.	.	0	.	.	.	1	4	5	4	3	1
7020029	7	1	1	4	1	.	0	0	.	1	2	2	6	5	4	1
7020030	7	1	1	4	1	.	0	0	.	1	2	3	6	4	2	1
7020033	7	1	1	3	2	.	0	.	.	0	2	3	4	4	3	1
7020034	7	1	1	.	.	.	.	.	.	.	.	.	.	.	.	.
7020080	7	1	1	4	1	.	1	0	.	.	2	3	6	5	3	1
7020081	7	1	1	3	2	.	1	1	.	4	3	2	5	3	1	1
7020086	7	1	1	4	2	.	0	.	.	.	2	3	4	5	3	1
7020087	7	0	1	3	1	.	1	0	28	.	3	2	5	4	1	1
7020088	7	0	1	4	1	.	0	.	24	4	4	3	5	5	2	1
7020090	7	0	1	3	1	.	0	0	28	0	3	3	5	3	3	1
7020091	7	0	1	4	2	.	0	0	.	.	1	4	6	5	3	1
7020095	7	0	1	4	1	.	0	0	27	.	2	3	3	5	3	1
7020096	7	0	1	4	1	.	0	.	27	0	2	3	3	5	3	1
7020097	7	0	1	3	1	.	0	0	32	.	2	2	6	4	2	1
7020099	7	0	1	4	1	.	0	.	28	4	3	1	2	5	2	1
7020101	7	0	1	3	1	.	0	.	.	.	1	4	6	4	2	1
7020102	7	0	1	4	1	.	0	0	26	3	2	2	4	4	1	1
7020103	7	0	1	4	1	.	0	.	.	4	2	3	4	5	3	1
7020104	7	0	1	4	1	.	0	0	.	0	2	3	5	5	2	1
7020106	7	0	1	4	1	.	0	0	.	3	2	2	4	4	2	1
7020107	7	0	1	4	1	.	0	0	.	3	2	2	4	4	2	1
