ID_number	center	age_group1	school	ma1boys_Q1	ma2boys_Q1
1031003	1	2	1	2	3
1031004	1	2	1	1	2
1031006	1	2	1	2	4
1031007	1	2	1	1	3
1031009	1	2	1	1	4
1031010	1	2	1	2	3
1031011	1	2	1	2	4
1031012	1	2	1	3	4
1031013	1	2	1	3	4
1031015	1	2	1	1	4
1031019	1	2	1	2	3
1031020	1	2	1	2	3
1031021	1	2	1	3	4
1031023	1	2	1	2	4
1031024	1	2	1	1	2
1031026	1	2	1	2	2
1031029	1	2	1	1	3
1031033	1	2	1	2	3
1031034	1	2	1	1	3
1031035	1	2	1	2	3
1012011	1	2	0	2	3
1012014	1	2	0	2	5
1012015	1	2	0	3	5
1012016	1	2	0	3	5
5020055	5	2	1	2	4
5020056	5	2	1	2	4
5020057	5	2	1	1	2
5020058	5	2	1	2	3
5020059	5	2	1	2	4
5020060	5	2	1	3	4
5020061	5	2	1	3	5
5020062	5	2	1	2	4
5020063	5	2	1	3	4
5020064	5	2	1	3	5
5020065	5	2	1	1	3
5020066	5	2	1	2	4
5020067	5	2	1	3	4
5020068	5	2	1	2	3
5020077	5	2	1	2	4
5020078	5	2	1	2	4
5020079	5	2	1	3	3
5020090	5	2	1	3	4
5020091	5	2	1	2	3
5020092	5	2	1	1	2
5020093	5	2	1	2	4
1012019	1	2	0	3	4
1012020	1	2	0	2	5
1012022	1	2	0	2	5
1012025	1	2	0	2	2
1012026	1	2	0	1	3
1012028	1	2	0	3	5
1012029	1	2	0	3	5
1012030	1	2	0	3	3
1012031	1	2	0	2	4
1012032	1	2	0	2	5
1012033	1	2	0	2	3
1012035	1	2	0	2	4
1012036	1	2	0	2	2
1012037	1	2	0	1	3
1012039	1	2	0	3	4
1012040	1	2	0	2	4
1012043	1	2	0	2	4
1012044	1	2	0	2	3
4020353	4	2	1	3	4
5020027	5	1	1	.	.
4010049	4	2	0	3	5
4010051	4	2	0	1	5
4010054	4	2	0	2	4
4010056	4	2	0	3	5
4010058	4	2	0	2	4
4010057	4	2	0	.	.
4010062	4	2	0	.	3
4010065	4	2	0	1	1
4010068	4	2	0	2	5
4010071	4	2	0	3	5
4010074	4	2	0	3	4
7020043	7	2	2	2	4
7020044	7	2	2	2	3
7020045	7	2	2	3	4
7020049	7	2	2	2	5
4020354	4	2	1	3	4
7020050	7	2	2	2	4
7020055	7	2	2	2	3
7020057	7	2	2	3	4
7020059	7	2	2	1	.
7020060	7	2	2	2	4
4020338	4	2	1	2	5
4020341	4	2	1	2	4
7020035	7	2	2	2	3
7020036	7	2	2	3	4
5010074	5	2	0	2	4
5010075	5	2	0	2	3
5010076	5	2	0	1	4
5010077	5	2	0	2	4
5010078	5	2	0	3	4
5010079	5	2	0	3	4
5010080	5	2	0	3	4
7020037	7	2	2	3	5
7020038	7	2	2	2	5
7020040	7	2	2	3	4
4020332	4	2	1	3	5
4020334	4	2	1	3	5
4010094	4	2	0	3	5
4010079	4	2	0	2	5
4010090	4	2	0	1	4
4010091	4	2	0	2	3
4010053	4	2	0	2	3
4010061	4	2	0	2	5
4010077	4	2	0	.	.
4010089	4	2	0	3	4
7020063	7	2	2	1	3
7020064	7	2	2	2	3
7020066	7	2	2	3	4
7020067	7	2	2	2	3
7020068	7	2	2	2	4
7020072	7	2	2	3	5
7020073	7	2	2	2	4
7020076	7	2	2	2	5