- [AlunoID: 5010001][Questionário: Frequência de Consumo de Alimentos]

P42_O1: [0] x [5]
P43_O1: [0] x [1]

- [AlunoID: 5010002][Questionário: Frequência de Consumo de Alimentos]

P24_O1: [4] x [2]
P44_O1: [0] x [1]
P80_O1: [2] x [1]

- [AlunoID: 5010003][Questionário: Frequência de Consumo de Alimentos]

P16_O1: [0] x [4]
P17_O1: [0] x [4]
P18_O1: [0] x [4]
P42_O1: [0] x [4]
P43_O1: [0] x [1]
P44_O1: [0] x [4]
P45_O1: [0] x [2]
P139_O1: [0] x [1]
P141_O1: [3] x [2]

- [AlunoID: 5010004][Questionário: Frequência de Consumo de Alimentos]

P42_O1: [0] x [1]
P44_O1: [0] x [2]
P45_O1: [0] x [2]
P60_O1: [2] x [1]
P72_O1: [2] x [1]

- [AlunoID: 5010005][Questionário: Frequência de Consumo de Alimentos]

P42_O1: [0] x [3]
P43_O1: [0] x [1]
P44_O1: [0] x [3]
P45_O1: [0] x [1]

- [AlunoID: 5010006][Questionário: Frequência de Consumo de Alimentos]

P16_O1: [0] x [4]
P17_O1: [0] x [4]
P18_O1: [0] x [4]
P42_O1: [0] x [4]
P43_O1: [0] x [2]
P44_O1: [0] x [1]
P102_O1: [3] x [0]

- [AlunoID: 5010008][Questionário: Frequência de Consumo de Alimentos]

P4_O1: [0] x [4]
P5_O1: [0] x [4]
P6_O1: [0] x [4]
P10_O1: [0] x [4]
P11_O1: [0] x [4]
P12_O1: [0] x [4]
P13_O1: [0] x [4]
P14_O1: [0] x [4]
P15_O1: [0] x [4]
P16_O1: [0] x [4]
P17_O1: [0] x [4]
P18_O1: [0] x [4]
P42_O1: [0] x [3]
P43_O1: [0] x [2]
P44_O1: [0] x [4]
P89_O1: [2] x [3]
P91_O1: [7] x [8]
P140_O1: [3] x [4]
P142_O1: [4] x [1]
P144_O1: [1] x [3]
P145_O1: [2] x [1]

- [AlunoID: 5010009][Questionário: Frequência de Consumo de Alimentos]

P16_O1: [0] x [4]
P17_O1: [0] x [4]
P18_O1: [0] x [4]
P19_O1: [7] x [8]
P42_O1: [0] x [3]
P43_O1: [0] x [2]
P44_O1: [0] x [1]
P45_O1: [0] x [2]
P84_O1: [3] x [0]
P93_O1: [7] x [8]
P104_O1: [2] x [3]
P115_O1: [9] x [8]

- [AlunoID: 5010010][Questionário: Frequência de Consumo de Alimentos]

P10_O1: [0] x [4]
P11_O1: [0] x [4]
P12_O1: [0] x [4]
P16_O1: [0] x [4]
P17_O1: [0] x [4]
P18_O1: [0] x [4]
P42_O1: [0] x [2]
P43_O1: [0] x [1]
P44_O1: [0] x [2]
P45_O1: [0] x [2]
P111_O1: [3] x [0]
P112_O1: [3] x [0]
P139_O1: [0] x [2]

- [AlunoID: 5010011][Questionário: Frequência de Consumo de Alimentos]

P5_O1: [1] x [2]
P42_O1: [0] x [1]
P43_O1: [0] x [2]
P44_O1: [0] x [3]
P45_O1: [0] x [2]
P120_O1: [3] x [4]

- [AlunoID: 5010012][Questionário: Frequência de Consumo de Alimentos]

P42_O1: [0] x [2]
P43_O1: [0] x [1]
P44_O1: [0] x [3]
P45_O1: [0] x [1]
P52_O1: [5] x [2]
P97_O1: [3] x [2]
P136_O1: [3] x [1]
P137_O1: [1] x [3]
P150_O1: [6] x [2]

- [AlunoID: 5010013][Questionário: Frequência de Consumo de Alimentos]

P2_O1: [0] x [2]
P3_O1: [2] x [0]
P4_O1: [0] x [4]
P5_O1: [0] x [4]
P6_O1: [0] x [4]
P42_O1: [0] x [7]
P43_O1: [0] x [3]
P44_O1: [0] x [2]
P45_O1: [0] x [2]
P67_O1: [2] x [0]
P68_O1: [1] x [6]
P70_O1: [6] x [7]
P71_O1: [0] x [2]
P93_O1: [3] x [2]
P97_O1: [2] x [3]

- [AlunoID: 5010014][Questionário: Frequência de Consumo de Alimentos]

P42_O1: [0] x [4]
P43_O1: [0] x [3]
P60_O1: [0] x [3]
P61_O1: [0] x [3]
P62_O1: [3] x [0]
P63_O1: [3] x [0]

- [AlunoID: 5010015][Questionário: Frequência de Consumo de Alimentos]

P29_O1: [6] x [5]
P42_O1: [0] x [2]
P43_O1: [0] x [2]
P44_O1: [0] x [2]
P45_O1: [0] x [2]
P67_O1: [3] x [0]
P119_O1: [2] x [0]

- [AlunoID: 5010016][Questionário: Frequência de Consumo de Alimentos]

P42_O1: [0] x [6]
P43_O1: [0] x [4]
P44_O1: [0] x [6]
P45_O1: [0] x [3]
P139_O1: [1] x [2]
P143_O1: [2] x [1]
P151_O1: [3] x [1]

- [AlunoID: 5010017][Questionário: Frequência de Consumo de Alimentos]

P42_O1: [0] x [4]
P43_O1: [0] x [2]
P44_O1: [0] x [4]
P45_O1: [0] x [2]

- [AlunoID: 5010018][Questionário: Frequência de Consumo de Alimentos]

P16_O1: [0] x [4]
P17_O1: [0] x [4]
P18_O1: [0] x [4]
P22_O1: [4] x [1]
P23_O1: [7] x [6]
P41_O1: [1] x [2]
P42_O1: [0] x [2]
P43_O1: [0] x [3]
P44_O1: [0] x [3]
P45_O1: [0] x [3]

- [AlunoID: 5010019][Questionário: Frequência de Consumo de Alimentos]

P16_O1: [2] x [4]
P17_O1: [0] x [4]
P18_O1: [0] x [4]
P42_O1: [0] x [3]
P43_O1: [0] x [2]
P44_O1: [0] x [3]
P45_O1: [0] x [2]
P114_O1: [3] x [1]

- [AlunoID: 5010020][Questionário: Frequência de Consumo de Alimentos]

P4_O1: [0] x [4]
P5_O1: [0] x [4]
P6_O1: [0] x [4]
P42_O1: [0] x [2]
P43_O1: [0] x [3]
P44_O1: [0] x [1]
P45_O1: [0] x [2]
P46_O1: [2] x [1]
P144_O1: [2] x [1]
P145_O1: [1] x [2]

- [AlunoID: 5010021][Questionário: Frequência de Consumo de Alimentos]

P4_O1: [0] x [4]
P5_O1: [0] x [4]
P6_O1: [0] x [4]
P10_O1: [0] x [4]
P11_O1: [0] x [4]
P12_O1: [0] x [4]
P16_O1: [0] x [4]
P17_O1: [0] x [4]
P18_O1: [0] x [4]
P42_O1: [0] x [6]
P43_O1: [0] x [2]
P44_O1: [0] x [2]
P45_O1: [0] x [2]
P99_O1: [7] x [8]
P102_O1: [1] x [2]
P115_O1: [1] x [4]

- [AlunoID: 5010022][Questionário: Frequência de Consumo de Alimentos]

P10_O1: [0] x [4]
P11_O1: [0] x [4]
P12_O1: [0] x [4]
P16_O1: [0] x [4]
P17_O1: [0] x [4]
P18_O1: [0] x [4]
P42_O1: [0] x [3]
P43_O1: [0] x [2]
P44_O1: [0] x [3]
P45_O1: [0] x [2]
P103_O1: [3] x [1]

- [AlunoID: 5010023][Questionário: Frequência de Consumo de Alimentos]

P10_O1: [0] x [4]
P11_O1: [0] x [4]
P12_O1: [0] x [4]
P14_O1: [0] x [2]
P15_O1: [0] x [2]
P16_O1: [0] x [4]
P17_O1: [0] x [4]
P18_O1: [0] x [4]
P42_O1: [0] x [4]
P43_O1: [0] x [2]
P58_O1: [0] x [3]
P59_O1: [0] x [1]
P74_O1: [0] x [2]
P115_O1: [7] x [6]

- [AlunoID: 5010024][Questionário: Frequência de Consumo de Alimentos]

P1_O1: [0] x [4]
P2_O1: [0] x [4]
P3_O1: [0] x [4]
P10_O1: [0] x [4]
P11_O1: [0] x [4]
P12_O1: [0] x [4]
P16_O1: [0] x [4]
P17_O1: [0] x [4]
P18_O1: [0] x [4]
P42_O1: [0] x [2]
P43_O1: [0] x [2]
P44_O1: [0] x [3]
P45_O1: [0] x [3]
P133_O1: [3] x [0]
P135_O1: [2] x [0]
P146_O1: [0] x [2]
P147_O1: [0] x [2]
P149_O1: [0] x [2]

- [AlunoID: 5010025][Questionário: Frequência de Consumo de Alimentos]

P4_O1: [0] x [4]
P5_O1: [0] x [4]
P6_O1: [0] x [4]
P42_O1: [0] x [6]
P43_O1: [0] x [3]
P44_O1: [0] x [4]
P45_O1: [0] x [2]
P146_O1: [4] x [3]

- [AlunoID: 5010026][Questionário: Frequência de Consumo de Alimentos]

P10_O1: [0] x [4]
P11_O1: [0] x [4]
P12_O1: [0] x [4]
P16_O1: [0] x [4]
P17_O1: [0] x [4]
P18_O1: [0] x [4]
P42_O1: [0] x [3]
P43_O1: [0] x [3]
P44_O1: [0] x [1]
P52_O1: [1] x [2]

- [AlunoID: 5010028][Questionário: Frequência de Consumo de Alimentos]

P16_O1: [0] x [4]
P17_O1: [0] x [4]
P18_O1: [0] x [4]
P34_O1: [0] x [2]
P42_O1: [0] x [2]
P43_O1: [0] x [1]
P44_O1: [0] x [2]
P45_O1: [0] x [1]
P88_O1: [1] x [2]
P101_O1: [2] x [1]
P102_O1: [1] x [2]

- [AlunoID: 5010030][Questionário: Frequência de Consumo de Alimentos]

P4_O1: [0] x [4]
P5_O1: [0] x [4]
P6_O1: [1] x [4]
P16_O1: [0] x [4]
P17_O1: [0] x [4]
P18_O1: [0] x [4]
P110_O1: [4] x [5]

- [AlunoID: 5010031][Questionário: Frequência de Consumo de Alimentos]

P42_O1: [0] x [3]
P43_O1: [0] x [2]

- [AlunoID: 5010032][Questionário: Frequência de Consumo de Alimentos]

P7_O1: [0] x [1]
P31_O1: [5] x [6]
P42_O1: [0] x [3]
P43_O1: [0] x [3]
P44_O1: [0] x [1]
P45_O1: [0] x [2]

- [AlunoID: 5010033][Questionário: Frequência de Consumo de Alimentos]

P16_O1: [0] x [4]
P17_O1: [0] x [4]
P18_O1: [0] x [4]
P25_O1: [0] x [1]
P43_O1: [0] x [2]
P45_O1: [0] x [3]
P109_O1: [0] x [3]
P110_O1: [3] x [0]
P114_O1: [2] x [3]
P148_O1: [1] x [0]

- [AlunoID: 5010034][Questionário: Frequência de Consumo de Alimentos]

P16_O1: [0] x [4]
P17_O1: [0] x [4]
P18_O1: [0] x [4]
P32_O1: [1] x [2]
P34_O1: [1] x [2]
P42_O1: [0] x [3]
P43_O1: [0] x [2]
P44_O1: [0] x [2]
P45_O1: [0] x [2]
P61_O1: [0] x [5]
P113_O1: [2] x [9]
P114_O1: [3] x [4]
P117_O1: [1] x [2]
P120_O1: [2] x [1]

- [AlunoID: 5010035][Questionário: Frequência de Consumo de Alimentos]


- [AlunoID: 5010036][Questionário: Frequência de Consumo de Alimentos]

P42_O1: [0] x [1]
P44_O1: [0] x [1]
P64_O1: [0] x [2]
P91_O1: [0] x [8]
P118_O1: [0] x [1]
P120_O1: [0] x [2]
P123_O1: [0] x [2]
P145_O1: [0] x [2]
P148_O1: [0] x [8]

- [AlunoID: 5010037][Questionário: Frequência de Consumo de Alimentos]

P10_O1: [0] x [4]
P11_O1: [0] x [4]
P12_O1: [0] x [4]
P16_O1: [0] x [4]
P17_O1: [0] x [4]
P18_O1: [0] x [4]
P42_O1: [0] x [2]
P43_O1: [0] x [2]
P44_O1: [0] x [2]
P45_O1: [0] x [1]
P53_O1: [2] x [1]
P145_O1: [2] x [1]

- [AlunoID: 5010038][Questionário: Frequência de Consumo de Alimentos]

P32_O1: [1] x [2]
P40_O1: [1] x [2]
P41_O1: [1] x [2]
P42_O1: [0] x [3]
P43_O1: [0] x [2]
P44_O1: [0] x [3]
P45_O1: [0] x [2]
P144_O1: [2] x [3]
P145_O1: [3] x [2]

- [AlunoID: 5010039][Questionário: Frequência de Consumo de Alimentos]


- [AlunoID: 5010040][Questionário: Frequência de Consumo de Alimentos]

P16_O1: [0] x [1]
P42_O1: [0] x [5]
P43_O1: [0] x [3]
P44_O1: [0] x [1]
P98_O2: [1] x [2]

- [AlunoID: 5010042][Questionário: Frequência de Consumo de Alimentos]

P4_O1: [0] x [4]
P5_O1: [0] x [4]
P6_O1: [0] x [4]
P10_O1: [0] x [4]
P11_O1: [0] x [4]
P12_O1: [0] x [4]
P16_O1: [0] x [4]
P17_O1: [0] x [4]
P18_O1: [0] x [4]
P42_O1: [0] x [2]
P43_O1: [0] x [2]
P44_O1: [0] x [1]
P90_O1: [3] x [0]
P137_O1: [1] x [2]

- [AlunoID: 5010045][Questionário: Frequência de Consumo de Alimentos]


- [AlunoID: 5010046][Questionário: Frequência de Consumo de Alimentos]

P16_O1: [0] x [4]
P17_O1: [0] x [4]
P18_O1: [0] x [4]
P42_O1: [0] x [1]
P44_O1: [0] x [1]

- [AlunoID: 5010047][Questionário: Frequência de Consumo de Alimentos]

P5_O1: [0] x [2]
P16_O1: [0] x [4]
P17_O1: [0] x [4]
P18_O1: [0] x [4]
P42_O1: [0] x [2]
P43_O1: [0] x [2]
P44_O1: [0] x [3]
P45_O1: [0] x [2]

- [AlunoID: 5010048][Questionário: Frequência de Consumo de Alimentos]


- [AlunoID: 5010049][Questionário: Frequência de Consumo de Alimentos]


- [AlunoID: 5010050][Questionário: Frequência de Consumo de Alimentos]

P4_O1: [2] x [3]
P5_O1: [3] x [0]
P11_O1: [0] x [3]
P12_O1: [1] x [0]
P17_O1: [0] x [3]
P18_O1: [1] x [0]
P42_O1: [0] x [3]
P44_O1: [0] x [9]

- [AlunoID: 5010051][Questionário: Frequência de Consumo de Alimentos]

P16_O1: [0] x [4]
P17_O1: [0] x [4]
P18_O1: [0] x [4]
P42_O1: [0] x [2]
P43_O1: [0] x [1]
P44_O1: [0] x [2]
P45_O1: [0] x [2]

- [AlunoID: 5010052][Questionário: Frequência de Consumo de Alimentos]

P4_O1: [0] x [4]
P5_O1: [0] x [4]
P6_O1: [0] x [4]
P10_O1: [0] x [4]
P11_O1: [0] x [4]
P12_O1: [0] x [4]
P16_O1: [0] x [4]
P17_O1: [0] x [4]
P18_O1: [0] x [4]

- [AlunoID: 5010053][Questionário: Frequência de Consumo de Alimentos]

P16_O1: [0] x [4]
P17_O1: [0] x [4]
P18_O1: [0] x [4]
P42_O1: [0] x [4]
P43_O1: [0] x [2]
P44_O1: [0] x [2]
P45_O1: [0] x [2]
P63_O1: [4] x [3]

- [AlunoID: 5010054][Questionário: Frequência de Consumo de Alimentos]

P42_O1: [0] x [4]
P43_O1: [0] x [1]
P44_O1: [0] x [4]
P45_O1: [0] x [1]
P128_O1: [2] x [1]

- [AlunoID: 5010055][Questionário: Frequência de Consumo de Alimentos]

P4_O1: [0] x [4]
P5_O1: [0] x [4]
P6_O1: [0] x [4]
P10_O1: [0] x [4]
P11_O1: [0] x [4]
P12_O1: [0] x [4]
P22_O1: [3] x [0]
P42_O1: [0] x [2]
P44_O1: [0] x [1]
P154_O1: [1] x [6]

- [AlunoID: 5010056][Questionário: Frequência de Consumo de Alimentos]

P4_O1: [0] x [4]
P5_O1: [0] x [4]
P6_O1: [0] x [4]
P42_O1: [0] x [3]
P43_O1: [0] x [2]
P44_O1: [0] x [2]
P45_O1: [0] x [2]

- [AlunoID: 5010057][Questionário: Frequência de Consumo de Alimentos]

P10_O1: [0] x [4]
P11_O1: [0] x [4]
P12_O1: [0] x [4]
P16_O1: [0] x [4]
P17_O1: [0] x [4]
P18_O1: [0] x [4]
P42_O1: [0] x [4]
P43_O1: [0] x [2]
P44_O1: [0] x [1]
P45_O1: [0] x [3]
P128_O1: [1] x [2]
P146_O1: [7] x [8]

- [AlunoID: 5010058][Questionário: Frequência de Consumo de Alimentos]


- [AlunoID: 5010059][Questionário: Frequência de Consumo de Alimentos]

P10_O1: [0] x [4]
P11_O1: [0] x [4]
P12_O1: [0] x [4]
P16_O1: [0] x [4]
P17_O1: [0] x [4]
P18_O1: [0] x [4]
P42_O1: [0] x [2]
P43_O1: [0] x [2]
P44_O1: [0] x [3]
P45_O1: [0] x [2]

- [AlunoID: 5010060][Questionário: Frequência de Consumo de Alimentos]

P42_O1: [0] x [3]
P43_O1: [0] x [2]
P44_O1: [0] x [3]
P45_O1: [0] x [1]
P63_O1: [0] x [1]
P146_O1: [3] x [6]

- [AlunoID: 5010061][Questionário: Frequência de Consumo de Alimentos]

P42_O1: [0] x [3]
P43_O1: [0] x [1]
P44_O1: [0] x [3]
P45_O1: [0] x [2]

- [AlunoID: 5010062][Questionário: Frequência de Consumo de Alimentos]


- [AlunoID: 5010064][Questionário: Frequência de Consumo de Alimentos]

P42_O1: [0] x [3]
P43_O1: [0] x [1]
P44_O1: [0] x [3]
P45_O1: [0] x [1]
P84_O1: [2] x [1]
P90_O1: [2] x [1]
P142_O1: [1] x [3]

- [AlunoID: 5010065][Questionário: Frequência de Consumo de Alimentos]

P10_O1: [0] x [4]
P11_O1: [0] x [4]
P12_O1: [0] x [4]
P13_O1: [0] x [4]
P14_O1: [0] x [4]
P15_O1: [0] x [4]
P16_O1: [0] x [4]
P17_O1: [0] x [4]
P18_O1: [0] x [4]

- [AlunoID: 5010066][Questionário: Frequência de Consumo de Alimentos]

P60_O1: [0] x [3]
P61_O1: [0] x [3]
P62_O1: [0] x [3]
P63_O1: [0] x [3]

- [AlunoID: 5010068][Questionário: Frequência de Consumo de Alimentos]


- [AlunoID: 5010070][Questionário: Frequência de Consumo de Alimentos]

P16_O1: [0] x [4]
P17_O1: [0] x [4]
P18_O1: [0] x [4]

- [AlunoID: 5010071][Questionário: Frequência de Consumo de Alimentos]

P11_O1: [0] x [1]
P12_O1: [0] x [1]
P42_O1: [0] x [2]
P45_O1: [0] x [1]
P72_O1: [3] x [1]
P154_O1: [7] x [8]

- [AlunoID: 5010072][Questionário: Frequência de Consumo de Alimentos]

P16_O1: [0] x [4]
P17_O1: [0] x [4]
P18_O1: [0] x [4]
P42_O1: [0] x [2]
P43_O1: [0] x [2]
P44_O1: [0] x [1]
P71_O1: [1] x [2]
P89_O1: [3] x [4]

- [AlunoID: 5010073][Questionário: Frequência de Consumo de Alimentos]

P16_O1: [0] x [4]
P17_O1: [0] x [4]
P18_O1: [0] x [4]
P42_O1: [0] x [2]
P43_O1: [0] x [2]
P44_O1: [0] x [1]
P52_O1: [1] x [3]

- [AlunoID: 5010074][Questionário: Frequência de Consumo de Alimentos]

P42_O1: [0] x [5]
P43_O1: [0] x [2]
P44_O1: [0] x [3]
P45_O1: [0] x [2]
P103_O1: [4] x [3]

- [AlunoID: 5010075][Questionário: Frequência de Consumo de Alimentos]

P4_O1: [0] x [4]
P5_O1: [0] x [4]
P6_O1: [0] x [4]
P16_O1: [0] x [4]
P17_O1: [0] x [4]
P18_O1: [0] x [4]
P42_O1: [0] x [1]
P43_O1: [0] x [2]
P44_O1: [0] x [2]
P45_O1: [0] x [2]
P143_O1: [2] x [1]

- [AlunoID: 5010076][Questionário: Frequência de Consumo de Alimentos]

P10_O1: [0] x [4]
P11_O1: [0] x [4]
P12_O1: [0] x [4]
P16_O1: [0] x [4]
P17_O1: [0] x [4]
P18_O1: [0] x [4]
P42_O1: [0] x [2]
P43_O1: [0] x [1]
P44_O1: [0] x [2]
P45_O1: [0] x [1]
P60_O1: [1] x [2]
P61_O1: [4] x [1]
P62_O1: [1] x [4]
P63_O1: [3] x [1]
P103_O1: [4] x [5]

- [AlunoID: 5010077][Questionário: Frequência de Consumo de Alimentos]

P10_O1: [0] x [4]
P11_O1: [0] x [4]
P12_O1: [0] x [4]
P16_O1: [0] x [4]
P17_O1: [0] x [4]
P18_O1: [0] x [4]
P28_O1: [1] x [0]
P42_O1: [0] x [4]
P44_O1: [0] x [2]
P47_O1: [3] x [0]

- [AlunoID: 5010078][Questionário: Frequência de Consumo de Alimentos]

P4_O1: [0] x [4]
P5_O1: [0] x [4]
P6_O1: [0] x [4]
P10_O1: [0] x [4]
P11_O1: [0] x [4]
P12_O1: [0] x [4]
P42_O1: [0] x [4]
P43_O1: [0] x [2]
P44_O1: [0] x [5]
P45_O1: [0] x [2]
P84_O1: [3] x [2]
P85_O1: [2] x [1]
P86_O1: [2] x [3]
P87_O1: [1] x [2]
P90_O1: [3] x [2]
P91_O1: [2] x [1]

- [AlunoID: 5010079][Questionário: Frequência de Consumo de Alimentos]

P42_O1: [0] x [3]
P43_O1: [0] x [2]
P44_O1: [0] x [1]
P45_O1: [0] x [1]
P65_O1: [5] x [4]

- [AlunoID: 5010080][Questionário: Frequência de Consumo de Alimentos]

P4_O1: [0] x [4]
P5_O1: [0] x [4]
P6_O1: [0] x [4]
P10_O1: [0] x [4]
P11_O1: [0] x [4]
P12_O1: [0] x [4]
P16_O1: [0] x [4]
P17_O1: [0] x [4]
P18_O1: [0] x [4]
P42_O1: [0] x [5]
P43_O1: [0] x [3]
P44_O1: [0] x [3]
P45_O1: [0] x [2]

- [AlunoID: 5010081][Questionário: Frequência de Consumo de Alimentos]

P2_O1: [2] x [1]
P129_O1: [3] x [4]

- [AlunoID: 5010082][Questionário: Frequência de Consumo de Alimentos]

P44_O1: [0] x [3]
P45_O1: [0] x [2]

- [AlunoID: 5010083][Questionário: Frequência de Consumo de Alimentos]

P16_O1: [0] x [4]
P17_O1: [0] x [4]
P18_O1: [0] x [4]

- [AlunoID: 5010085][Questionário: Frequência de Consumo de Alimentos]

P42_O1: [0] x [3]
P43_O1: [0] x [1]
P44_O1: [0] x [2]
P45_O1: [0] x [2]
P97_O1: [3] x [2]
P140_O1: [1] x [2]
P141_O1: [0] x [2]
P145_O1: [2] x [1]
P146_O1: [2] x [3]
P148_O1: [3] x [1]
P149_O1: [1] x [0]

- [AlunoID: 5010086][Questionário: Frequência de Consumo de Alimentos]

P31_O1: [1] x [2]
P42_O1: [0] x [2]
P43_O1: [0] x [2]
P44_O1: [0] x [5]
P45_O1: [0] x [1]

- [AlunoID: 5010087][Questionário: Frequência de Consumo de Alimentos]

P4_O1: [0] x [3]
P42_O1: [0] x [4]
P43_O1: [0] x [2]
P44_O1: [0] x [2]
P45_O1: [0] x [1]
P78_O1: [1] x [2]
P112_O1: [3] x [2]
P114_O1: [2] x [3]
P145_O1: [3] x [2]

- [AlunoID: 5010088][Questionário: Frequência de Consumo de Alimentos]

P4_O1: [0] x [4]
P5_O1: [0] x [4]
P6_O1: [0] x [4]
P16_O1: [0] x [4]
P17_O1: [0] x [4]
P18_O1: [0] x [4]
P42_O1: [0] x [2]
P43_O1: [0] x [2]
P44_O1: [0] x [4]
P45_O1: [0] x [2]
P107_O1: [1] x [2]

- [AlunoID: 5010089][Questionário: Frequência de Consumo de Alimentos]

P42_O1: [0] x [2]
P43_O1: [0] x [2]
P44_O1: [0] x [3]
P45_O1: [0] x [2]
P125_O1: [1] x [2]
P126_O1: [1] x [2]

- [AlunoID: 5010090][Questionário: Frequência de Consumo de Alimentos]

P3_O1: [0] x [4]
P4_O1: [0] x [4]
P5_O1: [0] x [4]
P6_O1: [0] x [4]
P42_O1: [0] x [2]
P43_O1: [0] x [2]
P44_O1: [0] x [3]
P45_O1: [0] x [2]

- [AlunoID: 5010091][Questionário: Frequência de Consumo de Alimentos]

P32_O1: [3] x [0]
P34_O1: [3] x [0]
P42_O1: [0] x [2]
P43_O1: [0] x [1]
P44_O1: [0] x [2]
P45_O1: [0] x [2]
P58_O1: [1] x [2]
P90_O1: [3] x [0]
P99_O1: [2] x [3]
P138_O1: [1] x [2]

- [AlunoID: 5010092][Questionário: Frequência de Consumo de Alimentos]


- [AlunoID: 5010093][Questionário: Frequência de Consumo de Alimentos]

P16_O1: [0] x [4]
P17_O1: [0] x [4]
P18_O1: [0] x [4]
P42_O1: [0] x [1]
P43_O1: [0] x [1]
P44_O1: [0] x [1]
P45_O1: [0] x [1]
P108_O1: [1] x [2]
P124_O1: [1] x [2]

- [AlunoID: 5010094][Questionário: Frequência de Consumo de Alimentos]

P42_O1: [0] x [7]
P43_O1: [0] x [1]
P44_O1: [0] x [7]
P45_O1: [0] x [1]
P154_O1: [1] x [3]
P155_O1: [0] x [1]

- [AlunoID: 5010096][Questionário: Frequência de Consumo de Alimentos]

P16_O1: [0] x [4]
P17_O1: [0] x [4]
P18_O1: [0] x [4]
P27_O1: [2] x [1]
P42_O1: [0] x [2]
P43_O1: [0] x [2]
P44_O1: [0] x [2]
P45_O1: [0] x [1]

- [AlunoID: 5010097][Questionário: Frequência de Consumo de Alimentos]

P25_O1: [1] x [0]
P42_O1: [0] x [2]
P43_O1: [0] x [1]
P44_O1: [0] x [2]
P45_O1: [0] x [2]

- [AlunoID: 5010098][Questionário: Frequência de Consumo de Alimentos]

P10_O1: [0] x [4]
P11_O1: [0] x [4]
P12_O1: [0] x [4]
P13_O1: [0] x [4]
P14_O1: [0] x [4]
P15_O1: [0] x [4]
P16_O1: [0] x [4]
P17_O1: [0] x [4]
P18_O1: [0] x [4]
P42_O1: [0] x [1]
P44_O1: [0] x [2]
P45_O1: [0] x [1]
P130_O1: [3] x [2]
P145_O1: [0] x [1]

- [AlunoID: 5010099][Questionário: Frequência de Consumo de Alimentos]

P16_O1: [0] x [4]
P17_O1: [0] x [4]
P18_O1: [0] x [4]
P42_O1: [0] x [1]
P44_O1: [0] x [1]

- [AlunoID: 5010100][Questionário: Frequência de Consumo de Alimentos]

P42_O1: [0] x [6]
P43_O1: [0] x [1]
P44_O1: [0] x [4]
P45_O1: [0] x [3]
P91_O1: [5] x [4]
P132_O1: [2] x [6]
P133_O1: [1] x [2]

- [AlunoID: 5010101][Questionário: Frequência de Consumo de Alimentos]

P42_O1: [0] x [3]
P43_O1: [0] x [2]
P44_O1: [0] x [4]
P45_O1: [0] x [2]
P71_O1: [2] x [3]

- [AlunoID: 5010102][Questionário: Frequência de Consumo de Alimentos]

P7_O1: [3] x [1]
P8_O1: [2] x [0]
P27_O1: [4] x [3]
P38_O1: [2] x [1]
P39_O1: [1] x [2]
P42_O1: [0] x [1]
P44_O1: [0] x [2]
P45_O1: [0] x [1]
P121_O1: [5] x [2]

- [AlunoID: 5010103][Questionário: Frequência de Consumo de Alimentos]

P42_O1: [0] x [4]
P43_O1: [0] x [2]
P44_O1: [0] x [1]
P81_O1: [7] x [1]
P82_O1: [1] x [0]
P86_O1: [1] x [2]
P87_O1: [6] x [3]
P88_O1: [4] x [1]
P111_O1: [4] x [2]

- [AlunoID: 5010104][Questionário: Frequência de Consumo de Alimentos]

P16_O1: [0] x [4]
P17_O1: [0] x [4]
P18_O1: [0] x [4]
P35_O1: [5] x [6]
P44_O1: [0] x [4]
P45_O1: [0] x [2]
P112_O1: [3] x [2]

- [AlunoID: 5010105][Questionário: Frequência de Consumo de Alimentos]

P16_O1: [0] x [4]
P17_O1: [0] x [4]
P18_O1: [0] x [4]
P85_O1: [1] x [3]
P143_O1: [1] x [2]

- [AlunoID: 5010106][Questionário: Frequência de Consumo de Alimentos]

P16_O1: [0] x [4]
P17_O1: [0] x [4]
P18_O1: [0] x [4]
P42_O1: [0] x [4]
P43_O1: [0] x [2]
P44_O1: [0] x [2]
P45_O1: [0] x [2]
P83_O1: [3] x [1]
P88_O1: [1] x [3]
P103_O1: [1] x [3]
P128_O1: [2] x [1]

- [AlunoID: 5010107][Questionário: Frequência de Consumo de Alimentos]

P10_O1: [0] x [4]
P11_O1: [0] x [4]
P12_O1: [0] x [4]
P16_O1: [0] x [4]
P17_O1: [0] x [4]
P18_O1: [0] x [4]
P42_O1: [0] x [3]
P43_O1: [0] x [2]
P44_O1: [0] x [1]
P45_O1: [0] x [1]
P154_O1: [2] x [1]

- [AlunoID: 5020001][Questionário: Frequência de Consumo de Alimentos]

P42_O1: [0] x [1]
P44_O1: [0] x [1]
P79_O1: [1] x [2]
P104_O1: [2] x [0]
P106_O1: [2] x [0]

- [AlunoID: 5020002][Questionário: Frequência de Consumo de Alimentos]

P10_O1: [0] x [4]
P11_O1: [0] x [4]
P12_O1: [0] x [4]
P16_O1: [0] x [4]
P17_O1: [0] x [4]
P18_O1: [0] x [4]
P42_O1: [0] x [4]
P43_O1: [0] x [2]
P44_O1: [0] x [1]
P45_O1: [0] x [2]

- [AlunoID: 5020003][Questionário: Frequência de Consumo de Alimentos]

P16_O1: [0] x [4]
P17_O1: [0] x [4]
P18_O1: [0] x [4]
P42_O1: [0] x [4]
P43_O1: [0] x [3]
P44_O1: [0] x [3]
P45_O1: [0] x [3]

- [AlunoID: 5020004][Questionário: Frequência de Consumo de Alimentos]

P16_O1: [0] x [4]
P17_O1: [0] x [4]
P18_O1: [0] x [4]
P42_O1: [0] x [2]
P43_O1: [0] x [1]
P44_O1: [0] x [2]
P45_O1: [0] x [1]

- [AlunoID: 5020005][Questionário: Frequência de Consumo de Alimentos]

P8_O1: [2] x [1]
P16_O1: [0] x [4]
P17_O1: [0] x [4]
P18_O1: [0] x [4]
P20_O1: [1] x [3]
P42_O1: [0] x [1]
P44_O1: [0] x [2]
P45_O1: [0] x [4]
P110_O1: [1] x [3]

- [AlunoID: 5020006][Questionário: Frequência de Consumo de Alimentos]

P10_O1: [0] x [4]
P11_O1: [0] x [4]
P12_O1: [0] x [4]
P42_O1: [0] x [3]
P43_O1: [0] x [2]
P44_O1: [0] x [3]
P45_O1: [0] x [2]

- [AlunoID: 5020007][Questionário: Frequência de Consumo de Alimentos]

P13_O1: [0] x [4]
P14_O1: [0] x [4]
P15_O1: [0] x [4]
P16_O1: [0] x [4]
P17_O1: [0] x [4]
P18_O1: [0] x [4]
P42_O1: [0] x [2]
P43_O1: [0] x [2]
P44_O1: [0] x [2]
P45_O1: [0] x [2]

- [AlunoID: 5020008][Questionário: Frequência de Consumo de Alimentos]

P42_O1: [0] x [1]
P43_O1: [0] x [2]
P44_O1: [0] x [1]
P45_O1: [0] x [1]
P139_O1: [2] x [0]

- [AlunoID: 5020009][Questionário: Frequência de Consumo de Alimentos]

P42_O1: [0] x [4]
P43_O1: [0] x [2]
P44_O1: [0] x [2]
P45_O1: [0] x [2]
P144_O1: [1] x [2]

- [AlunoID: 5020010][Questionário: Frequência de Consumo de Alimentos]

P16_O1: [0] x [4]
P17_O1: [0] x [4]
P18_O1: [0] x [4]
P42_O1: [0] x [2]
P43_O1: [0] x [1]
P44_O1: [0] x [2]
P45_O1: [0] x [1]

- [AlunoID: 5020011][Questionário: Frequência de Consumo de Alimentos]

P42_O1: [0] x [1]
P43_O1: [0] x [1]
P44_O1: [0] x [3]
P45_O1: [0] x [2]

- [AlunoID: 5020012][Questionário: Frequência de Consumo de Alimentos]

P42_O1: [0] x [4]
P43_O1: [0] x [3]
P44_O1: [0] x [3]
P45_O1: [0] x [2]

- [AlunoID: 5020013][Questionário: Frequência de Consumo de Alimentos]

P15_O1: [3] x [0]
P16_O1: [0] x [4]
P17_O1: [0] x [4]
P18_O1: [0] x [4]
P42_O1: [0] x [3]
P43_O1: [0] x [1]
P44_O1: [0] x [3]
P45_O1: [0] x [1]
P101_O1: [2] x [1]

- [AlunoID: 5020014][Questionário: Frequência de Consumo de Alimentos]

P3_O1: [0] x [2]
P42_O1: [0] x [2]
P43_O1: [0] x [2]
P44_O1: [0] x [2]
P45_O1: [0] x [2]
P95_O1: [0] x [3]

- [AlunoID: 5020015][Questionário: Frequência de Consumo de Alimentos]

P42_O1: [0] x [3]
P43_O1: [0] x [2]
P44_O1: [0] x [2]
P45_O1: [0] x [2]
P105_O1: [3] x [2]

- [AlunoID: 5020016][Questionário: Frequência de Consumo de Alimentos]

P19_O1: [9] x [7]
P42_O1: [0] x [1]
P43_O1: [0] x [1]
P44_O1: [0] x [4]
P45_O1: [0] x [1]
P115_O1: [4] x [5]

- [AlunoID: 5020017][Questionário: Frequência de Consumo de Alimentos]

P10_O1: [0] x [4]
P11_O1: [0] x [4]
P12_O1: [0] x [4]
P16_O1: [0] x [4]
P17_O1: [0] x [4]
P18_O1: [0] x [4]
P34_O1: [2] x [0]
P42_O1: [0] x [1]
P44_O1: [0] x [1]
P93_O1: [1] x [4]

- [AlunoID: 5020018][Questionário: Frequência de Consumo de Alimentos]

P10_O1: [0] x [4]
P11_O1: [0] x [4]
P12_O1: [0] x [4]
P16_O1: [0] x [4]
P17_O1: [0] x [4]
P18_O1: [0] x [4]
P42_O1: [0] x [2]
P43_O1: [0] x [1]
P44_O1: [0] x [1]
P48_O1: [2] x [1]
P109_O1: [3] x [2]
P111_O1: [3] x [2]

- [AlunoID: 5020019][Questionário: Frequência de Consumo de Alimentos]

P36_O1: [2] x [4]
P42_O1: [0] x [1]
P43_O1: [0] x [2]
P44_O1: [0] x [3]
P45_O1: [0] x [2]
P51_O1: [1] x [2]
P87_O1: [3] x [2]

- [AlunoID: 5020020][Questionário: Frequência de Consumo de Alimentos]

P42_O1: [0] x [3]
P43_O1: [0] x [2]
P44_O1: [0] x [3]
P45_O1: [0] x [1]
P133_O1: [2] x [0]
P134_O1: [1] x [2]
P135_O1: [0] x [1]

- [AlunoID: 5020021][Questionário: Frequência de Consumo de Alimentos]

P16_O1: [0] x [4]
P17_O1: [0] x [4]
P18_O1: [0] x [4]
P42_O1: [0] x [2]
P43_O1: [0] x [1]
P44_O1: [0] x [2]
P45_O1: [0] x [1]
P60_O1: [3] x [1]
P79_O1: [2] x [1]
P80_O1: [1] x [0]
P81_O1: [1] x [2]
P82_O1: [0] x [1]
P85_O1: [2] x [1]
P86_O1: [1] x [0]
P87_O1: [3] x [2]

- [AlunoID: 5020022][Questionário: Frequência de Consumo de Alimentos]

P13_O1: [0] x [4]
P14_O1: [0] x [4]
P15_O1: [0] x [4]
P16_O1: [0] x [4]
P17_O1: [0] x [4]
P18_O1: [0] x [4]
P42_O1: [0] x [1]
P43_O1: [0] x [1]
P44_O1: [0] x [2]
P45_O1: [0] x [2]

- [AlunoID: 5020023][Questionário: Frequência de Consumo de Alimentos]

P13_O1: [0] x [4]
P14_O1: [0] x [4]
P15_O1: [0] x [4]
P16_O1: [0] x [4]
P17_O1: [0] x [4]
P18_O1: [0] x [4]
P42_O1: [1] x [2]

- [AlunoID: 5020024][Questionário: Frequência de Consumo de Alimentos]

P12_O1: [2] x [3]
P16_O1: [0] x [4]
P17_O1: [0] x [4]
P18_O1: [0] x [4]
P42_O1: [0] x [5]
P43_O1: [0] x [2]
P44_O1: [0] x [5]
P45_O1: [0] x [2]

- [AlunoID: 5020025][Questionário: Frequência de Consumo de Alimentos]

P5_O1: [1] x [2]
P16_O1: [0] x [4]
P17_O1: [0] x [4]
P18_O1: [0] x [4]
P42_O1: [0] x [2]
P43_O1: [0] x [2]
P44_O1: [0] x [2]
P45_O1: [0] x [1]
P56_O1: [1] x [0]
P58_O1: [1] x [0]

- [AlunoID: 5020026][Questionário: Frequência de Consumo de Alimentos]

P4_O1: [2] x [0]
P5_O1: [0] x [2]
P37_O1: [3] x [2]
P42_O1: [0] x [3]
P43_O1: [0] x [1]
P44_O1: [0] x [3]
P45_O1: [0] x [2]

- [AlunoID: 5020027][Questionário: Frequência de Consumo de Alimentos]

P1_O1: [4] x [1]
P10_O1: [3] x [2]
P16_O1: [0] x [4]
P17_O1: [0] x [4]
P18_O1: [0] x [4]
P35_O1: [3] x [2]
P42_O1: [0] x [3]
P43_O1: [0] x [3]
P44_O1: [0] x [2]
P45_O1: [0] x [1]
P72_O1: [3] x [2]

- [AlunoID: 5020028][Questionário: Frequência de Consumo de Alimentos]

P16_O1: [0] x [4]
P17_O1: [0] x [4]
P18_O1: [0] x [4]
P42_O1: [0] x [2]
P43_O1: [0] x [2]
P44_O1: [0] x [2]
P45_O1: [0] x [2]
P107_O1: [1] x [4]
P108_O1: [0] x [2]

- [AlunoID: 5020029][Questionário: Frequência de Consumo de Alimentos]

P42_O1: [0] x [2]
P43_O1: [0] x [2]
P44_O1: [0] x [4]
P45_O1: [0] x [2]

- [AlunoID: 5020030][Questionário: Frequência de Consumo de Alimentos]

P42_O1: [0] x [1]
P43_O1: [0] x [2]
P44_O1: [0] x [2]
P45_O1: [0] x [1]

- [AlunoID: 5020031][Questionário: Frequência de Consumo de Alimentos]

P42_O1: [0] x [2]
P43_O1: [0] x [2]
P44_O1: [0] x [1]

- [AlunoID: 5020032][Questionário: Frequência de Consumo de Alimentos]

P10_O1: [0] x [4]
P11_O1: [0] x [4]
P12_O1: [0] x [4]
P16_O1: [0] x [4]
P17_O1: [0] x [4]
P18_O1: [0] x [4]
P19_O1: [2] x [6]
P20_O1: [3] x [2]
P42_O1: [0] x [2]
P43_O1: [0] x [2]
P44_O1: [0] x [1]
P45_O1: [0] x [2]

- [AlunoID: 5020033][Questionário: Frequência de Consumo de Alimentos]

P13_O1: [0] x [1]
P16_O1: [0] x [4]
P17_O1: [0] x [4]
P18_O1: [0] x [4]
P42_O1: [0] x [2]
P43_O1: [0] x [2]
P44_O1: [0] x [2]
P45_O1: [0] x [2]

- [AlunoID: 5020034][Questionário: Frequência de Consumo de Alimentos]

P4_O1: [0] x [4]
P5_O1: [0] x [4]
P6_O1: [0] x [4]
P7_O1: [3] x [0]
P8_O1: [2] x [0]
P9_O1: [0] x [3]
P10_O1: [0] x [4]
P11_O1: [0] x [4]
P12_O1: [0] x [4]
P16_O1: [0] x [4]
P17_O1: [0] x [4]
P18_O1: [0] x [4]
P42_O1: [0] x [2]
P43_O1: [0] x [3]
P44_O1: [0] x [2]
P45_O1: [0] x [1]
P135_O1: [1] x [0]

- [AlunoID: 5020035][Questionário: Frequência de Consumo de Alimentos]

P42_O1: [0] x [2]
P43_O1: [0] x [2]
P44_O1: [0] x [4]
P45_O1: [0] x [1]

- [AlunoID: 5020036][Questionário: Frequência de Consumo de Alimentos]

P42_O1: [0] x [5]
P43_O1: [0] x [3]
P44_O1: [0] x [1]
P45_O1: [0] x [2]
P136_O1: [2] x [1]

- [AlunoID: 5020037][Questionário: Frequência de Consumo de Alimentos]

P10_O1: [0] x [4]
P11_O1: [0] x [4]
P12_O1: [0] x [4]
P16_O1: [0] x [4]
P17_O1: [0] x [4]
P18_O1: [0] x [4]
P42_O1: [0] x [2]
P43_O1: [0] x [2]
P44_O1: [0] x [2]
P45_O1: [0] x [1]
P95_O1: [3] x [2]

- [AlunoID: 5020038][Questionário: Frequência de Consumo de Alimentos]

P42_O1: [0] x [1]
P43_O1: [0] x [2]
P44_O1: [0] x [1]
P45_O1: [0] x [1]
P148_O1: [2] x [0]
P149_O1: [2] x [0]
P150_O1: [1] x [0]
P151_O1: [1] x [0]

- [AlunoID: 5020039][Questionário: Frequência de Consumo de Alimentos]

P16_O1: [0] x [4]
P17_O1: [0] x [4]
P18_O1: [0] x [4]
P42_O1: [0] x [2]
P43_O1: [0] x [3]
P44_O1: [0] x [1]
P48_O1: [3] x [2]

- [AlunoID: 5020040][Questionário: Frequência de Consumo de Alimentos]

P16_O1: [0] x [4]
P17_O1: [0] x [4]
P18_O1: [0] x [4]
P42_O1: [0] x [2]
P43_O1: [0] x [2]
P44_O1: [0] x [4]
P45_O1: [0] x [2]

- [AlunoID: 5020041][Questionário: Frequência de Consumo de Alimentos]

P42_O1: [0] x [2]
P43_O1: [0] x [2]
P44_O1: [0] x [4]
P45_O1: [0] x [2]

- [AlunoID: 5020042][Questionário: Frequência de Consumo de Alimentos]

P1_O1: [0] x [4]
P10_O1: [0] x [4]
P11_O1: [0] x [4]
P12_O1: [0] x [4]
P16_O1: [0] x [4]
P17_O1: [0] x [4]
P18_O1: [0] x [4]
P42_O1: [0] x [2]
P43_O1: [0] x [3]
P44_O1: [0] x [2]
P45_O1: [0] x [2]

- [AlunoID: 5020043][Questionário: Frequência de Consumo de Alimentos]

P1_O1: [0] x [4]
P2_O1: [0] x [4]
P3_O1: [0] x [4]
P10_O1: [0] x [4]
P11_O1: [0] x [4]
P12_O1: [0] x [4]
P16_O1: [0] x [4]
P17_O1: [0] x [4]
P18_O1: [0] x [4]
P42_O1: [0] x [3]
P43_O1: [0] x [1]
P44_O1: [0] x [1]
P45_O1: [0] x [1]
P97_O1: [2] x [1]

- [AlunoID: 5020044][Questionário: Frequência de Consumo de Alimentos]

P13_O1: [0] x [4]
P14_O1: [0] x [4]
P15_O1: [0] x [4]
P16_O1: [0] x [4]
P17_O1: [0] x [4]
P18_O1: [0] x [4]
P42_O1: [0] x [2]
P43_O1: [0] x [2]
P44_O1: [0] x [1]

- [AlunoID: 5020045][Questionário: Frequência de Consumo de Alimentos]

P10_O1: [0] x [1]
P13_O1: [0] x [4]
P14_O1: [0] x [4]
P15_O1: [0] x [4]
P16_O1: [0] x [4]
P17_O1: [0] x [4]
P18_O1: [0] x [4]
P42_O1: [0] x [2]
P43_O1: [0] x [2]
P44_O1: [0] x [2]
P45_O1: [0] x [2]

- [AlunoID: 5020046][Questionário: Frequência de Consumo de Alimentos]

P16_O1: [0] x [4]
P17_O1: [0] x [4]
P18_O1: [0] x [4]
P42_O1: [0] x [1]
P43_O1: [0] x [1]
P44_O1: [0] x [1]
P45_O1: [0] x [1]

- [AlunoID: 5020048][Questionário: Frequência de Consumo de Alimentos]

P10_O1: [0] x [4]
P11_O1: [0] x [4]
P12_O1: [0] x [4]
P13_O1: [0] x [4]
P14_O1: [0] x [4]
P15_O1: [0] x [4]
P16_O1: [0] x [4]
P17_O1: [0] x [4]
P18_O1: [0] x [4]
P42_O1: [0] x [1]
P44_O1: [0] x [1]
P81_O1: [3] x [2]
P118_O1: [4] x [1]

- [AlunoID: 5020049][Questionário: Frequência de Consumo de Alimentos]

P16_O1: [0] x [4]
P17_O1: [0] x [4]
P18_O1: [0] x [4]
P42_O1: [0] x [2]
P43_O1: [0] x [2]
P44_O1: [0] x [6]
P45_O1: [0] x [3]

- [AlunoID: 5020050][Questionário: Frequência de Consumo de Alimentos]

P4_O1: [0] x [4]
P5_O1: [0] x [4]
P6_O1: [0] x [4]
P16_O1: [0] x [4]
P17_O1: [0] x [4]
P18_O1: [0] x [4]
P42_O1: [0] x [2]
P43_O1: [0] x [1]
P44_O1: [0] x [2]
P45_O1: [0] x [3]
P69_O1: [1] x [0]

- [AlunoID: 5020051][Questionário: Frequência de Consumo de Alimentos]

P16_O1: [0] x [4]
P17_O1: [0] x [4]
P18_O1: [0] x [4]
P42_O1: [0] x [2]
P43_O1: [0] x [2]
P44_O1: [0] x [2]
P45_O1: [0] x [2]
P90_O1: [4] x [3]

- [AlunoID: 5020052][Questionário: Frequência de Consumo de Alimentos]

P42_O1: [0] x [2]
P43_O1: [0] x [2]
P44_O1: [0] x [1]
P45_O1: [0] x [1]

- [AlunoID: 5020053][Questionário: Frequência de Consumo de Alimentos]

P16_O1: [0] x [4]
P17_O1: [0] x [4]
P18_O1: [0] x [4]
P42_O1: [0] x [1]
P43_O1: [0] x [2]
P44_O1: [0] x [1]
P45_O1: [0] x [2]
P152_O1: [2] x [1]

- [AlunoID: 5020054][Questionário: Frequência de Consumo de Alimentos]

P42_O1: [0] x [2]
P43_O1: [0] x [2]
P44_O1: [0] x [1]
P45_O1: [0] x [2]

- [AlunoID: 5020055][Questionário: Frequência de Consumo de Alimentos]

P10_O1: [0] x [4]
P11_O1: [0] x [4]
P12_O1: [0] x [4]
P16_O1: [0] x [4]
P17_O1: [0] x [4]
P18_O1: [0] x [4]
P42_O1: [0] x [2]
P43_O1: [0] x [1]
P44_O1: [0] x [1]
P93_O1: [6] x [3]
P95_O1: [1] x [0]
P117_O1: [3] x [2]
P152_O1: [3] x [2]
P153_O1: [1] x [2]
P154_O1: [3] x [1]
P155_O1: [1] x [0]

- [AlunoID: 5020056][Questionário: Frequência de Consumo de Alimentos]

P2_O1: [2] x [0]
P4_O1: [0] x [4]
P5_O1: [0] x [4]
P6_O1: [0] x [4]
P8_O1: [2] x [0]
P9_O1: [3] x [0]
P10_O1: [0] x [4]
P11_O1: [0] x [4]
P12_O1: [0] x [4]
P16_O1: [0] x [4]
P17_O1: [0] x [4]
P18_O1: [0] x [4]
P19_O1: [5] x [8]
P20_O1: [3] x [2]
P24_O1: [2] x [3]
P26_O1: [5] x [4]
P31_O1: [4] x [2]
P34_O1: [2] x [0]
P37_O1: [4] x [3]
P39_O1: [1] x [2]
P41_O1: [2] x [3]
P42_O1: [0] x [4]
P43_O1: [0] x [2]
P44_O1: [0] x [2]
P45_O1: [0] x [2]
P46_O1: [2] x [0]
P47_O1: [2] x [0]
P48_O1: [3] x [0]
P49_O1: [2] x [0]
P50_O1: [4] x [0]
P51_O1: [2] x [0]
P52_O1: [2] x [0]
P53_O1: [2] x [0]
P54_O1: [3] x [0]
P55_O1: [2] x [0]
P56_O1: [2] x [0]
P57_O1: [2] x [0]
P58_O1: [1] x [0]
P60_O1: [1] x [0]
P62_O1: [1] x [0]
P64_O1: [3] x [0]
P65_O1: [2] x [0]
P66_O1: [4] x [0]
P67_O1: [3] x [0]
P68_O1: [1] x [0]
P70_O1: [1] x [0]
P72_O1: [4] x [0]
P73_O1: [2] x [0]
P74_O1: [1] x [0]
P75_O1: [5] x [0]
P76_O1: [2] x [0]
P77_O1: [2] x [0]
P78_O1: [2] x [0]
P79_O1: [4] x [0]
P80_O1: [2] x [0]
P81_O1: [3] x [0]
P82_O1: [2] x [0]
P83_O1: [2] x [0]
P84_O1: [3] x [0]
P85_O1: [1] x [0]
P87_O1: [1] x [0]
P89_O1: [1] x [0]
P91_O1: [3] x [0]
P92_O1: [2] x [0]
P93_O1: [2] x [0]
P94_O1: [1] x [0]
P95_O1: [3] x [0]
P96_O1: [3] x [0]
P97_O1: [1] x [0]
P98_O1: [3] x [0]
P98_O2: [1] x [0]
P99_O1: [3] x [0]
P100_O1: [1] x [0]
P101_O1: [1] x [0]
P103_O1: [1] x [0]
P105_O1: [1] x [0]
P107_O1: [1] x [0]
P109_O1: [1] x [0]
P111_O1: [3] x [0]
P112_O1: [3] x [0]
P113_O1: [1] x [0]
P115_O1: [9] x [0]
P116_O1: [1] x [0]
P117_O1: [3] x [0]
P118_O1: [1] x [0]
P119_O1: [1] x [0]
P120_O1: [1] x [0]
P123_O1: [3] x [0]
P124_O1: [1] x [0]
P125_O1: [1] x [0]
P126_O1: [1] x [0]
P129_O1: [4] x [0]
P130_O1: [1] x [0]
P131_O1: [1] x [0]
P132_O1: [1] x [0]
P134_O1: [1] x [0]
P136_O1: [1] x [0]
P138_O1: [1] x [0]
P140_O1: [1] x [0]
P142_O1: [1] x [0]
P144_O1: [1] x [0]
P146_O1: [1] x [0]
P148_O1: [1] x [0]
P150_O1: [3] x [0]
P151_O1: [2] x [0]
P152_O1: [1] x [6]
P153_O1: [0] x [1]
P154_O1: [1] x [3]
P155_O1: [0] x [1]

- [AlunoID: 5020057][Questionário: Frequência de Consumo de Alimentos]

P10_O1: [0] x [4]
P11_O1: [0] x [4]
P12_O1: [0] x [4]
P16_O1: [0] x [4]
P17_O1: [0] x [4]
P18_O1: [0] x [4]
P42_O1: [0] x [4]
P43_O1: [0] x [2]
P44_O1: [0] x [3]
P45_O1: [0] x [2]

- [AlunoID: 5020058][Questionário: Frequência de Consumo de Alimentos]

P9_O1: [3] x [0]
P10_O1: [2] x [1]
P16_O1: [0] x [4]
P17_O1: [0] x [3]
P18_O1: [0] x [3]
P23_O1: [7] x [6]
P24_O1: [3] x [2]
P26_O1: [2] x [1]
P30_O1: [3] x [2]
P32_O1: [3] x [0]
P33_O1: [4] x [2]
P34_O1: [3] x [2]
P38_O1: [3] x [1]
P42_O1: [0] x [2]
P43_O1: [0] x [2]
P44_O1: [0] x [2]
P45_O1: [0] x [2]
P48_O1: [2] x [5]
P50_O1: [2] x [3]
P51_O1: [3] x [2]
P52_O1: [2] x [1]
P53_O1: [2] x [0]
P55_O1: [2] x [0]
P57_O1: [3] x [4]
P59_O1: [2] x [0]
P60_O1: [2] x [5]
P61_O1: [3] x [1]
P62_O1: [3] x [4]
P63_O1: [2] x [1]
P64_O1: [3] x [4]
P65_O1: [3] x [2]
P66_O1: [4] x [3]
P69_O1: [6] x [0]
P73_O1: [3] x [2]
P77_O1: [2] x [1]
P80_O1: [2] x [3]
P83_O1: [3] x [2]
P84_O1: [4] x [3]
P86_O1: [0] x [1]
P87_O1: [3] x [1]
P88_O1: [2] x [3]
P89_O1: [1] x [2]
P90_O1: [0] x [3]
P91_O1: [1] x [2]
P92_O1: [0] x [2]
P93_O1: [4] x [6]
P94_O1: [2] x [1]
P97_O1: [3] x [2]
P99_O1: [2] x [1]
P100_O1: [5] x [0]
P101_O1: [2] x [3]
P102_O1: [2] x [4]
P103_O1: [3] x [1]
P104_O1: [2] x [0]
P106_O1: [2] x [3]
P107_O1: [2] x [3]
P109_O1: [2] x [3]
P111_O1: [2] x [3]
P115_O1: [6] x [7]
P116_O1: [3] x [4]
P118_O1: [3] x [4]
P120_O1: [2] x [3]
P121_O1: [5] x [3]
P123_O1: [3] x [4]
P124_O1: [3] x [4]
P130_O1: [3] x [1]
P132_O1: [1] x [2]
P133_O1: [0] x [2]
P140_O1: [2] x [1]
P142_O1: [2] x [4]
P143_O1: [3] x [4]
P144_O1: [3] x [1]
P152_O1: [3] x [2]

- [AlunoID: 5020059][Questionário: Frequência de Consumo de Alimentos]

P16_O1: [0] x [4]
P17_O1: [0] x [4]
P18_O1: [0] x [4]
P42_O1: [0] x [8]
P43_O1: [0] x [3]
P44_O1: [0] x [8]
P45_O1: [0] x [2]
P81_O1: [3] x [4]
P82_O1: [4] x [2]
P83_O1: [3] x [4]
P84_O1: [5] x [3]
P85_O1: [3] x [5]
P86_O1: [4] x [3]
P87_O1: [3] x [4]
P111_O1: [4] x [5]
P112_O1: [3] x [4]
P113_O1: [3] x [4]

- [AlunoID: 5020060][Questionário: Frequência de Consumo de Alimentos]

P16_O1: [0] x [4]
P17_O1: [0] x [4]
P18_O1: [0] x [4]
P42_O1: [0] x [4]
P43_O1: [0] x [3]
P44_O1: [0] x [2]
P45_O1: [0] x [1]

- [AlunoID: 5020061][Questionário: Frequência de Consumo de Alimentos]

P42_O1: [0] x [4]
P43_O1: [0] x [2]
P44_O1: [0] x [2]
P45_O1: [0] x [3]
P70_O1: [7] x [8]
P106_O1: [2] x [3]
P145_O1: [3] x [2]
P148_O1: [4] x [5]

- [AlunoID: 5020062][Questionário: Frequência de Consumo de Alimentos]

P10_O1: [0] x [4]
P11_O1: [0] x [4]
P12_O1: [0] x [4]
P13_O1: [0] x [4]
P14_O1: [0] x [4]
P15_O1: [0] x [4]
P42_O1: [0] x [3]
P43_O1: [0] x [3]
P44_O1: [0] x [3]
P45_O1: [0] x [1]

- [AlunoID: 5020063][Questionário: Frequência de Consumo de Alimentos]

P10_O1: [0] x [4]
P11_O1: [0] x [4]
P12_O1: [0] x [4]
P16_O1: [0] x [4]
P17_O1: [0] x [4]
P18_O1: [0] x [4]
P42_O1: [0] x [2]
P43_O1: [0] x [2]
P44_O1: [0] x [2]
P45_O1: [0] x [2]
P115_O1: [6] x [7]

- [AlunoID: 5020064][Questionário: Frequência de Consumo de Alimentos]

P10_O1: [0] x [4]
P11_O1: [0] x [4]
P12_O1: [0] x [4]
P16_O1: [0] x [4]
P17_O1: [0] x [4]
P18_O1: [0] x [4]
P42_O1: [0] x [4]
P43_O1: [0] x [2]
P44_O1: [0] x [6]
P45_O1: [0] x [2]

- [AlunoID: 5020065][Questionário: Frequência de Consumo de Alimentos]

P10_O1: [0] x [4]
P11_O1: [0] x [4]
P12_O1: [0] x [4]
P16_O1: [0] x [4]
P17_O1: [0] x [4]
P18_O1: [0] x [4]
P42_O1: [0] x [3]
P43_O1: [0] x [2]
P44_O1: [0] x [2]
P45_O1: [0] x [2]

- [AlunoID: 5020066][Questionário: Frequência de Consumo de Alimentos]

P16_O1: [0] x [4]
P17_O1: [0] x [4]
P18_O1: [0] x [4]
P42_O1: [0] x [2]
P43_O1: [0] x [2]
P44_O1: [0] x [1]
P45_O1: [0] x [2]
P49_O1: [2] x [3]
P60_O1: [7] x [4]
P141_O1: [2] x [1]

- [AlunoID: 5020067][Questionário: Frequência de Consumo de Alimentos]

P7_O1: [3] x [2]
P8_O1: [2] x [3]
P19_O1: [8] x [4]
P42_O1: [0] x [5]
P43_O1: [0] x [2]
P44_O1: [0] x [3]
P45_O1: [0] x [1]

- [AlunoID: 5020068][Questionário: Frequência de Consumo de Alimentos]

P42_O1: [0] x [2]
P43_O1: [0] x [2]
P44_O1: [0] x [2]
P45_O1: [0] x [2]
P65_O1: [2] x [1]
P148_O1: [4] x [3]

- [AlunoID: 5020069][Questionário: Frequência de Consumo de Alimentos]

P42_O1: [0] x [7]
P43_O1: [0] x [1]
P44_O1: [0] x [2]
P45_O1: [0] x [2]
P49_O1: [2] x [1]
P60_O1: [4] x [2]

- [AlunoID: 5020070][Questionário: Frequência de Consumo de Alimentos]

P16_O1: [0] x [4]
P17_O1: [0] x [4]
P18_O1: [0] x [4]
P30_O1: [2] x [1]
P42_O1: [0] x [2]
P43_O1: [0] x [2]
P44_O1: [0] x [3]
P45_O1: [0] x [3]
P67_O1: [4] x [2]
P133_O1: [3] x [2]
P155_O1: [4] x [3]

- [AlunoID: 5020071][Questionário: Frequência de Consumo de Alimentos]

P10_O1: [0] x [4]
P11_O1: [0] x [4]
P12_O1: [0] x [4]
P16_O1: [0] x [4]
P17_O1: [0] x [4]
P18_O1: [0] x [4]
P35_O1: [1] x [2]
P42_O1: [0] x [1]
P43_O1: [0] x [2]
P44_O1: [0] x [1]

- [AlunoID: 5020072][Questionário: Frequência de Consumo de Alimentos]

P16_O1: [0] x [4]
P17_O1: [0] x [4]
P18_O1: [0] x [4]
P42_O1: [0] x [4]
P43_O1: [0] x [2]
P44_O1: [0] x [2]
P45_O1: [0] x [2]

- [AlunoID: 5020077][Questionário: Frequência de Consumo de Alimentos]

P42_O1: [0] x [4]
P43_O1: [0] x [3]
P44_O1: [0] x [3]
P45_O1: [0] x [4]

- [AlunoID: 5020078][Questionário: Frequência de Consumo de Alimentos]

P10_O1: [0] x [4]
P11_O1: [0] x [4]
P12_O1: [0] x [4]
P16_O1: [0] x [4]
P17_O1: [0] x [4]
P18_O1: [0] x [4]
P42_O1: [0] x [1]
P43_O1: [0] x [1]
P44_O1: [0] x [1]
P79_O1: [1] x [2]

- [AlunoID: 5020079][Questionário: Frequência de Consumo de Alimentos]

P10_O1: [0] x [4]
P11_O1: [0] x [4]
P12_O1: [0] x [4]
P16_O1: [0] x [4]
P17_O1: [0] x [4]
P18_O1: [0] x [4]
P42_O1: [0] x [1]
P43_O1: [0] x [2]
P44_O1: [0] x [3]
P45_O1: [0] x [2]

- [AlunoID: 5020080][Questionário: Frequência de Consumo de Alimentos]


- [AlunoID: 5020081][Questionário: Frequência de Consumo de Alimentos]

P10_O1: [0] x [4]
P11_O1: [0] x [4]
P12_O1: [0] x [4]
P16_O1: [0] x [4]
P17_O1: [0] x [4]
P18_O1: [0] x [4]
P42_O1: [0] x [2]
P43_O1: [0] x [2]
P44_O1: [0] x [2]
P45_O1: [0] x [2]
P74_O1: [0] x [1]
P139_O1: [0] x [2]

- [AlunoID: 5020082][Questionário: Frequência de Consumo de Alimentos]

P42_O1: [0] x [2]
P43_O1: [0] x [2]
P44_O1: [0] x [2]
P45_O1: [0] x [3]

- [AlunoID: 5020083][Questionário: Frequência de Consumo de Alimentos]

P16_O1: [0] x [4]
P17_O1: [0] x [4]
P18_O1: [0] x [4]
P42_O1: [0] x [4]
P43_O1: [0] x [2]
P44_O1: [0] x [4]
P45_O1: [0] x [2]

- [AlunoID: 5020084][Questionário: Frequência de Consumo de Alimentos]

P4_O1: [0] x [3]
P7_O1: [0] x [4]
P8_O1: [0] x [4]
P9_O1: [0] x [4]
P16_O1: [0] x [4]
P17_O1: [0] x [4]
P18_O1: [0] x [4]
P19_O1: [0] x [4]
P20_O1: [0] x [3]
P21_O1: [0] x [1]
P22_O1: [0] x [3]
P23_O1: [0] x [8]
P24_O1: [0] x [3]
P25_O1: [0] x [1]
P26_O1: [0] x [2]
P27_O1: [0] x [4]
P28_O1: [0] x [1]
P31_O1: [3] x [1]
P32_O1: [2] x [1]
P33_O1: [1] x [3]
P34_O1: [3] x [2]
P35_O1: [4] x [1]
P36_O1: [2] x [3]
P40_O1: [5] x [1]
P42_O1: [0] x [5]
P43_O1: [0] x [4]
P44_O1: [0] x [2]
P45_O1: [0] x [2]
P140_O1: [1] x [2]
P142_O1: [1] x [3]

- [AlunoID: 5020085][Questionário: Frequência de Consumo de Alimentos]

P9_O1: [2] x [3]
P10_O1: [0] x [4]
P11_O1: [0] x [4]
P12_O1: [0] x [4]
P16_O1: [0] x [4]
P17_O1: [0] x [4]
P18_O1: [0] x [4]
P42_O1: [0] x [1]
P43_O1: [0] x [1]
P44_O1: [0] x [1]
P45_O1: [0] x [1]
P80_O1: [2] x [1]
P82_O1: [1] x [2]
P83_O1: [1] x [2]
P84_O1: [2] x [1]
P145_O1: [1] x [2]

- [AlunoID: 5020086][Questionário: Frequência de Consumo de Alimentos]

P10_O1: [0] x [4]
P11_O1: [0] x [4]
P12_O1: [0] x [4]
P16_O1: [0] x [4]
P17_O1: [0] x [4]
P18_O1: [0] x [4]
P42_O1: [0] x [3]
P43_O1: [0] x [2]
P44_O1: [0] x [1]
P109_O1: [3] x [2]
P127_O1: [4] x [0]

- [AlunoID: 5020087][Questionário: Frequência de Consumo de Alimentos]

P16_O1: [0] x [4]
P17_O1: [0] x [4]
P18_O1: [0] x [4]
P42_O1: [0] x [2]
P43_O1: [0] x [2]
P44_O1: [0] x [1]
P45_O1: [0] x [2]
P114_O1: [0] x [3]

- [AlunoID: 5020088][Questionário: Frequência de Consumo de Alimentos]

P16_O1: [0] x [4]
P17_O1: [0] x [4]
P18_O1: [0] x [4]
P42_O1: [0] x [5]
P43_O1: [0] x [2]
P44_O1: [0] x [3]
P45_O1: [0] x [2]
P128_O1: [0] x [1]

- [AlunoID: 5020089][Questionário: Frequência de Consumo de Alimentos]

P16_O1: [0] x [4]
P17_O1: [0] x [4]
P18_O1: [0] x [4]
P42_O1: [0] x [2]
P43_O1: [0] x [2]
P44_O1: [0] x [1]
P45_O1: [0] x [2]
P100_O1: [1] x [2]

- [AlunoID: 5020090][Questionário: Frequência de Consumo de Alimentos]

P16_O1: [0] x [4]
P17_O1: [0] x [4]
P18_O1: [0] x [4]
P23_O1: [7] x [8]
P42_O1: [0] x [3]
P43_O1: [0] x [2]
P44_O1: [0] x [1]
P75_O1: [5] x [4]

- [AlunoID: 5020091][Questionário: Frequência de Consumo de Alimentos]

P16_O1: [1] x [3]
P42_O1: [0] x [2]
P43_O1: [0] x [4]
P44_O1: [0] x [1]
P45_O1: [0] x [3]

- [AlunoID: 5020092][Questionário: Frequência de Consumo de Alimentos]

P16_O1: [0] x [4]
P17_O1: [0] x [4]
P18_O1: [0] x [4]
P42_O1: [0] x [4]
P43_O1: [0] x [1]
P44_O1: [0] x [1]
P151_O1: [0] x [2]

- [AlunoID: 5020093][Questionário: Frequência de Consumo de Alimentos]

P18_O1: [2] x [3]
P42_O1: [0] x [5]
P43_O1: [0] x [3]
P44_O1: [0] x [6]
P45_O1: [0] x [3]
P98_O2: [2] x [1]
P142_O1: [2] x [6]
P150_O1: [5] x [4]

- [AlunoID: 5020094][Questionário: Frequência de Consumo de Alimentos]

P5_O1: [1] x [2]
P16_O1: [0] x [4]
P17_O1: [0] x [4]
P18_O1: [0] x [4]
P42_O1: [0] x [3]
P43_O1: [0] x [3]
P44_O1: [0] x [3]
P45_O1: [0] x [3]
P115_O1: [8] x [4]

- [AlunoID: 5020095][Questionário: Frequência de Consumo de Alimentos]

P39_O1: [2] x [0]
P42_O1: [0] x [3]
P43_O1: [0] x [3]
P44_O1: [0] x [3]
P45_O1: [0] x [3]
P72_O1: [3] x [2]
P113_O1: [3] x [8]
P114_O1: [4] x [2]
P115_O1: [8] x [6]

- [AlunoID: 5020096][Questionário: Frequência de Consumo de Alimentos]

P4_O1: [0] x [4]
P5_O1: [0] x [4]
P6_O1: [0] x [4]
P16_O1: [0] x [4]
P17_O1: [0] x [4]
P18_O1: [0] x [4]
P42_O1: [0] x [2]
P43_O1: [0] x [2]
P44_O1: [0] x [3]
P45_O1: [0] x [3]
P119_O1: [1] x [0]
P122_O1: [1] x [0]

- [AlunoID: 5020097][Questionário: Frequência de Consumo de Alimentos]

P10_O1: [0] x [4]
P11_O1: [0] x [4]
P12_O1: [0] x [4]
P16_O1: [0] x [4]
P17_O1: [0] x [4]
P18_O1: [0] x [4]
P42_O1: [0] x [3]
P43_O1: [0] x [2]
P44_O1: [0] x [1]
P45_O1: [0] x [3]

- [AlunoID: 5020098][Questionário: Frequência de Consumo de Alimentos]

P4_O1: [0] x [3]
P7_O1: [0] x [3]
P16_O1: [0] x [4]
P17_O1: [0] x [4]
P18_O1: [0] x [4]
P42_O1: [0] x [1]
P44_O1: [0] x [1]
P98_O1: [2] x [1]
P98_O2: [2] x [1]
P100_O1: [2] x [1]
P107_O1: [1] x [3]
P149_O1: [1] x [2]

- [AlunoID: 5020099][Questionário: Frequência de Consumo de Alimentos]

P16_O1: [0] x [4]
P17_O1: [0] x [4]
P18_O1: [0] x [4]
P36_O1: [5] x [4]
P37_O1: [0] x [3]
P38_O1: [0] x [3]

- [AlunoID: 5020100][Questionário: Frequência de Consumo de Alimentos]

P42_O1: [0] x [3]
P43_O1: [0] x [2]
P44_O1: [0] x [3]
P45_O1: [0] x [2]

