- [AlunoID: 7010084][Questionário: Frequência de Consumo de Alimentos]

P38_O1: [3] x [4]
P48_O1: [3] x [6]
P52_O1: [6] x [4]
P53_O1: [3] x [2]
P55_O1: [2] x [3]

- [AlunoID: 7010085][Questionário: Frequência de Consumo de Alimentos]

P4_O1: [0] x [4]
P10_O1: [0] x [4]
P13_O1: [0] x [4]
P29_O1: [1] x [0]
P64_O1: [6] x [0]
P97_O1: [1] x [3]
P149_O1: [1] x [0]

- [AlunoID: 7010086][Questionário: Frequência de Consumo de Alimentos]

P26_O1: [3] x [2]
P31_O1: [0] x [1]
P54_O1: [3] x [6]
P77_O1: [3] x [6]
P80_O1: [2] x [1]
P81_O1: [2] x [4]
P82_O1: [2] x [3]
P83_O1: [4] x [7]
P85_O1: [7] x [6]
P101_O1: [3] x [6]

- [AlunoID: 7010087][Questionário: Frequência de Consumo de Alimentos]

P16_O1: [0] x [4]
P17_O1: [0] x [4]
P18_O1: [0] x [4]
P19_O1: [3] x [4]
P30_O1: [2] x [0]
P63_O1: [1] x [2]
P86_O1: [2] x [0]
P87_O1: [3] x [0]
P99_O1: [3] x [4]
P137_O1: [0] x [2]
P138_O1: [0] x [1]
P139_O1: [0] x [4]
P144_O1: [1] x [2]

- [AlunoID: 7010088][Questionário: Frequência de Consumo de Alimentos]

P1_O1: [3] x [1]
P2_O1: [2] x [1]
P3_O1: [0] x [3]
P5_O1: [2] x [0]
P7_O1: [3] x [1]
P8_O1: [1] x [2]
P10_O1: [0] x [2]
P11_O1: [0] x [2]
P19_O1: [4] x [2]
P23_O1: [1] x [7]
P24_O1: [0] x [2]
P25_O1: [0] x [1]
P26_O1: [2] x [1]
P29_O1: [4] x [3]
P30_O1: [2] x [3]
P31_O1: [3] x [4]
P32_O1: [2] x [4]
P33_O1: [3] x [2]
P34_O1: [3] x [5]
P36_O1: [2] x [4]
P40_O1: [2] x [1]
P42_O1: [7] x [5]
P43_O1: [2] x [3]
P44_O1: [3] x [4]
P45_O1: [2] x [3]
P47_O1: [0] x [3]
P49_O1: [3] x [2]
P50_O1: [3] x [2]
P51_O1: [3] x [5]
P52_O1: [4] x [3]
P54_O1: [4] x [2]
P55_O1: [2] x [4]
P56_O1: [8] x [4]
P57_O1: [2] x [3]
P58_O1: [3] x [4]
P61_O1: [0] x [3]
P62_O1: [6] x [5]
P64_O1: [2] x [1]
P65_O1: [2] x [3]
P66_O1: [1] x [2]
P67_O1: [3] x [2]
P68_O1: [2] x [3]
P69_O1: [3] x [2]
P70_O1: [2] x [3]
P71_O1: [3] x [1]
P72_O1: [2] x [3]
P74_O1: [2] x [3]
P76_O1: [4] x [3]
P77_O1: [3] x [2]
P79_O1: [2] x [3]
P80_O1: [3] x [2]
P81_O1: [3] x [2]
P82_O1: [3] x [2]
P84_O1: [4] x [3]
P85_O1: [4] x [3]
P89_O1: [3] x [2]
P91_O1: [1] x [2]
P92_O1: [0] x [1]
P93_O1: [3] x [2]
P95_O1: [3] x [2]
P96_O1: [3] x [2]
P97_O1: [3] x [2]
P98_O1: [4] x [2]
P101_O1: [3] x [2]
P103_O1: [3] x [2]
P107_O1: [9] x [8]
P109_O1: [6] x [3]
P110_O1: [3] x [2]
P111_O1: [2] x [1]
P113_O1: [5] x [3]
P115_O1: [2] x [1]
P116_O1: [3] x [2]
P118_O1: [4] x [8]
P119_O1: [4] x [2]
P121_O1: [5] x [6]
P122_O1: [1] x [2]
P123_O1: [2] x [1]
P125_O1: [3] x [2]
P126_O1: [2] x [1]
P127_O1: [4] x [2]
P128_O1: [4] x [3]
P129_O1: [3] x [2]
P130_O1: [4] x [5]
P131_O1: [4] x [3]
P132_O1: [1] x [2]
P133_O1: [0] x [2]
P134_O1: [0] x [2]
P135_O1: [1] x [2]
P136_O1: [0] x [2]
P137_O1: [4] x [2]
P139_O1: [2] x [3]
P141_O1: [2] x [3]
P143_O1: [3] x [2]
P144_O1: [2] x [3]
P146_O1: [3] x [2]
P150_O1: [0] x [2]

- [AlunoID: 7010089][Questionário: Frequência de Consumo de Alimentos]

P7_O1: [3] x [1]
P74_O1: [2] x [1]
P133_O1: [2] x [1]

- [AlunoID: 7010090][Questionário: Frequência de Consumo de Alimentos]

P4_O1: [0] x [4]
P5_O1: [0] x [4]
P6_O1: [0] x [4]
P10_O1: [0] x [4]
P11_O1: [0] x [4]
P12_O1: [0] x [4]
P16_O1: [0] x [4]
P17_O1: [0] x [4]
P18_O1: [0] x [4]
P19_O1: [4] x [3]
P24_O1: [2] x [3]
P27_O1: [0] x [2]
P28_O1: [0] x [1]
P29_O1: [2] x [1]
P30_O1: [2] x [3]
P31_O1: [6] x [4]
P33_O1: [3] x [2]
P34_O1: [3] x [2]
P35_O1: [2] x [1]
P36_O1: [1] x [2]
P37_O1: [2] x [1]
P42_O1: [3] x [6]
P43_O1: [2] x [3]
P45_O1: [2] x [3]
P47_O1: [0] x [1]
P49_O1: [2] x [3]
P52_O1: [4] x [3]
P53_O1: [4] x [2]
P54_O1: [4] x [1]
P56_O1: [4] x [1]
P57_O1: [2] x [0]
P60_O1: [6] x [7]
P61_O1: [3] x [6]
P62_O1: [2] x [7]
P63_O1: [1] x [2]
P67_O1: [3] x [4]
P70_O1: [2] x [3]
P72_O1: [0] x [2]
P74_O1: [3] x [2]
P85_O1: [5] x [6]
P86_O1: [1] x [2]
P88_O1: [4] x [6]
P90_O2: [1] x [0]
P91_O1: [4] x [5]
P97_O1: [4] x [1]
P98_O1: [2] x [0]
P99_O1: [4] x [6]
P100_O1: [2] x [4]
P101_O1: [1] x [2]
P102_O1: [0] x [3]
P104_O1: [4] x [3]
P107_O1: [7] x [8]
P109_O1: [1] x [4]
P110_O1: [0] x [3]
P111_O1: [0] x [1]
P112_O1: [3] x [4]
P115_O1: [9] x [8]
P118_O1: [1] x [8]
P119_O1: [0] x [3]
P120_O1: [0] x [1]
P121_O1: [2] x [1]
P122_O1: [2] x [0]
P123_O1: [1] x [0]
P126_O1: [1] x [2]
P137_O1: [4] x [6]
P139_O1: [3] x [2]
P140_O1: [6] x [4]
P143_O1: [4] x [2]
P144_O1: [2] x [3]
P148_O1: [5] x [4]
P149_O1: [5] x [6]
P150_O1: [5] x [4]

- [AlunoID: 7010091][Questionário: Frequência de Consumo de Alimentos]

P7_O1: [3] x [2]
P30_O1: [1] x [2]
P42_O1: [6] x [3]
P49_O1: [2] x [0]
P56_O1: [5] x [4]
P57_O1: [3] x [2]
P59_O1: [3] x [0]
P72_O1: [3] x [2]
P80_O1: [2] x [1]
P88_O1: [6] x [3]
P109_O1: [4] x [7]

- [AlunoID: 7010092][Questionário: Frequência de Consumo de Alimentos]

P34_O1: [2] x [0]
P36_O1: [2] x [0]
P64_O1: [2] x [1]
P68_O1: [2] x [1]
P71_O1: [1] x [2]
P72_O1: [0] x [2]
P75_O1: [3] x [1]
P76_O1: [3] x [0]

- [AlunoID: 7010093][Questionário: Frequência de Consumo de Alimentos]

P16_O1: [0] x [4]
P17_O1: [0] x [4]
P18_O1: [0] x [4]

- [AlunoID: 7010096][Questionário: Frequência de Consumo de Alimentos]

P16_O1: [0] x [4]
P17_O1: [0] x [4]
P18_O1: [0] x [4]
P26_O1: [3] x [4]
P27_O1: [4] x [3]
P28_O1: [1] x [0]
P30_O1: [1] x [2]
P31_O1: [6] x [0]
P32_O1: [2] x [0]
P33_O1: [1] x [4]
P34_O1: [0] x [2]
P35_O1: [1] x [2]
P36_O1: [0] x [2]
P37_O1: [7] x [5]
P39_O1: [1] x [0]
P42_O1: [6] x [5]
P44_O1: [6] x [4]
P48_O1: [3] x [1]
P49_O1: [2] x [0]
P51_O1: [2] x [1]
P52_O1: [1] x [4]
P53_O1: [0] x [2]
P54_O1: [3] x [1]
P55_O1: [3] x [0]
P56_O1: [6] x [4]
P58_O1: [1] x [4]
P59_O1: [0] x [1]
P60_O1: [4] x [1]
P61_O1: [3] x [0]
P62_O1: [6] x [3]
P67_O1: [3] x [2]
P68_O1: [2] x [1]
P71_O1: [3] x [1]
P72_O1: [2] x [0]
P74_O1: [2] x [0]
P76_O1: [3] x [4]
P80_O1: [3] x [2]
P85_O1: [7] x [6]
P86_O1: [1] x [2]
P87_O1: [1] x [0]
P88_O1: [5] x [4]
P89_O1: [2] x [1]
P90_O1: [2] x [0]
P90_O2: [1] x [0]
P92_O1: [7] x [1]
P102_O1: [4] x [3]
P104_O1: [4] x [3]
P108_O1: [4] x [2]
P109_O1: [6] x [3]
P110_O1: [4] x [1]
P112_O1: [6] x [4]
P113_O1: [5] x [1]
P114_O1: [1] x [0]
P115_O1: [6] x [4]
P116_O1: [4] x [2]
P117_O1: [1] x [0]
P118_O1: [1] x [4]
P119_O1: [0] x [1]
P128_O1: [3] x [1]
P129_O1: [2] x [0]
P130_O1: [4] x [2]
P131_O1: [2] x [3]
P133_O1: [1] x [2]
P135_O1: [3] x [1]
P136_O1: [2] x [0]
P138_O1: [6] x [1]
P139_O1: [1] x [0]
P140_O1: [1] x [2]
P141_O1: [3] x [2]
P142_O1: [2] x [0]
P143_O1: [1] x [2]
P144_O1: [0] x [2]
P145_O1: [1] x [2]
P146_O1: [0] x [2]
P147_O1: [6] x [1]
P148_O1: [1] x [0]

- [AlunoID: 7010099][Questionário: Frequência de Consumo de Alimentos]

P4_O1: [3] x [0]
P5_O1: [2] x [1]
P7_O1: [3] x [0]
P21_O1: [2] x [3]
P23_O1: [1] x [6]
P24_O1: [0] x [2]
P26_O1: [2] x [1]
P27_O1: [3] x [2]
P28_O1: [1] x [0]
P33_O1: [2] x [3]
P36_O1: [3] x [2]
P37_O1: [2] x [5]
P40_O1: [2] x [1]
P42_O1: [3] x [4]
P44_O1: [6] x [4]
P45_O1: [1] x [2]
P47_O1: [0] x [2]
P48_O1: [3] x [2]
P50_O1: [2] x [3]
P52_O1: [6] x [5]
P54_O1: [4] x [3]
P56_O1: [7] x [5]
P59_O1: [1] x [3]
P65_O1: [1] x [2]
P66_O1: [2] x [0]
P67_O1: [3] x [7]
P68_O1: [1] x [2]
P75_O1: [2] x [3]
P77_O1: [4] x [2]
P81_O1: [3] x [2]
P83_O1: [3] x [2]
P89_O1: [2] x [0]
P91_O1: [4] x [6]
P92_O1: [6] x [1]
P94_O1: [4] x [1]
P95_O1: [2] x [3]
P97_O1: [2] x [3]
P99_O1: [2] x [3]
P101_O1: [3] x [6]
P107_O1: [6] x [7]
P108_O1: [4] x [1]
P110_O1: [4] x [1]
P112_O1: [4] x [6]
P113_O1: [5] x [1]
P115_O1: [1] x [4]
P116_O1: [0] x [1]
P117_O1: [0] x [1]
P118_O1: [6] x [5]
P119_O1: [3] x [1]
P121_O1: [4] x [1]
P122_O1: [3] x [0]
P123_O1: [1] x [0]
P124_O1: [6] x [1]
P125_O1: [3] x [0]
P126_O1: [4] x [1]
P127_O1: [3] x [0]
P130_O1: [6] x [2]
P132_O1: [3] x [4]
P133_O1: [4] x [2]
P134_O1: [2] x [1]
P137_O1: [1] x [3]
P139_O1: [2] x [1]
P140_O1: [1] x [3]
P141_O1: [3] x [2]
P142_O1: [2] x [0]
P143_O1: [6] x [2]
P145_O1: [2] x [6]

- [AlunoID: 7010100][Questionário: Frequência de Consumo de Alimentos]

P1_O1: [0] x [1]
P4_O1: [3] x [1]
P7_O1: [3] x [2]
P8_O1: [2] x [0]
P10_O1: [0] x [1]
P13_O1: [1] x [0]
P16_O1: [0] x [1]
P20_O1: [3] x [4]
P23_O1: [3] x [2]
P25_O1: [0] x [1]
P26_O1: [3] x [1]
P27_O1: [3] x [0]
P28_O1: [2] x [0]
P29_O1: [3] x [4]
P33_O1: [1] x [2]
P35_O1: [1] x [2]
P36_O1: [2] x [1]
P37_O1: [3] x [4]
P40_O1: [1] x [2]
P42_O1: [6] x [3]
P43_O1: [2] x [1]
P44_O1: [6] x [3]
P45_O1: [2] x [3]
P47_O1: [2] x [0]
P48_O1: [3] x [2]
P49_O1: [2] x [1]
P51_O1: [2] x [1]
P52_O1: [1] x [4]
P53_O1: [3] x [2]
P55_O1: [3] x [2]
P56_O1: [6] x [3]
P58_O1: [1] x [4]
P59_O1: [1] x [2]
P60_O1: [1] x [4]
P61_O1: [0] x [2]
P62_O1: [6] x [3]
P64_O1: [6] x [3]
P65_O1: [2] x [1]
P66_O1: [0] x [2]
P67_O1: [6] x [4]
P69_O1: [3] x [1]
P70_O1: [2] x [0]
P71_O1: [4] x [1]
P72_O1: [2] x [0]
P73_O1: [3] x [4]
P75_O1: [3] x [4]
P77_O1: [4] x [3]
P80_O1: [2] x [0]
P81_O1: [1] x [2]
P82_O1: [3] x [2]
P83_O1: [4] x [2]
P86_O1: [1] x [2]
P87_O1: [0] x [2]
P88_O1: [6] x [4]
P89_O1: [5] x [2]
P90_O1: [2] x [1]
P90_O2: [0] x [1]
P91_O1: [4] x [3]
P92_O1: [1] x [2]
P93_O1: [6] x [1]
P94_O1: [4] x [0]
P95_O1: [3] x [1]
P96_O1: [2] x [0]
P97_O1: [3] x [1]
P98_O1: [2] x [0]
P99_O1: [3] x [4]
P101_O1: [3] x [1]
P102_O1: [3] x [0]
P104_O1: [3] x [2]
P105_O1: [3] x [1]
P106_O1: [3] x [0]
P107_O1: [6] x [0]
P108_O1: [1] x [0]
P109_O1: [6] x [1]
P110_O1: [1] x [0]
P112_O1: [6] x [3]
P113_O1: [1] x [5]
P114_O1: [0] x [1]
P115_O1: [1] x [4]
P116_O1: [1] x [3]
P117_O1: [0] x [1]
P118_O1: [6] x [4]
P119_O1: [1] x [2]
P120_O1: [0] x [1]
P122_O1: [1] x [0]
P124_O1: [1] x [0]
P125_O1: [1] x [0]
P127_O1: [1] x [0]
P128_O1: [2] x [1]
P129_O1: [1] x [0]
P130_O1: [2] x [1]
P131_O1: [1] x [0]
P132_O1: [3] x [6]
P133_O1: [1] x [2]
P135_O1: [3] x [1]
P136_O1: [2] x [0]
P137_O1: [0] x [5]
P138_O1: [1] x [2]
P139_O1: [1] x [3]
P140_O1: [0] x [5]
P141_O1: [1] x [2]
P143_O1: [1] x [4]
P144_O1: [1] x [2]
P145_O1: [2] x [1]
P146_O1: [2] x [0]
P147_O1: [0] x [4]
P148_O1: [0] x [2]

- [AlunoID: 7010112][Questionário: Frequência de Consumo de Alimentos]

P10_O1: [0] x [4]
P11_O1: [0] x [4]
P12_O1: [0] x [4]
P16_O1: [1] x [4]
P17_O1: [0] x [4]
P18_O1: [0] x [4]
P20_O1: [5] x [4]
P21_O1: [4] x [3]
P23_O1: [1] x [2]
P24_O1: [0] x [1]
P25_O1: [0] x [1]
P30_O1: [2] x [1]
P31_O1: [6] x [4]
P36_O1: [2] x [1]
P37_O1: [4] x [1]
P38_O1: [2] x [0]
P39_O1: [1] x [0]
P40_O1: [4] x [2]
P42_O1: [2] x [3]
P44_O1: [7] x [5]
P49_O1: [2] x [1]
P51_O1: [2] x [3]
P52_O1: [3] x [5]
P53_O1: [4] x [2]
P54_O1: [4] x [3]
P58_O1: [4] x [1]
P59_O1: [3] x [0]
P62_O1: [3] x [5]
P63_O1: [1] x [2]
P64_O1: [4] x [1]
P65_O1: [1] x [0]
P66_O1: [1] x [0]
P73_O1: [4] x [1]
P74_O1: [3] x [0]
P75_O1: [4] x [3]
P76_O1: [4] x [2]
P79_O1: [2] x [1]
P80_O1: [2] x [3]
P83_O1: [4] x [3]
P84_O1: [2] x [3]
P88_O1: [3] x [6]
P90_O1: [1] x [2]
P102_O1: [3] x [4]
P105_O1: [3] x [2]
P106_O1: [3] x [4]
P107_O1: [6] x [7]
P112_O1: [4] x [1]
P113_O1: [5] x [0]
P114_O1: [1] x [0]
P118_O1: [3] x [4]
P121_O1: [4] x [1]
P123_O1: [1] x [2]
P128_O1: [4] x [2]
P129_O1: [1] x [2]
P130_O1: [3] x [4]
P132_O1: [1] x [3]
P133_O1: [1] x [2]
P134_O1: [0] x [1]
P135_O1: [3] x [1]
P136_O1: [2] x [0]
P137_O1: [1] x [3]
P138_O1: [2] x [1]
P141_O1: [2] x [0]
P142_O1: [2] x [0]
P143_O1: [3] x [1]
P144_O1: [2] x [0]
P145_O1: [3] x [1]
P146_O1: [2] x [0]
P147_O1: [3] x [1]
P148_O1: [2] x [0]

- [AlunoID: 7010114][Questionário: Frequência de Consumo de Alimentos]

P5_O1: [1] x [2]
P13_O1: [0] x [1]
P16_O1: [1] x [2]
P20_O1: [4] x [3]
P22_O1: [4] x [3]
P23_O1: [4] x [1]
P24_O1: [1] x [0]
P25_O1: [1] x [0]
P26_O1: [3] x [1]
P27_O1: [3] x [0]
P28_O1: [1] x [0]
P29_O1: [4] x [1]
P30_O1: [2] x [0]
P31_O1: [3] x [0]
P32_O1: [3] x [4]
P33_O1: [1] x [2]
P34_O1: [0] x [4]
P35_O1: [3] x [2]
P37_O1: [1] x [5]
P38_O1: [0] x [1]
P39_O1: [0] x [1]
P40_O1: [3] x [2]
P41_O1: [2] x [1]
P42_O1: [1] x [4]
P43_O1: [0] x [1]
P44_O1: [7] x [4]
P45_O1: [2] x [1]
P51_O1: [2] x [3]
P52_O1: [6] x [4]
P53_O1: [4] x [2]
P54_O1: [3] x [4]
P55_O1: [3] x [2]
P56_O1: [7] x [4]
P60_O1: [3] x [4]
P61_O1: [3] x [1]
P62_O1: [1] x [4]
P63_O1: [0] x [1]
P64_O1: [1] x [3]
P65_O1: [0] x [1]
P66_O1: [0] x [2]
P67_O1: [5] x [4]
P68_O1: [2] x [1]
P69_O1: [4] x [1]
P70_O1: [1] x [0]
P75_O1: [1] x [4]
P76_O1: [0] x [2]
P78_O1: [2] x [1]
P79_O1: [4] x [3]
P80_O1: [2] x [1]
P81_O1: [1] x [4]
P82_O1: [0] x [2]
P83_O1: [5] x [4]
P85_O1: [4] x [1]
P86_O1: [1] x [2]
P87_O1: [1] x [2]
P89_O1: [3] x [2]
P91_O1: [1] x [7]
P92_O1: [0] x [6]
P93_O1: [6] x [4]
P94_O1: [1] x [2]
P95_O1: [5] x [1]
P96_O1: [2] x [0]
P97_O1: [5] x [1]
P98_O1: [2] x [0]
P99_O1: [1] x [2]
P100_O1: [0] x [2]
P102_O1: [5] x [4]
P105_O1: [1] x [2]
P106_O1: [0] x [4]
P108_O1: [4] x [3]
P110_O1: [4] x [3]
P112_O1: [4] x [3]
P113_O1: [5] x [3]
P118_O1: [1] x [7]
P119_O1: [0] x [3]
P120_O1: [0] x [1]
P121_O1: [6] x [4]
P124_O1: [1] x [0]
P128_O1: [1] x [2]
P129_O1: [0] x [2]
P131_O1: [2] x [1]
P132_O1: [3] x [4]
P133_O1: [1] x [2]
P134_O1: [0] x [3]
P137_O1: [4] x [3]
P138_O1: [3] x [1]
P139_O1: [2] x [4]
P141_O1: [3] x [1]
P143_O1: [3] x [2]
P144_O1: [2] x [1]
P145_O1: [1] x [4]
P146_O1: [0] x [1]
P147_O1: [1] x [2]
P148_O1: [0] x [1]

- [AlunoID: 7010118][Questionário: Frequência de Consumo de Alimentos]

P7_O1: [1] x [3]
P8_O1: [0] x [2]
P16_O1: [0] x [4]
P17_O1: [0] x [4]
P18_O1: [0] x [4]
P19_O1: [4] x [3]
P20_O1: [4] x [2]
P30_O1: [3] x [4]
P31_O1: [4] x [3]
P33_O1: [2] x [4]
P34_O1: [3] x [4]
P35_O1: [2] x [3]
P37_O1: [3] x [1]
P38_O1: [2] x [0]
P39_O1: [1] x [0]
P42_O1: [6] x [7]
P43_O1: [2] x [3]
P44_O1: [1] x [6]
P45_O1: [0] x [2]
P49_O1: [2] x [3]
P50_O1: [2] x [3]
P52_O1: [7] x [6]
P54_O1: [4] x [3]
P55_O1: [3] x [2]
P56_O1: [4] x [5]
P57_O1: [3] x [2]
P59_O1: [3] x [2]
P60_O1: [1] x [3]
P61_O1: [0] x [2]
P62_O1: [4] x [6]
P65_O1: [2] x [3]
P68_O1: [2] x [1]
P69_O1: [4] x [1]
P70_O1: [2] x [0]
P73_O1: [1] x [3]
P74_O1: [0] x [2]
P75_O1: [2] x [1]
P76_O1: [4] x [0]
P77_O1: [4] x [6]
P79_O1: [3] x [1]
P80_O1: [2] x [0]
P81_O1: [4] x [1]
P82_O1: [2] x [0]
P88_O1: [6] x [1]
P89_O1: [4] x [0]
P90_O1: [1] x [0]
P90_O2: [1] x [0]
P91_O1: [4] x [3]
P92_O1: [1] x [2]
P96_O1: [2] x [3]
P99_O1: [2] x [6]
P101_O1: [4] x [3]
P102_O1: [5] x [4]
P103_O1: [4] x [3]
P104_O1: [5] x [2]
P109_O1: [1] x [3]
P110_O1: [0] x [3]
P111_O1: [0] x [2]
P112_O1: [2] x [3]
P115_O1: [4] x [3]
P116_O1: [3] x [4]
P118_O1: [7] x [6]
P119_O1: [4] x [3]
P122_O1: [2] x [1]
P132_O1: [4] x [3]
P137_O1: [4] x [6]
P140_O1: [3] x [2]
P141_O1: [2] x [3]
P142_O1: [1] x [2]
P143_O1: [4] x [3]
P144_O1: [2] x [1]
P147_O1: [2] x [3]
P148_O1: [2] x [3]
P149_O1: [2] x [3]
P150_O1: [2] x [3]

- [AlunoID: 7010119][Questionário: Frequência de Consumo de Alimentos]

P8_O1: [2] x [0]
P16_O1: [0] x [4]
P17_O1: [0] x [4]
P18_O1: [0] x [4]
P21_O1: [4] x [3]
P22_O1: [4] x [3]
P26_O1: [3] x [2]
P27_O1: [3] x [2]
P28_O1: [2] x [1]
P29_O1: [4] x [2]
P31_O1: [4] x [2]
P32_O1: [3] x [2]
P33_O1: [4] x [2]
P34_O1: [2] x [4]
P35_O1: [4] x [2]
P37_O1: [1] x [2]
P38_O1: [0] x [2]
P39_O1: [0] x [1]
P40_O1: [4] x [2]
P41_O1: [2] x [3]
P42_O1: [7] x [6]
P43_O1: [2] x [1]
P44_O1: [4] x [6]
P45_O1: [2] x [1]
P48_O1: [2] x [3]
P49_O1: [2] x [3]
P52_O1: [3] x [4]
P53_O1: [3] x [4]
P54_O1: [1] x [3]
P55_O1: [0] x [2]
P56_O1: [4] x [1]
P57_O1: [2] x [0]
P59_O1: [3] x [2]
P61_O1: [3] x [2]
P62_O1: [4] x [6]
P64_O1: [3] x [4]
P65_O1: [2] x [1]
P66_O1: [2] x [1]
P67_O1: [4] x [3]
P68_O1: [2] x [1]
P71_O1: [4] x [1]
P72_O1: [2] x [0]
P74_O1: [3] x [2]
P75_O1: [3] x [4]
P77_O1: [4] x [6]
P78_O1: [2] x [1]
P79_O1: [3] x [0]
P80_O1: [2] x [3]
P82_O1: [3] x [4]
P83_O1: [4] x [2]
P84_O1: [4] x [0]
P85_O1: [4] x [1]
P86_O1: [1] x [0]
P87_O1: [1] x [0]
P88_O1: [4] x [3]
P90_O1: [2] x [1]
P90_O2: [2] x [1]
P91_O1: [4] x [3]
P92_O1: [7] x [2]
P93_O1: [4] x [3]
P94_O1: [4] x [1]
P97_O1: [3] x [1]
P98_O1: [2] x [0]
P99_O1: [4] x [6]
P100_O1: [2] x [1]
P103_O1: [2] x [3]
P107_O1: [8] x [4]
P108_O1: [3] x [4]
P109_O1: [3] x [2]
P112_O1: [1] x [3]
P113_O1: [0] x [5]
P114_O1: [0] x [1]
P115_O1: [4] x [6]
P116_O1: [3] x [4]
P118_O1: [4] x [6]
P119_O1: [3] x [4]
P121_O1: [2] x [1]
P122_O1: [1] x [0]
P123_O1: [1] x [0]
P124_O1: [1] x [2]
P125_O1: [0] x [1]
P126_O1: [3] x [2]
P127_O1: [3] x [2]
P128_O1: [2] x [3]
P132_O1: [4] x [3]
P134_O1: [2] x [3]
P135_O1: [3] x [1]
P136_O1: [2] x [0]
P137_O1: [4] x [6]
P140_O1: [3] x [2]
P141_O1: [2] x [1]
P143_O1: [4] x [3]
P144_O1: [2] x [1]
P145_O1: [1] x [2]
P146_O1: [0] x [2]
P147_O1: [4] x [2]
P149_O1: [3] x [2]
P150_O1: [2] x [3]

- [AlunoID: 7010120][Questionário: Frequência de Consumo de Alimentos]

P1_O1: [3] x [2]
P3_O1: [0] x [3]
P5_O1: [2] x [0]
P7_O1: [3] x [1]
P8_O1: [2] x [0]
P9_O1: [0] x [3]
P10_O1: [0] x [4]
P11_O1: [0] x [4]
P12_O1: [0] x [4]
P13_O1: [1] x [2]
P15_O1: [0] x [3]
P16_O1: [0] x [4]
P17_O1: [0] x [4]
P18_O1: [0] x [4]
P19_O1: [4] x [3]
P23_O1: [7] x [2]
P24_O1: [3] x [2]
P25_O1: [1] x [0]
P26_O1: [3] x [4]
P29_O1: [0] x [3]
P30_O1: [0] x [2]
P32_O1: [3] x [1]
P33_O1: [4] x [1]
P34_O1: [3] x [1]
P35_O1: [2] x [1]
P36_O1: [4] x [2]
P38_O1: [2] x [3]
P39_O1: [0] x [1]
P41_O1: [4] x [3]
P42_O1: [3] x [4]
P43_O1: [1] x [2]
P44_O1: [7] x [5]
P45_O1: [3] x [2]
P47_O1: [2] x [3]
P48_O1: [1] x [2]
P49_O1: [1] x [2]
P50_O1: [2] x [3]
P52_O1: [6] x [5]
P53_O1: [3] x [4]
P56_O1: [5] x [6]
P58_O1: [4] x [3]
P59_O1: [4] x [3]
P61_O1: [0] x [2]
P62_O1: [6] x [4]
P63_O1: [1] x [2]
P65_O1: [1] x [2]
P66_O1: [2] x [0]
P67_O1: [4] x [3]
P69_O1: [2] x [4]
P71_O1: [1] x [2]
P74_O1: [0] x [2]
P75_O1: [2] x [1]
P76_O1: [4] x [2]
P79_O1: [4] x [3]
P81_O1: [3] x [4]
P83_O1: [3] x [2]
P84_O1: [3] x [2]
P85_O1: [6] x [5]
P86_O1: [2] x [1]
P89_O1: [2] x [1]
P90_O2: [2] x [1]
P91_O1: [4] x [3]
P93_O1: [3] x [2]
P95_O1: [2] x [1]
P96_O1: [3] x [2]
P97_O1: [3] x [1]
P99_O1: [2] x [3]
P101_O1: [4] x [3]
P102_O1: [3] x [4]
P105_O1: [2] x [1]
P107_O1: [7] x [8]
P110_O1: [3] x [4]
P111_O1: [2] x [1]
P118_O1: [3] x [4]
P119_O1: [1] x [3]
P121_O1: [4] x [6]
P123_O1: [2] x [1]
P126_O1: [1] x [2]
P127_O1: [0] x [3]
P129_O1: [3] x [2]
P130_O1: [1] x [3]
P131_O1: [0] x [3]
P134_O1: [1] x [2]
P135_O1: [1] x [2]
P136_O1: [0] x [2]
P139_O1: [1] x [4]
P140_O1: [3] x [2]
P141_O1: [1] x [2]
P142_O1: [1] x [2]
P145_O1: [6] x [4]
P150_O1: [2] x [3]

- [AlunoID: 7010121][Questionário: Frequência de Consumo de Alimentos]

P4_O1: [0] x [3]
P10_O1: [0] x [4]
P11_O1: [0] x [4]
P12_O1: [0] x [4]
P16_O1: [0] x [4]
P17_O1: [0] x [4]
P18_O1: [0] x [4]
P20_O1: [4] x [3]
P26_O1: [1] x [2]
P27_O1: [0] x [5]
P28_O1: [0] x [1]
P31_O1: [3] x [4]
P33_O1: [2] x [1]
P34_O1: [3] x [0]
P35_O1: [2] x [1]
P37_O1: [5] x [4]
P39_O1: [2] x [1]
P40_O1: [3] x [2]
P41_O1: [4] x [2]
P42_O1: [7] x [6]
P45_O1: [3] x [2]
P49_O1: [3] x [1]
P60_O1: [1] x [3]
P61_O1: [0] x [3]
P62_O1: [4] x [6]
P63_O1: [1] x [2]
P64_O1: [4] x [2]
P67_O1: [4] x [2]
P68_O1: [2] x [3]
P70_O1: [1] x [2]
P71_O1: [1] x [4]
P72_O1: [0] x [2]
P76_O1: [2] x [3]
P77_O1: [6] x [5]
P81_O1: [3] x [4]
P85_O1: [4] x [6]
P88_O1: [6] x [4]
P90_O1: [3] x [2]
P92_O1: [5] x [2]
P93_O1: [2] x [1]
P94_O1: [1] x [0]
P95_O1: [1] x [4]
P96_O1: [0] x [3]
P97_O1: [1] x [4]
P98_O1: [0] x [2]
P101_O1: [2] x [1]
P102_O1: [5] x [3]
P103_O1: [2] x [1]
P104_O1: [5] x [3]
P108_O1: [3] x [2]
P109_O1: [1] x [4]
P110_O1: [0] x [3]
P111_O1: [0] x [1]
P112_O1: [2] x [6]
P118_O1: [4] x [1]
P119_O1: [2] x [0]
P120_O1: [1] x [0]
P121_O1: [7] x [6]
P126_O1: [1] x [4]
P127_O1: [0] x [2]
P128_O1: [7] x [4]
P129_O1: [0] x [2]
P130_O1: [0] x [1]
P131_O1: [2] x [0]
P132_O1: [2] x [4]
P135_O1: [1] x [4]
P136_O1: [0] x [2]
P139_O1: [3] x [1]
P140_O1: [2] x [3]
P142_O1: [2] x [3]
P143_O1: [2] x [1]
P144_O1: [2] x [1]
P148_O1: [3] x [2]
P150_O1: [3] x [2]

- [AlunoID: 7010122][Questionário: Frequência de Consumo de Alimentos]

P1_O1: [1] x [3]
P4_O1: [2] x [0]
P7_O1: [1] x [3]
P8_O1: [0] x [2]
P16_O1: [0] x [4]
P17_O1: [0] x [4]
P18_O1: [0] x [4]
P20_O1: [3] x [4]
P23_O1: [2] x [4]
P24_O1: [3] x [2]
P25_O1: [0] x [1]
P31_O1: [2] x [4]
P32_O1: [3] x [2]
P35_O1: [1] x [4]
P36_O1: [0] x [2]
P37_O1: [1] x [4]
P39_O1: [2] x [1]
P40_O1: [1] x [2]
P41_O1: [0] x [2]
P42_O1: [4] x [6]
P43_O1: [3] x [2]
P45_O1: [3] x [2]
P47_O1: [2] x [0]
P49_O1: [2] x [1]
P50_O1: [4] x [3]
P52_O1: [5] x [6]
P53_O1: [5] x [3]
P54_O1: [5] x [4]
P55_O1: [5] x [3]
P56_O1: [5] x [7]
P57_O1: [3] x [2]
P59_O1: [4] x [3]
P60_O1: [1] x [4]
P61_O1: [0] x [3]
P62_O1: [5] x [4]
P63_O1: [3] x [1]
P64_O1: [2] x [4]
P65_O1: [3] x [2]
P68_O1: [3] x [2]
P69_O1: [2] x [1]
P70_O1: [4] x [0]
P72_O1: [3] x [2]
P73_O1: [2] x [1]
P74_O1: [3] x [0]
P75_O1: [1] x [3]
P77_O1: [5] x [4]
P79_O1: [2] x [1]
P80_O1: [2] x [0]
P82_O1: [2] x [3]
P83_O1: [5] x [4]
P84_O1: [4] x [2]
P85_O1: [1] x [4]
P86_O1: [1] x [2]
P89_O1: [4] x [2]
P90_O1: [0] x [1]
P90_O2: [0] x [1]
P91_O1: [2] x [4]
P93_O1: [5] x [4]
P95_O1: [1] x [3]
P97_O1: [1] x [3]
P99_O1: [1] x [4]
P100_O1: [1] x [2]
P101_O1: [2] x [4]
P103_O1: [3] x [4]
P105_O1: [1] x [3]
P106_O1: [0] x [3]
P107_O1: [5] x [8]
P108_O1: [4] x [3]
P109_O1: [5] x [4]
P110_O1: [4] x [3]
P112_O1: [2] x [4]
P113_O1: [3] x [5]
P114_O1: [2] x [1]
P115_O1: [5] x [6]
P116_O1: [2] x [3]
P118_O1: [5] x [3]
P119_O1: [2] x [3]
P120_O1: [2] x [1]
P121_O1: [5] x [6]
P124_O1: [1] x [0]
P126_O1: [2] x [4]
P127_O1: [1] x [3]
P128_O1: [2] x [4]
P129_O1: [1] x [2]
P130_O1: [3] x [4]
P131_O1: [1] x [2]
P135_O1: [1] x [4]
P136_O1: [0] x [2]
P138_O1: [5] x [2]
P139_O1: [2] x [3]
P141_O1: [5] x [2]
P142_O1: [1] x [2]
P143_O1: [3] x [4]
P144_O1: [2] x [1]
P145_O1: [1] x [4]
P146_O1: [0] x [2]
P147_O1: [2] x [1]
P148_O1: [1] x [0]
P149_O1: [2] x [4]
P150_O1: [1] x [2]

- [AlunoID: 7010129][Questionário: Frequência de Consumo de Alimentos]

P11_O1: [0] x [2]
P44_O1: [3] x [6]
P53_O1: [4] x [3]
P55_O1: [3] x [2]
P64_O1: [4] x [9]
P65_O1: [2] x [4]
P67_O1: [4] x [0]
P68_O1: [2] x [0]
P69_O1: [2] x [0]
P70_O1: [1] x [0]
P73_O1: [2] x [1]
P74_O1: [2] x [0]
P75_O1: [2] x [1]
P76_O1: [3] x [0]
P77_O1: [2] x [4]
P78_O1: [1] x [2]
P79_O1: [3] x [0]
P80_O1: [2] x [4]
P81_O1: [1] x [2]
P82_O1: [0] x [2]
P83_O1: [4] x [1]
P84_O1: [2] x [1]
P85_O1: [4] x [0]
P87_O1: [0] x [2]
P88_O1: [9] x [2]
P89_O1: [2] x [3]
P90_O1: [0] x [2]
P92_O1: [0] x [3]
P93_O1: [4] x [2]
P94_O1: [4] x [1]
P95_O1: [1] x [0]
P96_O1: [0] x [4]
P98_O1: [1] x [4]
P100_O1: [1] x [0]
P101_O1: [3] x [9]
P102_O1: [3] x [2]
P103_O1: [3] x [0]
P104_O1: [4] x [1]
P105_O1: [1] x [0]
P106_O1: [0] x [4]
P107_O1: [9] x [4]
P108_O1: [4] x [1]
P109_O1: [4] x [0]
P110_O1: [4] x [2]
P111_O1: [2] x [1]
P112_O1: [1] x [2]
P113_O1: [0] x [1]
P114_O1: [0] x [3]
P115_O1: [1] x [3]
P116_O1: [0] x [3]
P117_O1: [0] x [4]
P118_O1: [4] x [1]
P119_O1: [4] x [0]
P120_O1: [1] x [9]
P121_O1: [3] x [4]
P122_O1: [2] x [4]
P123_O1: [1] x [4]
P124_O1: [1] x [2]
P125_O1: [0] x [1]
P126_O1: [3] x [0]
P127_O1: [2] x [0]
P128_O1: [3] x [1]
P129_O1: [2] x [0]
P130_O1: [4] x [0]
P131_O1: [1] x [4]
P132_O1: [0] x [4]
P133_O1: [4] x [1]
P134_O1: [2] x [3]
P135_O1: [1] x [2]
P136_O1: [0] x [1]
P138_O1: [3] x [0]
P139_O1: [2] x [0]
P143_O1: [4] x [3]
P145_O1: [4] x [3]
P147_O1: [1] x [0]

- [AlunoID: 7010130][Questionário: Frequência de Consumo de Alimentos]

P124_O1: [1] x [0]
P125_O1: [1] x [0]
P126_O1: [2] x [1]
P127_O1: [2] x [1]
P129_O1: [3] x [2]
P130_O1: [4] x [2]
P131_O1: [2] x [3]
P132_O1: [1] x [4]
P133_O1: [1] x [2]
P135_O1: [9] x [1]
P136_O1: [2] x [1]
P137_O1: [3] x [9]
P138_O1: [1] x [2]
P139_O1: [1] x [3]
P140_O1: [3] x [1]
P141_O1: [6] x [1]
P142_O1: [2] x [3]
P143_O1: [2] x [6]
P145_O1: [5] x [2]
P146_O1: [3] x [2]
P147_O1: [1] x [5]
P148_O1: [1] x [3]

- [AlunoID: 7010133][Questionário: Frequência de Consumo de Alimentos]

P62_O1: [6] x [3]
P71_O1: [2] x [1]
P72_O1: [2] x [0]
P76_O1: [2] x [3]
P78_O1: [2] x [1]
P80_O1: [3] x [2]
P82_O1: [2] x [4]
P83_O1: [4] x [2]
P84_O1: [2] x [1]

- [AlunoID: 7010134][Questionário: Frequência de Consumo de Alimentos]

P14_O1: [0] x [1]
P27_O1: [2] x [1]
P103_O1: [1] x [2]

- [AlunoID: 7010135][Questionário: Frequência de Consumo de Alimentos]

P28_O1: [0] x [1]

- [AlunoID: 7010137][Questionário: Frequência de Consumo de Alimentos]

P4_O1: [4] x [0]
P5_O1: [4] x [0]
P6_O1: [4] x [0]
P30_O1: [2] x [1]
P31_O1: [3] x [2]
P32_O1: [1] x [3]
P35_O1: [2] x [3]
P58_O1: [6] x [3]
P74_O1: [2] x [0]
P83_O1: [6] x [3]
P124_O1: [2] x [1]
P125_O1: [3] x [0]
P126_O1: [3] x [2]
P127_O1: [4] x [3]
P128_O1: [1] x [3]
P129_O1: [0] x [4]
P130_O1: [6] x [1]
P131_O1: [2] x [0]
P132_O1: [1] x [3]
P133_O1: [3] x [2]
P134_O1: [2] x [1]
P135_O1: [6] x [3]
P136_O1: [3] x [2]
P137_O1: [2] x [6]
P138_O1: [6] x [3]
P140_O1: [1] x [6]
P142_O1: [2] x [1]
P143_O1: [3] x [2]
P146_O1: [3] x [2]
P147_O1: [6] x [3]

- [AlunoID: 7010138][Questionário: Frequência de Consumo de Alimentos]

P129_O1: [2] x [0]
P136_O1: [2] x [1]

- [AlunoID: 7010140][Questionário: Frequência de Consumo de Alimentos]

P4_O1: [4] x [0]
P5_O1: [4] x [0]
P6_O1: [4] x [0]
P66_O1: [0] x [1]
P129_O1: [1] x [0]

- [AlunoID: 7010144][Questionário: Frequência de Consumo de Alimentos]

P98_O1: [0] x [1]
P118_O1: [8] x [4]
P143_O1: [3] x [4]
P149_O1: [6] x [3]

- [AlunoID: 7010147][Questionário: Frequência de Consumo de Alimentos]

P32_O1: [2] x [1]
P52_O1: [2] x [0]
P53_O1: [1] x [0]
P54_O1: [2] x [0]
P55_O1: [3] x [0]
P56_O1: [5] x [0]
P57_O1: [2] x [0]
P58_O1: [3] x [2]
P59_O1: [2] x [1]
P61_O1: [2] x [3]
P62_O1: [6] x [0]
P63_O1: [2] x [0]
P64_O1: [2] x [5]
P66_O1: [1] x [0]
P67_O1: [2] x [0]
P68_O1: [2] x [0]
P69_O1: [3] x [0]
P70_O1: [2] x [0]
P71_O1: [1] x [3]
P72_O1: [0] x [2]
P73_O1: [1] x [2]
P74_O1: [0] x [2]
P75_O1: [2] x [6]
P76_O1: [3] x [2]
P80_O1: [0] x [2]
P81_O1: [3] x [2]
P82_O1: [2] x [3]
P83_O1: [3] x [2]
P84_O1: [2] x [1]
P85_O1: [5] x [0]
P86_O1: [2] x [1]
P87_O1: [1] x [0]
P88_O1: [4] x [2]
P89_O1: [2] x [3]
P91_O1: [7] x [2]
P92_O1: [2] x [1]
P93_O1: [3] x [0]
P94_O1: [4] x [3]
P95_O1: [3] x [2]
P96_O1: [2] x [3]
P97_O1: [3] x [1]
P98_O1: [2] x [5]
P99_O1: [3] x [2]
P100_O1: [2] x [1]
P101_O1: [3] x [4]
P102_O1: [3] x [2]
P103_O1: [3] x [1]
P104_O1: [3] x [7]
P105_O1: [1] x [2]
P106_O1: [0] x [3]
P107_O1: [9] x [4]
P108_O1: [4] x [3]
P109_O1: [3] x [2]
P111_O1: [1] x [2]
P112_O1: [1] x [3]
P113_O1: [0] x [2]
P114_O1: [0] x [3]
P115_O1: [2] x [3]
P116_O1: [2] x [3]
P117_O1: [1] x [3]
P118_O1: [5] x [1]
P119_O1: [2] x [0]
P120_O1: [1] x [9]
P121_O1: [2] x [4]
P122_O1: [2] x [3]
P123_O1: [1] x [3]
P125_O1: [0] x [1]
P126_O1: [1] x [0]
P130_O1: [2] x [1]
P131_O1: [2] x [5]
P132_O1: [4] x [2]
P133_O1: [2] x [1]
P136_O1: [2] x [1]
P137_O1: [5] x [0]
P138_O1: [2] x [0]
P139_O1: [3] x [1]
P140_O1: [1] x [0]
P141_O1: [0] x [1]
P145_O1: [1] x [2]
P146_O1: [0] x [2]
P147_O1: [2] x [0]
P148_O1: [2] x [0]
P149_O1: [2] x [4]

- [AlunoID: 7020001][Questionário: Frequência de Consumo de Alimentos]

P143_O1: [3] x [4]
P145_O1: [4] x [3]
P146_O1: [4] x [2]

- [AlunoID: 7020002][Questionário: Frequência de Consumo de Alimentos]

P10_O1: [0] x [4]
P11_O1: [0] x [4]
P12_O1: [0] x [4]
P60_O1: [2] x [1]
P61_O1: [3] x [0]
P62_O1: [2] x [4]
P63_O1: [2] x [1]
P124_O1: [3] x [1]
P127_O1: [1] x [2]
P128_O1: [2] x [1]

- [AlunoID: 7020004][Questionário: Frequência de Consumo de Alimentos]
Respostas da segunda entrada não encontrado.

- [AlunoID: 7020005][Questionário: Frequência de Consumo de Alimentos]

P4_O1: [3] x [0]
P19_O1: [3] x [2]
P21_O1: [3] x [2]
P22_O1: [3] x [2]
P23_O1: [1] x [4]
P24_O1: [0] x [2]
P25_O1: [0] x [1]
P27_O1: [4] x [3]
P30_O1: [0] x [3]
P32_O1: [2] x [3]
P33_O1: [1] x [2]
P34_O1: [0] x [2]
P42_O1: [4] x [3]
P44_O1: [4] x [3]
P46_O1: [1] x [2]
P47_O1: [0] x [2]
P48_O1: [4] x [2]
P52_O1: [5] x [4]
P54_O1: [1] x [2]
P55_O1: [0] x [2]
P59_O1: [3] x [2]
P65_O1: [2] x [1]
P67_O1: [4] x [3]
P70_O1: [2] x [1]
P73_O1: [3] x [2]
P77_O1: [4] x [3]
P82_O1: [2] x [3]
P83_O1: [4] x [3]
P85_O1: [7] x [6]
P88_O1: [4] x [6]
P90_O2: [1] x [0]
P91_O1: [7] x [6]
P99_O1: [4] x [5]
P100_O1: [1] x [2]
P101_O1: [1] x [2]
P109_O1: [4] x [3]
P110_O1: [3] x [2]
P113_O1: [5] x [2]
P115_O1: [1] x [2]
P116_O1: [0] x [3]
P117_O1: [0] x [2]
P122_O1: [0] x [3]
P123_O1: [0] x [1]
P124_O1: [1] x [0]
P126_O1: [2] x [1]
P127_O1: [3] x [0]
P128_O1: [4] x [2]
P129_O1: [4] x [1]
P130_O1: [3] x [2]
P132_O1: [1] x [3]
P133_O1: [1] x [2]
P134_O1: [0] x [1]
P135_O1: [3] x [1]
P136_O1: [2] x [0]
P137_O1: [4] x [2]
P139_O1: [2] x [0]
P140_O1: [1] x [2]
P142_O1: [2] x [0]
P145_O1: [4] x [2]
P147_O1: [4] x [0]
P148_O1: [2] x [0]

- [AlunoID: 7020010][Questionário: Frequência de Consumo de Alimentos]

P20_O1: [3] x [4]
P22_O1: [3] x [4]
P31_O1: [1] x [2]
P32_O1: [0] x [2]
P33_O1: [1] x [2]
P34_O1: [0] x [2]
P35_O1: [1] x [2]
P36_O1: [0] x [2]
P48_O1: [1] x [2]
P49_O1: [0] x [2]
P51_O1: [2] x [3]
P65_O1: [1] x [2]
P66_O1: [0] x [2]
P68_O1: [1] x [2]
P75_O1: [1] x [2]
P76_O1: [0] x [3]
P124_O1: [1] x [0]
P126_O1: [4] x [1]
P127_O1: [2] x [0]
P128_O1: [1] x [4]
P129_O1: [0] x [2]
P130_O1: [1] x [2]
P131_O1: [0] x [3]
P132_O1: [0] x [1]
P133_O1: [2] x [0]
P134_O1: [2] x [0]
P135_O1: [1] x [2]
P136_O1: [0] x [2]
P137_O1: [0] x [1]
P138_O1: [1] x [0]
P140_O1: [0] x [1]
P141_O1: [1] x [0]

- [AlunoID: 7020012][Questionário: Frequência de Consumo de Alimentos]

P16_O1: [4] x [1]
P17_O1: [4] x [0]
P18_O1: [4] x [0]
P20_O1: [4] x [3]
P22_O1: [4] x [1]
P24_O1: [0] x [2]
P25_O1: [0] x [1]
P26_O1: [5] x [7]
P27_O1: [3] x [2]
P29_O1: [1] x [3]
P30_O1: [0] x [3]
P31_O1: [3] x [4]
P34_O1: [2] x [1]
P36_O1: [3] x [2]
P37_O1: [4] x [6]
P41_O1: [2] x [1]
P43_O1: [2] x [1]
P45_O1: [0] x [1]
P47_O1: [0] x [1]
P52_O1: [6] x [7]
P53_O1: [4] x [3]
P54_O1: [6] x [7]
P56_O1: [6] x [7]
P57_O1: [3] x [2]
P58_O1: [1] x [2]
P59_O1: [0] x [2]
P60_O1: [1] x [2]
P61_O1: [0] x [2]
P62_O1: [7] x [6]
P63_O1: [2] x [1]
P66_O1: [0] x [1]
P67_O1: [3] x [2]
P68_O1: [2] x [1]
P69_O1: [1] x [2]
P70_O1: [0] x [2]
P71_O1: [1] x [2]
P72_O1: [0] x [2]
P73_O1: [3] x [1]
P74_O1: [2] x [3]
P75_O1: [2] x [1]
P77_O1: [6] x [1]
P79_O1: [2] x [3]
P80_O1: [3] x [2]
P81_O1: [2] x [3]
P82_O1: [3] x [2]
P83_O1: [4] x [6]
P86_O1: [1] x [2]
P88_O1: [4] x [6]
P92_O1: [0] x [2]
P93_O1: [1] x [2]
P94_O1: [0] x [2]
P95_O1: [4] x [3]
P96_O1: [3] x [2]
P97_O1: [4] x [3]
P99_O1: [2] x [3]
P102_O1: [4] x [3]
P104_O1: [4] x [3]
P105_O1: [2] x [3]
P106_O1: [4] x [3]
P108_O1: [2] x [3]
P112_O1: [1] x [7]
P113_O1: [0] x [3]
P114_O1: [0] x [2]
P116_O1: [0] x [2]
P117_O1: [0] x [2]
P122_O1: [1] x [3]
P126_O1: [4] x [2]
P129_O1: [3] x [2]
P132_O1: [1] x [3]
P133_O1: [1] x [2]
P134_O1: [0] x [1]
P136_O1: [3] x [2]
P137_O1: [4] x [2]
P138_O1: [4] x [2]
P139_O1: [1] x [4]
P140_O1: [1] x [3]
P142_O1: [3] x [1]
P143_O1: [4] x [2]
P145_O1: [3] x [4]
P148_O1: [2] x [3]

- [AlunoID: 7020015][Questionário: Frequência de Consumo de Alimentos]

P16_O1: [1] x [4]
P76_O1: [2] x [0]

- [AlunoID: 7020016][Questionário: Frequência de Consumo de Alimentos]

P93_O1: [2] x [1]
P94_O1: [1] x [0]
P95_O1: [1] x [2]
P96_O1: [0] x [1]
P99_O1: [3] x [1]
P100_O1: [2] x [0]

- [AlunoID: 7020017][Questionário: Frequência de Consumo de Alimentos]


- [AlunoID: 7020018][Questionário: Frequência de Consumo de Alimentos]

P4_O1: [0] x [2]
P5_O1: [2] x [0]
P38_O1: [1] x [2]
P101_O1: [1] x [2]
P102_O1: [0] x [4]
P103_O1: [3] x [2]
P104_O1: [2] x [4]
P105_O1: [1] x [2]
P106_O1: [0] x [1]

- [AlunoID: 7020019][Questionário: Frequência de Consumo de Alimentos]

P83_O1: [4] x [0]

- [AlunoID: 7020020][Questionário: Frequência de Consumo de Alimentos]

P10_O1: [1] x [4]
P11_O1: [0] x [4]
P12_O1: [0] x [4]

- [AlunoID: 7020021][Questionário: Frequência de Consumo de Alimentos]

P31_O1: [5] x [6]

- [AlunoID: 7020022][Questionário: Frequência de Consumo de Alimentos]


- [AlunoID: 7020037][Questionário: Frequência de Consumo de Alimentos]

P19_O1: [3] x [4]
P20_O1: [3] x [4]
P23_O1: [6] x [1]
P24_O1: [3] x [0]
P25_O1: [1] x [0]
P27_O1: [2] x [3]
P28_O1: [2] x [1]
P31_O1: [3] x [1]
P32_O1: [1] x [0]
P33_O1: [3] x [2]
P34_O1: [1] x [2]
P38_O1: [1] x [2]
P42_O1: [4] x [5]
P44_O1: [4] x [5]
P50_O1: [1] x [3]
P51_O1: [0] x [2]
P52_O1: [3] x [6]
P56_O1: [3] x [4]
P58_O1: [1] x [2]
P59_O1: [0] x [2]
P62_O1: [6] x [7]
P66_O1: [0] x [1]
P71_O1: [2] x [1]
P72_O1: [3] x [0]
P83_O1: [2] x [3]
P85_O1: [1] x [2]
P86_O1: [0] x [1]
P87_O1: [0] x [1]
P88_O1: [1] x [3]
P89_O1: [0] x [3]
P90_O1: [0] x [1]
P90_O2: [0] x [1]
P92_O1: [0] x [2]
P101_O1: [1] x [2]
P102_O1: [0] x [3]
P104_O1: [4] x [3]
P105_O1: [3] x [4]
P107_O1: [9] x [8]
P109_O1: [4] x [3]
P116_O1: [4] x [3]
P124_O1: [2] x [1]
P125_O1: [4] x [2]
P130_O1: [1] x [3]
P131_O1: [0] x [2]
P132_O1: [3] x [2]
P133_O1: [1] x [2]
P135_O1: [1] x [3]
P136_O1: [0] x [1]
P137_O1: [3] x [2]
P138_O1: [1] x [2]
P139_O1: [2] x [1]
P141_O1: [0] x [3]
P142_O1: [0] x [1]
P143_O1: [3] x [1]
P144_O1: [3] x [0]
P145_O1: [1] x [3]
P146_O1: [0] x [1]

- [AlunoID: 7020043][Questionário: Frequência de Consumo de Alimentos]

P4_O1: [3] x [0]
P10_O1: [1] x [2]
P13_O1: [1] x [2]
P16_O1: [1] x [2]
P19_O1: [3] x [4]
P20_O1: [5] x [4]
P22_O1: [4] x [2]
P23_O1: [1] x [2]
P24_O1: [0] x [3]
P25_O1: [0] x [1]
P29_O1: [1] x [4]
P30_O1: [0] x [2]
P31_O1: [3] x [1]
P32_O1: [2] x [0]
P34_O1: [2] x [3]
P35_O1: [1] x [2]
P37_O1: [1] x [2]
P38_O1: [0] x [2]
P41_O1: [4] x [3]
P42_O1: [7] x [6]
P43_O1: [2] x [3]
P51_O1: [2] x [3]
P52_O1: [6] x [0]
P53_O1: [4] x [0]
P54_O1: [1] x [4]
P55_O1: [0] x [4]
P56_O1: [6] x [5]
P58_O1: [7] x [4]
P59_O1: [3] x [0]
P60_O1: [1] x [4]
P61_O1: [0] x [3]
P62_O1: [6] x [5]
P64_O1: [3] x [4]
P65_O1: [3] x [2]
P68_O1: [3] x [2]
P71_O1: [1] x [2]
P72_O1: [0] x [2]
P73_O1: [3] x [4]
P79_O1: [4] x [3]
P81_O1: [4] x [2]
P84_O1: [3] x [2]
P85_O1: [7] x [5]
P86_O1: [2] x [3]
P87_O1: [3] x [0]
P88_O1: [3] x [1]
P89_O1: [2] x [0]
P90_O1: [1] x [0]
P90_O2: [1] x [0]
P91_O1: [1] x [2]
P92_O1: [0] x [7]
P93_O1: [4] x [1]
P94_O1: [4] x [0]
P97_O1: [4] x [1]
P98_O1: [3] x [0]
P103_O1: [2] x [3]
P104_O1: [5] x [3]
P105_O1: [2] x [3]
P106_O1: [5] x [3]
P107_O1: [6] x [4]
P109_O1: [2] x [4]
P111_O1: [2] x [1]
P112_O1: [6] x [1]
P113_O1: [5] x [0]
P114_O1: [1] x [0]
P115_O1: [4] x [2]
P116_O1: [3] x [4]
P118_O1: [7] x [4]
P120_O1: [2] x [1]
P121_O1: [7] x [4]
P122_O1: [2] x [0]
P123_O1: [1] x [0]
P130_O1: [3] x [1]
P131_O1: [3] x [0]
P132_O1: [3] x [2]
P134_O1: [3] x [2]
P135_O1: [3] x [1]
P136_O1: [3] x [0]
P137_O1: [1] x [2]
P138_O1: [0] x [2]
P139_O1: [0] x [2]
P140_O1: [3] x [2]
P143_O1: [3] x [2]
P144_O1: [2] x [0]
P145_O1: [1] x [2]
P146_O1: [0] x [2]
P147_O1: [3] x [2]
P148_O1: [3] x [2]
P149_O1: [4] x [3]
P150_O1: [3] x [2]

- [AlunoID: 7020044][Questionário: Frequência de Consumo de Alimentos]

P4_O1: [0] x [2]
P5_O1: [2] x [0]
P7_O1: [3] x [1]
P8_O1: [2] x [0]
P10_O1: [0] x [1]
P13_O1: [1] x [2]
P21_O1: [4] x [5]
P22_O1: [4] x [3]
P23_O1: [3] x [7]
P24_O1: [3] x [2]
P27_O1: [4] x [2]
P30_O1: [1] x [2]
P31_O1: [1] x [3]
P32_O1: [0] x [2]
P42_O1: [7] x [4]
P43_O1: [2] x [1]
P45_O1: [2] x [1]
P47_O1: [0] x [2]
P52_O1: [4] x [3]
P53_O1: [2] x [3]
P55_O1: [2] x [3]
P56_O1: [7] x [5]
P58_O1: [6] x [4]
P63_O1: [1] x [2]
P65_O1: [3] x [2]
P76_O1: [4] x [3]
P78_O1: [3] x [2]
P80_O1: [3] x [2]
P81_O1: [1] x [3]
P82_O1: [0] x [3]
P85_O1: [6] x [4]
P86_O1: [2] x [1]
P87_O1: [2] x [1]
P88_O1: [6] x [4]
P90_O2: [0] x [1]
P93_O1: [1] x [4]
P94_O1: [0] x [4]
P100_O1: [3] x [2]
P102_O1: [4] x [3]
P104_O1: [4] x [3]
P108_O1: [4] x [3]
P109_O1: [4] x [5]
P112_O1: [1] x [2]
P113_O1: [0] x [5]
P114_O1: [0] x [1]
P119_O1: [0] x [2]
P120_O1: [0] x [1]
P122_O1: [2] x [1]
P124_O1: [0] x [1]
P129_O1: [3] x [2]
P130_O1: [1] x [3]
P131_O1: [0] x [2]
P133_O1: [2] x [3]
P135_O1: [1] x [3]
P136_O1: [0] x [2]
P141_O1: [1] x [2]
P143_O1: [4] x [3]
P144_O1: [1] x [2]
P145_O1: [1] x [2]
P146_O1: [0] x [2]
P148_O1: [3] x [2]

- [AlunoID: 7020048][Questionário: Frequência de Consumo de Alimentos]

P19_O1: [4] x [3]
P21_O1: [3] x [4]
P24_O1: [0] x [2]
P25_O1: [0] x [1]
P26_O1: [7] x [8]
P30_O1: [0] x [2]
P31_O1: [3] x [2]
P33_O1: [3] x [2]
P36_O1: [2] x [3]
P37_O1: [1] x [2]
P38_O1: [0] x [3]
P39_O1: [0] x [1]
P44_O1: [3] x [2]
P45_O1: [2] x [3]
P50_O1: [3] x [2]
P51_O1: [2] x [3]
P52_O1: [6] x [7]
P60_O1: [2] x [1]
P64_O1: [3] x [2]
P65_O1: [2] x [0]
P66_O1: [2] x [0]
P67_O1: [4] x [3]
P69_O1: [2] x [1]
P72_O1: [0] x [2]
P74_O1: [2] x [3]
P75_O1: [1] x [7]
P76_O1: [0] x [2]
P77_O1: [5] x [2]
P79_O1: [2] x [1]
P81_O1: [1] x [2]
P82_O1: [0] x [3]
P84_O1: [3] x [2]
P91_O1: [5] x [6]
P107_O1: [7] x [6]
P109_O1: [2] x [1]
P114_O1: [1] x [2]
P115_O1: [4] x [3]
P122_O1: [1] x [3]
P124_O1: [2] x [1]
P134_O1: [1] x [0]
P137_O1: [3] x [2]
P139_O1: [2] x [3]
P144_O1: [3] x [2]
P147_O1: [4] x [2]

- [AlunoID: 7020050][Questionário: Frequência de Consumo de Alimentos]

P1_O1: [0] x [2]
P3_O1: [0] x [3]
P4_O1: [0] x [3]
P5_O1: [0] x [2]
P7_O1: [0] x [3]
P8_O1: [0] x [2]
P11_O1: [0] x [2]
P13_O1: [0] x [1]
P16_O1: [0] x [1]
P21_O1: [2] x [4]
P30_O1: [3] x [2]
P31_O1: [4] x [3]
P32_O1: [3] x [2]
P34_O1: [3] x [2]
P35_O1: [2] x [3]
P37_O1: [6] x [5]
P38_O1: [3] x [2]
P42_O1: [4] x [3]
P44_O1: [1] x [2]
P52_O1: [7] x [5]
P53_O1: [3] x [4]
P54_O1: [4] x [3]
P56_O1: [7] x [5]
P60_O1: [1] x [2]
P61_O1: [2] x [3]
P62_O1: [5] x [4]
P63_O1: [2] x [3]
P84_O1: [2] x [3]
P85_O1: [6] x [5]
P92_O1: [5] x [2]
P98_O1: [4] x [3]
P102_O1: [3] x [4]
P110_O1: [3] x [2]
P118_O1: [2] x [3]
P119_O1: [0] x [4]
P121_O1: [3] x [4]
P125_O1: [3] x [4]
P127_O1: [2] x [3]
P129_O1: [2] x [4]
P131_O1: [2] x [3]
P134_O1: [1] x [2]
P136_O1: [2] x [0]
P137_O1: [4] x [6]
P143_O1: [4] x [3]
P148_O1: [2] x [3]
P149_O1: [3] x [4]
P150_O1: [2] x [3]

- [AlunoID: 7020051][Questionário: Frequência de Consumo de Alimentos]

P5_O1: [1] x [2]
P8_O1: [1] x [2]
P13_O1: [1] x [2]
P15_O1: [0] x [3]
P21_O1: [2] x [3]
P22_O1: [3] x [1]
P23_O1: [1] x [4]
P24_O1: [0] x [1]
P25_O1: [0] x [1]
P26_O1: [4] x [3]
P27_O1: [3] x [2]
P28_O1: [2] x [1]
P30_O1: [0] x [1]
P31_O1: [2] x [1]
P34_O1: [2] x [1]
P36_O1: [0] x [1]
P37_O1: [6] x [4]
P38_O1: [0] x [2]
P39_O1: [0] x [2]
P40_O1: [0] x [1]
P41_O1: [1] x [2]
P44_O1: [1] x [4]
P45_O1: [0] x [1]
P48_O1: [2] x [1]
P49_O1: [3] x [1]
P56_O1: [7] x [6]
P58_O1: [6] x [5]
P59_O1: [3] x [1]
P63_O1: [2] x [1]
P81_O1: [2] x [3]
P83_O1: [6] x [4]
P86_O1: [1] x [2]
P92_O1: [0] x [4]
P93_O1: [2] x [1]
P94_O1: [3] x [1]
P96_O1: [2] x [1]
P99_O1: [2] x [4]
P100_O1: [3] x [2]
P101_O1: [3] x [2]
P103_O1: [3] x [2]
P105_O1: [2] x [3]
P106_O1: [3] x [4]
P107_O1: [8] x [9]
P108_O1: [3] x [2]
P109_O1: [4] x [2]
P113_O1: [0] x [5]
P114_O1: [0] x [2]
P115_O1: [1] x [3]
P116_O1: [0] x [3]
P117_O1: [0] x [1]
P126_O1: [2] x [1]
P127_O1: [4] x [2]
P128_O1: [1] x [3]
P129_O1: [0] x [2]
P131_O1: [0] x [3]
P133_O1: [1] x [2]
P134_O1: [1] x [2]
P137_O1: [1] x [2]
P138_O1: [0] x [1]
P139_O1: [0] x [3]
P140_O1: [4] x [3]
P142_O1: [1] x [2]
P147_O1: [1] x [2]
P148_O1: [0] x [3]
P149_O1: [1] x [2]
P150_O1: [0] x [3]

- [AlunoID: 7020052][Questionário: Frequência de Consumo de Alimentos]
Respostas da segunda entrada não encontrado.

- [AlunoID: 7020056][Questionário: Frequência de Consumo de Alimentos]

P7_O1: [1] x [3]
P10_O1: [0] x [1]
P13_O1: [1] x [0]
P19_O1: [4] x [3]
P20_O1: [3] x [2]
P21_O1: [4] x [3]
P22_O1: [4] x [3]
P23_O1: [1] x [6]
P24_O1: [0] x [2]
P25_O1: [0] x [1]
P26_O1: [2] x [1]
P27_O1: [3] x [2]
P29_O1: [2] x [3]
P30_O1: [2] x [1]
P31_O1: [2] x [3]
P33_O1: [1] x [2]
P34_O1: [0] x [2]
P35_O1: [2] x [1]
P36_O1: [2] x [0]
P38_O1: [0] x [2]
P45_O1: [0] x [2]
P47_O1: [0] x [2]
P48_O1: [2] x [3]
P49_O1: [1] x [2]
P54_O1: [1] x [3]
P55_O1: [0] x [2]
P58_O1: [3] x [1]
P61_O1: [0] x [1]
P62_O1: [5] x [3]
P64_O1: [3] x [2]
P65_O1: [2] x [1]
P79_O1: [1] x [0]
P81_O1: [2] x [0]
P82_O1: [2] x [0]
P83_O1: [4] x [0]
P84_O1: [2] x [0]
P85_O1: [6] x [1]
P89_O1: [0] x [3]
P90_O1: [0] x [3]
P90_O2: [0] x [1]
P92_O1: [0] x [1]
P95_O1: [2] x [1]
P96_O1: [2] x [0]
P97_O1: [4] x [1]
P98_O1: [2] x [0]
P99_O1: [4] x [3]
P104_O1: [0] x [3]
P108_O1: [2] x [3]
P109_O1: [4] x [3]
P110_O1: [3] x [2]
P121_O1: [4] x [3]
P126_O1: [1] x [0]
P128_O1: [1] x [0]
P130_O1: [2] x [0]
P131_O1: [2] x [0]
P132_O1: [3] x [4]
P134_O1: [3] x [1]
P137_O1: [2] x [1]
P138_O1: [2] x [0]
P139_O1: [3] x [0]
P140_O1: [3] x [4]
P144_O1: [1] x [2]
P147_O1: [1] x [0]
P149_O1: [1] x [0]

- [AlunoID: 7020057][Questionário: Frequência de Consumo de Alimentos]

P21_O1: [2] x [3]
P23_O1: [1] x [2]
P24_O1: [0] x [2]
P25_O1: [0] x [1]
P29_O1: [1] x [2]
P30_O1: [0] x [2]
P31_O1: [4] x [2]
P33_O1: [1] x [3]
P34_O1: [0] x [3]
P35_O1: [2] x [4]
P37_O1: [5] x [4]
P38_O1: [3] x [2]
P41_O1: [4] x [3]
P42_O1: [2] x [3]
P44_O1: [2] x [3]
P47_O1: [0] x [2]
P52_O1: [4] x [3]
P56_O1: [4] x [3]
P58_O1: [3] x [1]
P59_O1: [3] x [0]
P60_O1: [3] x [4]
P61_O1: [3] x [4]
P63_O1: [0] x [2]
P64_O1: [4] x [3]
P69_O1: [2] x [3]
P73_O1: [3] x [2]
P74_O1: [2] x [3]
P75_O1: [4] x [3]
P79_O1: [3] x [4]
P80_O1: [3] x [2]
P82_O1: [0] x [3]
P83_O1: [3] x [2]
P90_O2: [2] x [1]
P92_O1: [0] x [2]
P94_O1: [0] x [1]
P95_O1: [1] x [2]
P96_O1: [0] x [2]
P101_O1: [3] x [2]
P103_O1: [3] x [2]
P108_O1: [4] x [3]
P109_O1: [1] x [3]
P110_O1: [0] x [3]
P111_O1: [0] x [1]
P112_O1: [1] x [4]
P113_O1: [0] x [5]
P114_O1: [0] x [1]
P115_O1: [1] x [2]
P116_O1: [0] x [3]
P117_O1: [0] x [2]
P118_O1: [5] x [4]
P126_O1: [2] x [3]
P127_O1: [3] x [1]
P128_O1: [1] x [3]
P129_O1: [0] x [2]
P130_O1: [3] x [2]
P132_O1: [3] x [2]
P138_O1: [2] x [1]
P140_O1: [2] x [1]
P143_O1: [3] x [2]
P147_O1: [3] x [2]
P148_O1: [2] x [3]
P149_O1: [4] x [3]

- [AlunoID: 7020058][Questionário: Frequência de Consumo de Alimentos]

P1_O1: [3] x [2]
P3_O1: [0] x [3]
P5_O1: [2] x [0]
P9_O1: [0] x [3]
P10_O1: [0] x [3]
P16_O1: [0] x [1]
P20_O1: [4] x [3]
P22_O1: [4] x [3]
P24_O1: [0] x [2]
P25_O1: [0] x [1]
P26_O1: [3] x [4]
P27_O1: [3] x [2]
P31_O1: [2] x [1]
P32_O1: [2] x [0]
P33_O1: [4] x [3]
P34_O1: [5] x [1]
P37_O1: [4] x [1]
P38_O1: [2] x [0]
P39_O1: [2] x [0]
P40_O1: [1] x [2]
P41_O1: [0] x [1]
P42_O1: [3] x [4]
P48_O1: [1] x [2]
P51_O1: [1] x [2]
P56_O1: [3] x [2]
P57_O1: [2] x [1]
P58_O1: [4] x [3]
P59_O1: [4] x [0]
P63_O1: [2] x [1]
P64_O1: [1] x [2]
P67_O1: [4] x [3]
P68_O1: [1] x [2]
P69_O1: [1] x [3]
P70_O1: [0] x [2]
P71_O1: [1] x [2]
P72_O1: [0] x [2]
P74_O1: [0] x [2]
P75_O1: [3] x [2]
P76_O1: [3] x [1]
P78_O1: [3] x [1]
P79_O1: [4] x [3]
P81_O1: [3] x [2]
P85_O1: [7] x [5]
P86_O1: [2] x [1]
P88_O1: [1] x [3]
P89_O1: [0] x [2]
P90_O1: [0] x [1]
P90_O2: [0] x [1]
P91_O1: [3] x [1]
P92_O1: [2] x [0]
P99_O1: [3] x [1]
P100_O1: [1] x [0]
P107_O1: [7] x [5]
P108_O1: [4] x [2]
P110_O1: [3] x [2]
P111_O1: [2] x [1]
P115_O1: [6] x [4]
P116_O1: [4] x [2]
P121_O1: [1] x [3]
P122_O1: [0] x [2]
P123_O1: [0] x [1]
P130_O1: [3] x [1]
P131_O1: [4] x [0]
P133_O1: [2] x [1]
P134_O1: [1] x [0]
P140_O1: [6] x [2]
P143_O1: [2] x [1]
P144_O1: [1] x [0]
P147_O1: [4] x [1]
P148_O1: [3] x [0]

- [AlunoID: 7020059][Questionário: Frequência de Consumo de Alimentos]

P4_O1: [0] x [1]
P5_O1: [2] x [0]
P7_O1: [3] x [1]
P8_O1: [2] x [0]
P10_O1: [0] x [1]
P19_O1: [4] x [2]
P20_O1: [4] x [3]
P23_O1: [2] x [7]
P24_O1: [2] x [4]
P26_O1: [6] x [7]
P27_O1: [4] x [5]
P30_O1: [0] x [1]
P31_O1: [2] x [3]
P32_O1: [3] x [2]
P33_O1: [2] x [3]
P34_O1: [5] x [2]
P35_O1: [3] x [7]
P36_O1: [2] x [4]
P37_O1: [1] x [6]
P38_O1: [0] x [2]
P39_O1: [0] x [2]
P40_O1: [2] x [1]
P42_O1: [3] x [7]
P44_O1: [2] x [1]
P48_O1: [1] x [3]
P49_O1: [0] x [2]
P50_O1: [5] x [4]
P53_O1: [3] x [2]
P54_O1: [1] x [4]
P55_O1: [0] x [3]
P56_O1: [3] x [5]
P57_O1: [2] x [4]
P64_O1: [4] x [1]
P65_O1: [3] x [0]
P66_O1: [1] x [0]
P67_O1: [3] x [1]
P68_O1: [2] x [0]
P69_O1: [2] x [1]
P70_O1: [2] x [0]
P73_O1: [2] x [1]
P74_O1: [2] x [0]
P75_O1: [2] x [4]
P77_O1: [4] x [6]
P78_O1: [2] x [4]
P83_O1: [6] x [5]
P85_O1: [6] x [4]
P86_O1: [1] x [2]
P88_O1: [2] x [3]
P89_O1: [3] x [2]
P90_O1: [3] x [2]
P90_O2: [2] x [1]
P91_O1: [6] x [5]
P92_O1: [1] x [3]
P93_O1: [1] x [3]
P94_O1: [0] x [2]
P96_O1: [2] x [4]
P97_O1: [4] x [1]
P98_O1: [2] x [0]
P99_O1: [2] x [1]
P100_O1: [2] x [0]
P101_O1: [2] x [1]
P102_O1: [3] x [0]
P103_O1: [2] x [1]
P104_O1: [3] x [0]
P107_O1: [7] x [4]
P108_O1: [4] x [2]
P109_O1: [6] x [4]
P110_O1: [4] x [3]
P112_O1: [7] x [4]
P113_O1: [5] x [1]
P115_O1: [7] x [4]
P116_O1: [4] x [2]
P118_O1: [2] x [3]
P119_O1: [4] x [2]
P120_O1: [2] x [1]
P130_O1: [2] x [4]
P131_O1: [3] x [2]
P132_O1: [3] x [5]
P133_O1: [2] x [3]
P134_O1: [3] x [2]
P135_O1: [1] x [5]
P136_O1: [0] x [2]
P137_O1: [2] x [4]
P139_O1: [4] x [2]
P140_O1: [2] x [5]
P141_O1: [2] x [3]
P142_O1: [1] x [2]
P143_O1: [2] x [4]
P144_O1: [1] x [3]
P145_O1: [1] x [4]
P146_O1: [0] x [1]
P147_O1: [2] x [1]
P148_O1: [2] x [0]
P150_O1: [2] x [3]

- [AlunoID: 7020060][Questionário: Frequência de Consumo de Alimentos]

P4_O1: [3] x [0]
P5_O1: [2] x [0]
P10_O1: [0] x [3]
P11_O1: [0] x [2]
P13_O1: [1] x [0]
P16_O1: [0] x [1]
P21_O1: [5] x [6]
P22_O1: [4] x [3]
P23_O1: [2] x [4]
P26_O1: [3] x [4]
P27_O1: [3] x [2]
P29_O1: [1] x [4]
P30_O1: [0] x [2]
P31_O1: [2] x [4]
P32_O1: [2] x [3]
P33_O1: [2] x [1]
P34_O1: [2] x [1]
P35_O1: [3] x [2]
P36_O1: [3] x [2]
P41_O1: [3] x [2]
P44_O1: [6] x [4]
P45_O1: [2] x [3]
P47_O1: [0] x [1]
P50_O1: [4] x [3]
P52_O1: [3] x [6]
P53_O1: [4] x [3]
P55_O1: [4] x [3]
P56_O1: [7] x [6]
P58_O1: [2] x [3]
P59_O1: [2] x [3]
P60_O1: [1] x [3]
P61_O1: [0] x [3]
P62_O1: [3] x [6]
P64_O1: [5] x [4]
P66_O1: [1] x [0]
P67_O1: [4] x [2]
P69_O1: [3] x [2]
P71_O1: [2] x [4]
P75_O1: [6] x [4]
P76_O1: [3] x [2]
P77_O1: [5] x [6]
P79_O1: [3] x [4]
P81_O1: [2] x [3]
P82_O1: [3] x [2]
P85_O1: [6] x [3]
P86_O1: [2] x [0]
P87_O1: [3] x [0]
P88_O1: [5] x [1]
P89_O1: [2] x [0]
P90_O1: [1] x [0]
P90_O2: [1] x [0]
P91_O1: [2] x [1]
P92_O1: [2] x [0]
P93_O1: [6] x [3]
P94_O1: [3] x [2]
P97_O1: [5] x [1]
P98_O1: [2] x [0]
P99_O1: [4] x [3]
P101_O1: [3] x [4]
P102_O1: [4] x [3]
P103_O1: [3] x [4]
P104_O1: [4] x [3]
P105_O1: [3] x [4]
P106_O1: [4] x [3]
P108_O1: [3] x [2]
P109_O1: [3] x [5]
P110_O1: [3] x [2]
P111_O1: [2] x [1]
P112_O1: [1] x [5]
P113_O1: [0] x [1]
P114_O1: [0] x [1]
P115_O1: [3] x [4]
P116_O1: [4] x [2]
P118_O1: [5] x [6]
P119_O1: [4] x [2]
P121_O1: [1] x [6]
P122_O1: [0] x [2]
P123_O1: [0] x [1]
P125_O1: [4] x [2]
P126_O1: [1] x [3]
P127_O1: [0] x [2]
P128_O1: [5] x [3]
P129_O1: [3] x [2]
P130_O1: [4] x [1]
P131_O1: [3] x [0]
P132_O1: [4] x [3]
P135_O1: [6] x [3]
P137_O1: [3] x [4]
P139_O1: [1] x [2]
P140_O1: [4] x [3]
P143_O1: [1] x [3]
P144_O1: [0] x [2]
P145_O1: [4] x [3]
P148_O1: [3] x [2]
P149_O1: [4] x [2]
P150_O1: [3] x [2]

- [AlunoID: 7020062][Questionário: Frequência de Consumo de Alimentos]

P16_O1: [4] x [0]
P17_O1: [4] x [0]
P18_O1: [4] x [0]
P43_O1: [2] x [1]
P122_O1: [2] x [1]
P123_O1: [1] x [2]

- [AlunoID: 7020063][Questionário: Frequência de Consumo de Alimentos]

P31_O1: [6] x [5]
P80_O1: [3] x [4]
P85_O1: [7] x [8]

- [AlunoID: 7020064][Questionário: Frequência de Consumo de Alimentos]

P13_O1: [4] x [0]
P14_O1: [4] x [0]
P15_O1: [4] x [0]
P34_O1: [0] x [2]
P57_O1: [2] x [1]
P71_O1: [2] x [3]
P149_O1: [2] x [1]
P150_O1: [2] x [1]

- [AlunoID: 7020067][Questionário: Frequência de Consumo de Alimentos]


- [AlunoID: 7020068][Questionário: Frequência de Consumo de Alimentos]

P7_O1: [3] x [2]
P8_O1: [2] x [3]
P51_O1: [3] x [2]
P54_O1: [6] x [3]
P81_O1: [3] x [2]

- [AlunoID: 7020069][Questionário: Frequência de Consumo de Alimentos]

P1_O1: [4] x [0]
P2_O1: [4] x [0]
P3_O1: [4] x [0]
P10_O1: [4] x [0]
P11_O1: [4] x [0]
P12_O1: [4] x [0]
P13_O1: [4] x [0]
P14_O1: [4] x [0]
P15_O1: [4] x [0]
P115_O1: [2] x [3]
P117_O1: [2] x [1]
P118_O1: [4] x [2]
P121_O1: [3] x [4]
P122_O1: [2] x [3]

- [AlunoID: 7020070][Questionário: Frequência de Consumo de Alimentos]

P48_O1: [2] x [1]
P49_O1: [2] x [0]
P50_O1: [4] x [2]
P51_O1: [3] x [2]
P90_O1: [0] x [2]
P124_O1: [0] x [1]

- [AlunoID: 7020071][Questionário: Frequência de Consumo de Alimentos]


- [AlunoID: 7020072][Questionário: Frequência de Consumo de Alimentos]

P86_O1: [1] x [2]

- [AlunoID: 7020073][Questionário: Frequência de Consumo de Alimentos]

P5_O1: [2] x [0]
P6_O1: [0] x [2]
P7_O1: [3] x [0]
P8_O1: [2] x [3]
P33_O1: [2] x [1]
P34_O1: [5] x [0]
P36_O1: [2] x [5]
P37_O1: [1] x [2]

- [AlunoID: 7020074][Questionário: Frequência de Consumo de Alimentos]

P10_O1: [4] x [0]
P11_O1: [4] x [0]
P12_O1: [4] x [0]

- [AlunoID: 7020075][Questionário: Frequência de Consumo de Alimentos]

P1_O1: [4] x [0]
P2_O1: [4] x [0]
P3_O1: [4] x [0]
P10_O1: [4] x [0]
P11_O1: [4] x [0]
P12_O1: [4] x [0]
P19_O1: [2] x [1]
P64_O1: [2] x [1]

- [AlunoID: 7020076][Questionário: Frequência de Consumo de Alimentos]

P102_O1: [1] x [3]

- [AlunoID: 7020077][Questionário: Frequência de Consumo de Alimentos]


- [AlunoID: 7020078][Questionário: Frequência de Consumo de Alimentos]

P48_O1: [2] x [3]
P124_O1: [2] x [0]
P125_O1: [1] x [0]
P126_O1: [1] x [2]
P127_O1: [0] x [1]
P128_O1: [3] x [1]
P129_O1: [3] x [0]
P130_O1: [4] x [3]
P131_O1: [2] x [3]
P132_O1: [1] x [4]
P133_O1: [1] x [2]
P134_O1: [0] x [1]
P135_O1: [2] x [1]
P137_O1: [0] x [2]
P138_O1: [2] x [0]
P139_O1: [1] x [0]
P140_O1: [0] x [2]
P141_O1: [2] x [1]
P142_O1: [2] x [0]
P143_O1: [4] x [2]
P145_O1: [1] x [4]
P146_O1: [0] x [2]

- [AlunoID: 7020080][Questionário: Frequência de Consumo de Alimentos]

P4_O1: [3] x [0]
P10_O1: [4] x [1]
P11_O1: [4] x [0]
P12_O1: [4] x [0]
P13_O1: [1] x [4]
P14_O1: [0] x [4]
P15_O1: [0] x [4]
P21_O1: [4] x [3]
P23_O1: [2] x [6]
P24_O1: [2] x [1]
P25_O1: [0] x [1]
P26_O1: [1] x [6]
P27_O1: [0] x [1]
P28_O1: [0] x [1]
P30_O1: [0] x [2]
P31_O1: [3] x [6]
P32_O1: [1] x [2]
P33_O1: [2] x [1]
P34_O1: [2] x [1]
P35_O1: [2] x [1]
P37_O1: [4] x [1]
P38_O1: [2] x [1]
P39_O1: [1] x [2]
P40_O1: [2] x [1]
P43_O1: [0] x [1]
P47_O1: [0] x [1]
P48_O1: [2] x [1]
P49_O1: [2] x [1]
P52_O1: [4] x [5]
P54_O1: [4] x [6]
P55_O1: [3] x [2]
P58_O1: [1] x [7]
P59_O1: [0] x [1]
P60_O1: [6] x [1]
P61_O1: [2] x [1]
P63_O1: [2] x [1]
P64_O1: [3] x [4]
P66_O1: [0] x [2]
P67_O1: [2] x [3]
P68_O1: [2] x [1]
P70_O1: [0] x [1]
P72_O1: [0] x [1]
P74_O1: [0] x [1]
P75_O1: [4] x [3]
P76_O1: [3] x [2]
P78_O1: [2] x [1]
P82_O1: [3] x [2]
P83_O1: [4] x [3]
P84_O1: [3] x [2]
P85_O1: [6] x [9]
P88_O1: [5] x [4]
P91_O1: [6] x [5]
P93_O1: [2] x [4]
P94_O1: [2] x [1]
P95_O1: [4] x [3]
P96_O1: [2] x [1]
P99_O1: [1] x [5]
P100_O1: [0] x [2]
P101_O1: [2] x [3]
P103_O1: [2] x [3]
P108_O1: [4] x [2]
P111_O1: [2] x [1]
P112_O1: [6] x [5]
P114_O1: [2] x [1]
P115_O1: [2] x [4]
P116_O1: [4] x [2]
P117_O1: [1] x [2]
P118_O1: [7] x [5]
P119_O1: [4] x [2]
P121_O1: [1] x [2]
P122_O1: [0] x [2]
P123_O1: [0] x [2]
P124_O1: [1] x [0]
P126_O1: [4] x [1]
P127_O1: [3] x [1]
P128_O1: [2] x [1]
P129_O1: [2] x [1]
P130_O1: [4] x [1]
P131_O1: [2] x [1]
P132_O1: [3] x [4]
P133_O1: [1] x [2]
P134_O1: [0] x [3]
P135_O1: [1] x [3]
P136_O1: [0] x [2]
P137_O1: [0] x [1]
P139_O1: [1] x [4]
P140_O1: [3] x [1]
P141_O1: [3] x [1]
P142_O1: [2] x [1]
P143_O1: [1] x [3]
P144_O1: [0] x [2]
P145_O1: [3] x [4]
P147_O1: [3] x [4]

- [AlunoID: 7020081][Questionário: Frequência de Consumo de Alimentos]

P4_O1: [3] x [0]
P7_O1: [3] x [0]
P13_O1: [4] x [3]
P14_O1: [4] x [0]
P15_O1: [4] x [0]
P16_O1: [1] x [0]
P18_O1: [0] x [1]
P20_O1: [4] x [3]
P22_O1: [4] x [3]
P24_O1: [3] x [2]
P26_O1: [2] x [3]
P27_O1: [3] x [2]
P28_O1: [2] x [1]
P29_O1: [3] x [2]
P30_O1: [3] x [2]
P31_O1: [3] x [2]
P32_O1: [3] x [2]
P33_O1: [3] x [2]
P36_O1: [3] x [4]
P37_O1: [4] x [3]
P38_O1: [3] x [2]
P39_O1: [1] x [2]
P41_O1: [3] x [2]
P42_O1: [4] x [5]
P45_O1: [2] x [3]
P46_O1: [1] x [2]
P47_O1: [0] x [3]
P48_O1: [1] x [2]
P50_O1: [2] x [4]
P52_O1: [3] x [4]
P53_O1: [3] x [4]
P54_O1: [2] x [3]
P55_O1: [3] x [4]
P58_O1: [4] x [3]
P60_O1: [4] x [3]
P62_O1: [3] x [4]
P63_O1: [2] x [3]
P66_O1: [2] x [0]
P69_O1: [2] x [3]
P74_O1: [2] x [3]
P76_O1: [3] x [4]
P80_O1: [2] x [3]
P83_O1: [3] x [4]
P84_O1: [2] x [3]
P85_O1: [3] x [4]
P90_O1: [1] x [2]
P90_O2: [1] x [2]
P91_O1: [4] x [3]
P92_O1: [6] x [3]
P94_O1: [4] x [3]
P97_O1: [3] x [2]
P101_O1: [2] x [3]
P107_O1: [6] x [4]
P112_O1: [6] x [3]
P113_O1: [5] x [3]
P114_O1: [1] x [2]
P115_O1: [2] x [3]
P116_O1: [4] x [2]
P117_O1: [2] x [0]
P118_O1: [7] x [4]
P119_O1: [4] x [3]
P120_O1: [2] x [0]
P124_O1: [1] x [0]
P126_O1: [2] x [1]
P127_O1: [3] x [2]
P128_O1: [2] x [1]
P130_O1: [4] x [2]
P131_O1: [2] x [3]
P137_O1: [4] x [3]
P140_O1: [1] x [3]
P141_O1: [4] x [3]
P142_O1: [3] x [2]
P144_O1: [3] x [2]
P145_O1: [4] x [2]
P147_O1: [4] x [3]

- [AlunoID: 7020086][Questionário: Frequência de Consumo de Alimentos]

P5_O1: [2] x [0]
P7_O1: [1] x [2]
P28_O1: [0] x [2]
P124_O1: [4] x [0]
P125_O1: [2] x [0]
P130_O1: [6] x [4]
P132_O1: [0] x [6]
P133_O1: [1] x [2]
P134_O1: [0] x [1]
P135_O1: [4] x [1]
P136_O1: [2] x [0]
P137_O1: [0] x [4]
P138_O1: [3] x [2]
P139_O1: [1] x [3]
P140_O1: [1] x [3]
P141_O1: [3] x [1]
P142_O1: [2] x [1]
P143_O1: [4] x [3]
P145_O1: [1] x [4]
P146_O1: [0] x [2]

- [AlunoID: 7020087][Questionário: Frequência de Consumo de Alimentos]

P124_O1: [2] x [0]
P125_O1: [2] x [0]
P126_O1: [3] x [2]
P128_O1: [1] x [3]
P129_O1: [0] x [2]
P130_O1: [4] x [1]
P131_O1: [2] x [0]
P132_O1: [3] x [4]
P133_O1: [1] x [2]
P134_O1: [0] x [3]
P135_O1: [4] x [1]
P136_O1: [2] x [0]
P137_O1: [3] x [4]
P138_O1: [1] x [2]
P139_O1: [0] x [3]
P140_O1: [0] x [1]
P141_O1: [3] x [0]
P142_O1: [2] x [0]
P143_O1: [4] x [3]
P145_O1: [1] x [4]
P146_O1: [0] x [2]
P147_O1: [4] x [1]
P148_O1: [2] x [0]

- [AlunoID: 7020090][Questionário: Frequência de Consumo de Alimentos]

P107_O1: [6] x [3]
P124_O1: [1] x [0]
P130_O1: [3] x [1]
P131_O1: [2] x [0]
P133_O1: [4] x [2]
P134_O1: [2] x [3]
P136_O1: [3] x [2]
P138_O1: [1] x [3]
P139_O1: [0] x [4]
P140_O1: [0] x [1]
P141_O1: [4] x [0]
P142_O1: [2] x [0]
P145_O1: [1] x [4]
P146_O1: [0] x [2]
P147_O1: [4] x [1]
P148_O1: [4] x [0]

- [AlunoID: 7020091][Questionário: Frequência de Consumo de Alimentos]

P5_O1: [2] x [0]
P124_O1: [1] x [0]
P130_O1: [4] x [1]
P131_O1: [2] x [0]
P132_O1: [3] x [4]
P133_O1: [1] x [2]
P134_O1: [0] x [3]
P135_O1: [3] x [1]
P136_O1: [2] x [0]
P139_O1: [2] x [3]
P140_O1: [1] x [2]
P142_O1: [2] x [1]
P143_O1: [1] x [2]
P144_O1: [0] x [2]
P145_O1: [3] x [1]
P146_O1: [2] x [0]

- [AlunoID: 7020096][Questionário: Frequência de Consumo de Alimentos]

P4_O1: [3] x [0]
P10_O1: [4] x [1]
P11_O1: [4] x [0]
P12_O1: [4] x [0]
P19_O1: [4] x [3]
P21_O1: [3] x [2]
P23_O1: [6] x [2]
P27_O1: [0] x [2]
P28_O1: [0] x [1]
P30_O1: [0] x [1]
P32_O1: [3] x [2]
P34_O1: [3] x [1]
P35_O1: [3] x [2]
P38_O1: [0] x [2]
P42_O1: [1] x [4]
P48_O1: [2] x [1]
P50_O1: [3] x [2]
P51_O1: [3] x [2]
P58_O1: [1] x [5]
P59_O1: [0] x [2]
P60_O1: [4] x [5]
P65_O1: [2] x [1]
P66_O1: [1] x [2]
P68_O1: [2] x [1]
P72_O1: [0] x [1]
P73_O1: [2] x [0]
P74_O1: [2] x [0]
P77_O1: [4] x [5]
P78_O1: [2] x [1]
P80_O1: [2] x [1]
P81_O1: [2] x [1]
P82_O1: [3] x [2]
P83_O1: [4] x [5]
P85_O1: [7] x [6]
P86_O1: [1] x [2]
P87_O1: [2] x [0]
P88_O1: [4] x [5]
P89_O1: [2] x [4]
P93_O1: [4] x [5]
P94_O1: [4] x [1]
P95_O1: [3] x [4]
P96_O1: [3] x [2]
P97_O1: [3] x [2]
P98_O1: [3] x [1]
P99_O1: [3] x [4]
P100_O1: [1] x [2]
P102_O1: [4] x [3]
P104_O1: [4] x [3]
P105_O1: [3] x [2]
P106_O1: [4] x [3]
P108_O1: [2] x [1]
P109_O1: [2] x [1]
P110_O1: [2] x [0]
P111_O1: [1] x [0]
P113_O1: [5] x [2]
P119_O1: [3] x [2]
P121_O1: [2] x [5]
P123_O1: [2] x [1]
P124_O1: [6] x [0]
P125_O1: [2] x [0]
P126_O1: [4] x [1]
P128_O1: [4] x [5]
P130_O1: [3] x [6]
P131_O1: [2] x [4]
P134_O1: [2] x [0]
P135_O1: [4] x [1]
P137_O1: [0] x [4]
P140_O1: [1] x [4]
P143_O1: [4] x [2]
P145_O1: [3] x [6]
P146_O1: [2] x [3]
P147_O1: [3] x [4]

- [AlunoID: 7020097][Questionário: Frequência de Consumo de Alimentos]

P4_O1: [3] x [1]
P19_O1: [3] x [4]
P20_O1: [3] x [2]
P22_O1: [3] x [2]
P23_O1: [1] x [4]
P24_O1: [0] x [1]
P25_O1: [0] x [1]
P26_O1: [1] x [5]
P27_O1: [0] x [1]
P28_O1: [0] x [1]
P29_O1: [2] x [3]
P30_O1: [2] x [1]
P31_O1: [1] x [3]
P32_O1: [0] x [1]
P33_O1: [4] x [3]
P34_O1: [2] x [1]
P35_O1: [3] x [2]
P36_O1: [2] x [1]
P37_O1: [6] x [4]
P38_O1: [2] x [1]
P41_O1: [2] x [1]
P42_O1: [3] x [2]
P45_O1: [1] x [2]
P48_O1: [2] x [3]
P53_O1: [0] x [1]
P54_O1: [4] x [5]
P55_O1: [3] x [2]
P58_O1: [1] x [4]
P59_O1: [0] x [1]
P61_O1: [0] x [1]
P62_O1: [3] x [2]
P67_O1: [4] x [3]
P69_O1: [1] x [2]
P70_O1: [0] x [1]
P71_O1: [1] x [3]
P73_O1: [1] x [2]
P74_O1: [0] x [1]
P76_O1: [0] x [1]
P77_O1: [1] x [4]
P78_O1: [0] x [1]
P80_O1: [2] x [1]
P81_O1: [1] x [3]
P82_O1: [0] x [1]
P83_O1: [4] x [3]
P85_O1: [1] x [2]
P86_O1: [0] x [1]
P87_O1: [0] x [1]
P88_O1: [4] x [5]
P92_O1: [6] x [1]
P94_O1: [1] x [3]
P96_O1: [0] x [1]
P98_O1: [0] x [1]
P99_O1: [3] x [4]
P100_O1: [2] x [1]
P103_O1: [3] x [2]
P105_O1: [2] x [1]
P109_O1: [1] x [2]
P110_O1: [0] x [2]
P111_O1: [0] x [1]
P112_O1: [3] x [5]
P115_O1: [3] x [4]
P118_O1: [1] x [3]
P119_O1: [0] x [1]
P120_O1: [0] x [1]
P121_O1: [1] x [4]
P122_O1: [0] x [3]
P123_O1: [0] x [1]
P124_O1: [6] x [0]
P125_O1: [2] x [0]
P126_O1: [1] x [2]
P127_O1: [0] x [3]
P128_O1: [1] x [2]
P129_O1: [0] x [1]
P131_O1: [0] x [3]
P132_O1: [0] x [2]
P133_O1: [4] x [1]
P135_O1: [4] x [5]
P136_O1: [1] x [2]
P137_O1: [4] x [3]
P138_O1: [1] x [2]
P139_O1: [0] x [4]
P140_O1: [0] x [2]
P141_O1: [7] x [1]
P143_O1: [1] x [4]
P144_O1: [0] x [2]
P145_O1: [1] x [2]
P146_O1: [0] x [1]

- [AlunoID: 7020098][Questionário: Frequência de Consumo de Alimentos]

P136_O1: [3] x [2]
P137_O1: [3] x [0]

- [AlunoID: 7020099][Questionário: Frequência de Consumo de Alimentos]

P130_O1: [4] x [3]

- [AlunoID: 7020101][Questionário: Frequência de Consumo de Alimentos]


- [AlunoID: 7020102][Questionário: Frequência de Consumo de Alimentos]

P13_O1: [0] x [4]
P14_O1: [0] x [4]
P15_O1: [0] x [4]

- [AlunoID: 7020103][Questionário: Frequência de Consumo de Alimentos]

P13_O1: [0] x [4]
P14_O1: [0] x [4]
P15_O1: [0] x [4]
P137_O1: [3] x [0]

- [AlunoID: 7020104][Questionário: Frequência de Consumo de Alimentos]

P13_O1: [0] x [4]
P14_O1: [0] x [4]
P15_O1: [0] x [4]
P88_O1: [6] x [5]
P137_O1: [1] x [0]

- [AlunoID: 7020106][Questionário: Frequência de Consumo de Alimentos]

P65_O1: [2] x [1]

- [AlunoID: 7020107][Questionário: Frequência de Consumo de Alimentos]


- [AlunoID: 7020109][Questionário: Frequência de Consumo de Alimentos]

P13_O1: [0] x [4]
P14_O1: [0] x [4]
P15_O1: [0] x [4]
P31_O1: [5] x [0]
P129_O1: [0] x [4]

