- [AlunoID: 7010022][Questionário: Antropometria]

P2_O1: [05/10/2015] x [06/10/2015]
P5_O1: [24.3] x [24.4]

- [AlunoID: 7010023][Questionário: Antropometria]

P1_O1: [.] x [7010023]

- [AlunoID: 7010024][Questionário: Antropometria]

P10_O3: [0] x [25.3]

- [AlunoID: 7010025][Questionário: Antropometria]


- [AlunoID: 7010026][Questionário: Antropometria]


- [AlunoID: 7010027][Questionário: Antropometria]


- [AlunoID: 7010028][Questionário: Antropometria]

P11_O1: [19.4] x [194]
P11_O2: [19.3] x [193]

- [AlunoID: 7010029][Questionário: Antropometria]

P3_O2: [11] x [15]

- [AlunoID: 7010030][Questionário: Antropometria]


- [AlunoID: 7010031][Questionário: Antropometria]

P10_O1: [26.5] x [26.4]
P15_O1: [9] x [90]
P15_O2: [8.2] x [82]
P15_O3: [8.8] x [88]

- [AlunoID: 7010032][Questionário: Antropometria]


- [AlunoID: 7010033][Questionário: Antropometria]


- [AlunoID: 7010034][Questionário: Antropometria]


- [AlunoID: 7010035][Questionário: Antropometria]


- [AlunoID: 7010036][Questionário: Antropometria]


- [AlunoID: 7010037][Questionário: Antropometria]


- [AlunoID: 7010038][Questionário: Antropometria]


- [AlunoID: 7010039][Questionário: Antropometria]

P13_O2: [61.3] x [61.5]

- [AlunoID: 7010041][Questionário: Antropometria]

P2_O1: [22/01/2015] x [22/10/2015]
P6_O1: [115.5] x [115.6]

- [AlunoID: 7010050][Questionário: Antropometria]

P1_O1: [.] x [0]
P12_O1: [80.2] x [82]
P12_O3: [80.8] x [88]
P14_O1: [36] x [360]

- [AlunoID: 7010051][Questionário: Antropometria]


- [AlunoID: 7010052][Questionário: Antropometria]

P4_O1: [1] x [.]

- [AlunoID: 7010053][Questionário: Antropometria]

P12_O2: [62.8] x [68.8]
P15_O1: [8.2] x [82]
P15_O2: [8.4] x [84]
P16_O1: [5.2] x [52]
P16_O2: [5] x [50]
P17_O1: [4] x [40]
P17_O2: [4.2] x [42]
P18_O1: [6] x [60]
P18_O2: [5.8] x [58]

- [AlunoID: 7010054][Questionário: Antropometria]

P1_O1: [mari] x [mar]
P15_O1: [8.4] x [84]
P15_O2: [8.2] x [82]
P16_O1: [5.4] x [54]
P16_O2: [5.2] x [52]
P17_O1: [3] x [30]
P17_O2: [3] x [30]
P18_O1: [7] x [70]
P18_O2: [7] x [70]

- [AlunoID: 7010055][Questionário: Antropometria]

P17_O2: [8.6] x [86]
P17_O3: [9] x [90]

- [AlunoID: 7010056][Questionário: Antropometria]

P6_O1: [160.5] x [0]
P6_O2: [160.4] x [160.5]
P6_O3: [0] x [160.4]
P12_O1: [101.5] x [107.5]
P18_O1: [39.8] x [89.8]

- [AlunoID: 7010057][Questionário: Antropometria]

P17_O2: [16] x [16.6]

- [AlunoID: 7010058][Questionário: Antropometria]


- [AlunoID: 7010059][Questionário: Antropometria]

P10_O2: [31.8] x [318]
P17_O1: [6.8] x [68]
P17_O2: [7] x [70]

- [AlunoID: 7010060][Questionário: Antropometria]

P1_O1: [.] x [7010060]
P10_O2: [27.7] x [277]
P11_O1: [20.8] x [208]
P12_O2: [73.1] x [731]
P16_O1: [11.8] x [118]
P17_O1: [5] x [50]
P17_O2: [5] x [50]
P18_O1: [14.6] x [146]
P18_O2: [14.6] x [146]

- [AlunoID: 7010061][Questionário: Antropometria]

P5_O2: [36.6] x [366]
P14_O1: [28] x [280]
P17_O1: [9.2] x [92]
P17_O2: [9.4] x [94]

- [AlunoID: 7010062][Questionário: Antropometria]

P5_O1: [36.1] x [361]
P5_O2: [36.1] x [361]
P6_O3: [141.4] x [141.5]
P16_O1: [7.8] x [78]
P16_O2: [8] x [80]
P17_O2: [6.2] x [6]

- [AlunoID: 7010063][Questionário: Antropometria]

P12_O1: [71.5] x [77.5]
P12_O2: [71.5] x [77.5]

- [AlunoID: 7010064][Questionário: Antropometria]

P5_O1: [54.1] x [54.4]
P6_O1: [169.5] x [169.4]
P6_O2: [169.4] x [169.5]
P15_O1: [7.6] x [76]
P15_O2: [7.4] x [74]
P16_O1: [6] x [60]
P16_O2: [6] x [60]

- [AlunoID: 7010065][Questionário: Antropometria]

P6_O1: [135.9] x [175.9]
P10_O2: [30.4] x [304]
P15_O3: [20.2] x [202]
P17_O1: [7] x [70]

- [AlunoID: 7010066][Questionário: Antropometria]

P1_O1: [.] x [,]
P16_O1: [8.8] x [88]
P16_O2: [9] x [90]

- [AlunoID: 7010067][Questionário: Antropometria]

P5_O2: [54.4] x [544]
P6_O1: [155] x [15.5]
P6_O2: [155] x [15.5]

- [AlunoID: 7010068][Questionário: Antropometria]

P5_O1: [48.2] x [482]
P5_O2: [48.2] x [482]
P16_O1: [9.2] x [92]
P17_O1: [9] x [9.6]

- [AlunoID: 7010069][Questionário: Antropometria]

P10_O2: [30.4] x [304]
P13_O1: [78.4] x [784]
P15_O1: [10.4] x [19.4]
P16_O1: [6.2] x [62]
P16_O2: [6.4] x [64]

- [AlunoID: 7010070][Questionário: Antropometria]

P13_O1: [94] x [90]

- [AlunoID: 7010071][Questionário: Antropometria]

P4_O1: [1] x [.]

- [AlunoID: 7010072][Questionário: Antropometria]


- [AlunoID: 7010073][Questionário: Antropometria]

P6_O1: [136] x [13.6]
P6_O2: [136] x [13.6]

- [AlunoID: 7010074][Questionário: Antropometria]


- [AlunoID: 7010075][Questionário: Antropometria]

P5_O2: [42.6] x [426]
P10_O2: [30.2] x [302]
P12_O1: [72.4] x [72.5]
P12_O2: [72.5] x [8.5]
P17_O1: [5.8] x [58]
P17_O2: [6] x [60]

- [AlunoID: 7010076][Questionário: Antropometria]

P15_O1: [22.2] x [27.2]
P15_O2: [23] x [28]

- [AlunoID: 7010077][Questionário: Antropometria]

P4_O1: [1] x [.]
P5_O1: [45.5] x [45.4]
P6_O1: [151.1] x [151.7]
P10_O3: [0] x [900]

- [AlunoID: 7010078][Questionário: Antropometria]

P15_O2: [32.2] x [322]

- [AlunoID: 7010079][Questionário: Antropometria]

P6_O2: [168.5] x [168.2]
P15_O1: [21.4] x [21]

- [AlunoID: 7010080][Questionário: Antropometria]

P15_O3: [30] x [80]
P17_O1: [12.2] x [18.2]

- [AlunoID: 7010081][Questionário: Antropometria]

P10_O2: [66] x [36.6]
P18_O1: [17.2] x [172]

- [AlunoID: 7010082][Questionário: Antropometria]

P13_O1: [85.8] x [858]
P13_O2: [85.9] x [859]

- [AlunoID: 7010083][Questionário: Antropometria]


- [AlunoID: 7010084][Questionário: Antropometria]

P4_O1: [1] x [.]

- [AlunoID: 7010085][Questionário: Antropometria]

P10_O2: [30.4] x [34]

- [AlunoID: 7010086][Questionário: Antropometria]

P2_O1: [03/11/2015] x [31/12/0015]
P6_O1: [147.4] x [0]
P6_O2: [147.3] x [147.4]
P6_O3: [0] x [147.3]
P12_O2: [79.9] x [799]

- [AlunoID: 7010089][Questionário: Antropometria]

P1_O1: [mary] x [.]

- [AlunoID: 7010091][Questionário: Antropometria]
Respostas da segunda entrada não encontrado.

- [AlunoID: 7010092][Questionário: Antropometria]

P1_O1: [mary] x [.]

- [AlunoID: 7010093][Questionário: Antropometria]

P1_O1: [mary] x [BEATRI]
P9_O1: [1] x [.]

- [AlunoID: 7010094][Questionário: Antropometria]

P7_O1: [.] x [1]

- [AlunoID: 7010095][Questionário: Antropometria]

P9_O1: [1] x [.]

- [AlunoID: 7010113][Questionário: Antropometria]

P17_O1: [7.4] x [77.4]
P17_O3: [7.4] x [77.4]

- [AlunoID: 7010128][Questionário: Antropometria]

P1_O1: [mary] x [.]

- [AlunoID: 7010129][Questionário: Antropometria]

P1_O1: [mary] x [.]
P6_O1: [129.7] x [29.7]
P6_O2: [129.8] x [29.8]
P14_O3: [33.9] x [33.8]

- [AlunoID: 7010130][Questionário: Antropometria]

P1_O1: [mary] x [.]
P15_O2: [11] x [11.9]

- [AlunoID: 7010131][Questionário: Antropometria]

P1_O1: [mary] x [.]
P12_O1: [59.6] x [59.9]
P12_O2: [60.6] x [60]

- [AlunoID: 7010133][Questionário: Antropometria]

P1_O1: [mary] x [.]

- [AlunoID: 7010134][Questionário: Antropometria]

P1_O1: [mary] x [.]
P13_O2: [91.4] x [91.5]

- [AlunoID: 7010135][Questionário: Antropometria]

P1_O1: [mary] x [.]
P13_O2: [91] x [91.8]

- [AlunoID: 7010136][Questionário: Antropometria]


- [AlunoID: 7010137][Questionário: Antropometria]

P1_O1: [mary] x [.]

- [AlunoID: 7010138][Questionário: Antropometria]

P1_O1: [mary] x [.]
P14_O2: [31.2] x [31.1]

- [AlunoID: 7010139][Questionário: Antropometria]

P1_O1: [mary] x [.]

- [AlunoID: 7010140][Questionário: Antropometria]

P1_O1: [mary] x [.]
P6_O1: [133.2] x [133.7]

- [AlunoID: 7010141][Questionário: Antropometria]

P1_O1: [mary] x [.]

- [AlunoID: 7010142][Questionário: Antropometria]

P1_O1: [mary] x [.]

- [AlunoID: 7010144][Questionário: Antropometria]

P1_O1: [mary] x [.]

- [AlunoID: 7010145][Questionário: Antropometria]

P1_O1: [mary] x [.]

- [AlunoID: 7010146][Questionário: Antropometria]

P1_O1: [mary] x [.]
P13_O2: [57.4] x [57.5]

- [AlunoID: 7010147][Questionário: Antropometria]

P1_O1: [mary] x [.]
P6_O1: [143] x [143.3]

- [AlunoID: 7020001][Questionário: Antropometria]

P1_O1: [mari] x [mar7]
P9_O1: [0] x [1]
P10_O1: [.] x [31.5]
P11_O1: [1] x [28]
P12_O1: [31.5] x [85]
P12_O2: [31.6] x [85.1]
P13_O1: [28] x [91]
P13_O2: [28] x [91]
P14_O1: [85] x [32]
P14_O2: [85.1] x [32]
P15_O1: [91] x [20.6]
P15_O2: [91] x [21]
P15_O3: [0] x [20.8]
P16_O1: [32] x [23]
P16_O2: [32] x [22.8]
P17_O1: [20.6] x [13]
P17_O2: [21] x [13.2]
P17_O3: [20.8] x [0]
P18_O1: [23] x [31]
P18_O2: [22.8] x [31]

- [AlunoID: 7020002][Questionário: Antropometria]

P1_O1: [mari] x [mar7]
P2_O1: [18/04/112015] x [18/11/2015]
P9_O1: [0] x [1]
P10_O1: [.] x [32]
P11_O1: [1] x [28]
P12_O1: [32] x [85]
P12_O2: [32.1] x [85.1]
P13_O1: [28] x [87]
P13_O2: [28] x [87.1]
P14_O1: [85] x [33.1]
P14_O2: [85.1] x [33]
P15_O1: [87] x [24]
P15_O2: [87.1] x [24.2]
P16_O1: [33.1] x [29]
P16_O2: [33] x [28.8]
P17_O1: [24] x [12.2]
P17_O2: [24.2] x [13]
P17_O3: [0] x [12.8]
P18_O2: [28.8] x [29]

- [AlunoID: 7020003][Questionário: Antropometria]

P1_O1: [mari] x [mar7]
P9_O1: [0] x [1]
P10_O1: [.] x [27.8]
P11_O1: [1] x [24]
P12_O1: [27.8] x [70]
P12_O2: [27.8] x [70.1]
P13_O1: [24] x [80.1]
P13_O2: [24] x [80.2]
P14_O1: [70] x [30.5]
P14_O2: [70.1] x [30.5]
P15_O1: [80.1] x [12.8]
P15_O2: [80.2] x [13]
P16_O1: [30.5] x [7.8]
P16_O2: [30.5] x [8]
P17_O1: [12.8] x [7]
P17_O2: [13] x [7.8]
P17_O3: [0] x [7.6]
P18_O1: [7.8] x [7.4]
P18_O2: [8] x [6.8]
P18_O3: [0] x [7]

- [AlunoID: 7020015][Questionário: Antropometria]

P1_O1: [mari] x [mary]
P9_O1: [0] x [1]
P10_O1: [.] x [30.8]
P11_O1: [1] x [24]
P12_O1: [30.8] x [81.8]
P12_O2: [30.8] x [81.8]
P13_O1: [24] x [83.5]
P13_O2: [24] x [83.5]
P14_O1: [81.8] x [31.3]
P14_O2: [81.8] x [31.4]
P15_O1: [83.5] x [18]
P15_O2: [83.5] x [18]
P16_O1: [31.3] x [15.2]
P16_O2: [31.4] x [15]
P17_O1: [18] x [11]
P17_O2: [18] x [11.2]
P18_O1: [15.2] x [16.4]
P18_O2: [15] x [16.4]

- [AlunoID: 7020016][Questionário: Antropometria]

P1_O1: [mari] x [mary]
P9_O1: [0] x [1]
P10_O1: [.] x [29.5]
P11_O1: [1] x [22.1]
P12_O1: [29.5] x [68.5]
P12_O2: [29.5] x [68.5]
P13_O1: [22.1] x [77.1]
P13_O2: [22] x [77]
P14_O1: [68.5] x [30]
P14_O2: [68.5] x [30]
P15_O1: [77.1] x [11.2]
P15_O2: [77] x [11]
P16_O1: [30] x [7.4]
P16_O2: [30] x [8.2]
P16_O3: [0] x [8]
P17_O1: [11.2] x [6]
P17_O2: [11] x [7.2]
P17_O3: [0] x [6.8]
P18_O1: [7] x [12]
P18_O2: [8.2] x [11.8]
P18_O3: [8] x [0]

- [AlunoID: 7020017][Questionário: Antropometria]

P1_O1: [mari] x [mary]
P9_O1: [0] x [1]
P10_O1: [.] x [26.1]
P11_O1: [1] x [21.9]
P12_O1: [26.1] x [65.1]
P12_O2: [26.2] x [65]
P13_O1: [21.9] x [77.5]
P13_O2: [22] x [77.4]
P14_O1: [65.1] x [30.8]
P14_O2: [65] x [308]
P15_O1: [77.5] x [16]
P15_O2: [77.4] x [15.6]
P15_O3: [0] x [15.8]
P16_O1: [30.8] x [9]
P16_O2: [30.8] x [8.8]
P17_O1: [16] x [6.2]
P17_O2: [15.6] x [6.4]
P17_O3: [15.8] x [0]
P18_O1: [9] x [11.8]
P18_O2: [8.8] x [11.6]

- [AlunoID: 7020018][Questionário: Antropometria]

P1_O1: [mari] x [mary]
P9_O1: [0] x [1]
P10_O1: [.] x [26.8]
P11_O1: [1] x [20.4]
P12_O1: [26.8] x [62]
P12_O2: [26.8] x [62.1]
P13_O1: [20.4] x [78.3]
P13_O2: [20.4] x [78.2]
P14_O1: [62] x [30.4]
P14_O2: [62.1] x [30.4]
P15_O1: [78.3] x [16.8]
P15_O2: [78.2] x [16]
P15_O3: [0] x [15.8]
P16_O1: [30.4] x [7]
P16_O2: [30.4] x [7]
P17_O1: [16.8] x [7.8]
P17_O2: [16] x [7.6]
P17_O3: [15.8] x [0]
P18_O1: [7] x [8.8]
P18_O2: [7] x [8.8]

- [AlunoID: 7020019][Questionário: Antropometria]

P1_O1: [mari] x [MARY]
P9_O1: [0] x [1]
P10_O1: [.] x [30.9]
P11_O1: [1] x [22.1]
P12_O1: [30.9] x [71]
P12_O2: [31] x [71.1]
P13_O1: [22.1] x [83.3]
P13_O2: [22.2] x [83.3]
P14_O1: [71] x [36.5]
P14_O2: [71.1] x [36.6]
P15_O1: [83.3] x [11.6]
P15_O2: [83.3] x [11.6]
P16_O1: [365] x [8.6]
P16_O2: [36.6] x [8.6]
P17_O1: [11.6] x [6.8]
P17_O2: [11.6] x [6.8]

- [AlunoID: 7020020][Questionário: Antropometria]

P1_O1: [mari] x [MARY]
P9_O1: [0] x [1]
P10_O1: [.] x [26]
P11_O1: [1] x [20.9]
P12_O1: [26] x [62.3]
P12_O2: [26.1] x [62.3]
P13_O1: [20.9] x [77]
P13_O2: [21] x [76.8]
P13_O3: [0] x [76.9]
P14_O1: [62.3] x [30.2]
P14_O2: [62.3] x [30.2]
P15_O1: [77] x [11.8]
P15_O2: [76.8] x [11.2]
P15_O3: [76.9] x [11.4]
P16_O1: [30.2] x [7]
P16_O2: [30.2] x [7.2]
P17_O1: [11.8] x [4.8]
P17_O2: [11.2] x [4.8]
P17_O3: [11.4] x [0]
P18_O1: [7] x [6.8]
P18_O2: [7.2] x [7]

- [AlunoID: 7020021][Questionário: Antropometria]

P1_O1: [mari] x [MARY]
P9_O1: [0] x [1]
P10_O1: [.] x [29.5]
P11_O1: [1] x [26]
P12_O1: [29.5] x [70]
P12_O2: [29.5] x [70.1]
P13_O1: [26] x [83.5]
P13_O2: [26] x [83.5]
P14_O1: [70] x [31.4]
P14_O2: [70.1] x [31.4]
P15_O1: [83.5] x [20.8]
P15_O2: [83.5] x [21]
P16_O1: [31.4] x [15.2]
P16_O2: [31.4] x [15]
P17_O1: [20.8] x [12.6]
P17_O2: [21] x [12.6]
P18_O1: [15.2] x [15]
P18_O2: [15] x [14.8]

- [AlunoID: 7020022][Questionário: Antropometria]

P1_O1: [mari] x [mary]
P9_O1: [0] x [1]
P10_O1: [.] x [26.5]
P11_O1: [1] x [20.1]
P12_O1: [26.5] x [62.5]
P12_O2: [26.4] x [62.6]
P13_O1: [20.1] x [73.5]
P13_O2: [20.1] x [73.5]
P14_O1: [62.5] x [32.4]
P14_O2: [62.6] x [32.4]
P15_O1: [73.5] x [9.8]
P15_O2: [73.5] x [9.8]
P16_O1: [32.4] x [8]
P16_O2: [32.4] x [7.8]
P17_O1: [9.8] x [4.2]
P17_O2: [9.8] x [4.2]
P18_O1: [8] x [7]
P18_O2: [7.8] x [7.2]

- [AlunoID: 7020023][Questionário: Antropometria]

P1_O1: [mari] x [mary]
P9_O1: [0] x [1]
P10_O1: [.] x [26]
P11_O1: [1] x [20]
P12_O1: [26] x [61.2]
P12_O2: [26.2] x [61.1]
P12_O3: [26.1] x [0]
P13_O1: [20] x [70.1]
P13_O2: [20] x [70]
P14_O1: [61.2] x [30.1]
P14_O2: [61.1] x [30.2]
P15_O1: [70.1] x [7.8]
P15_O2: [70] x [7.6]
P16_O1: [30.1] x [4.8]
P16_O2: [30.2] x [4.6]
P17_O1: [7.8] x [3.8]
P17_O2: [7.6] x [4]
P18_O1: [4.8] x [5]
P18_O2: [4.6] x [5.2]

- [AlunoID: 7020024][Questionário: Antropometria]

P1_O1: [mari] x [mary]
P9_O1: [0] x [1]
P10_O1: [.] x [28.8]
P11_O1: [1] x [24]
P12_O1: [28.8] x [70]
P12_O2: [28.9] x [70.1]
P13_O1: [24] x [77.5]
P13_O2: [24] x [77.6]
P14_O1: [70] x [32]
P14_O2: [70.1] x [31.9]
P15_O1: [77.5] x [17]
P15_O2: [77.6] x [16.4]
P15_O3: [0] x [16.6]
P16_O1: [32] x [15.6]
P16_O2: [31.9] x [14]
P16_O3: [0] x [15]
P17_O1: [17] x [9.2]
P17_O2: [16.4] x [9.4]
P17_O3: [16.6] x [0]
P18_O1: [15.6] x [13.6]
P18_O2: [14] x [13.4]
P18_O3: [15] x [0]

- [AlunoID: 7020062][Questionário: Antropometria]


- [AlunoID: 7020063][Questionário: Antropometria]

P10_O1: [30.9] x [309]
P10_O2: [30.8] x [308]
P11_O1: [23.8] x [238]
P11_O2: [23.9] x [239]
P12_O1: [62.6] x [262]
P12_O2: [62.5] x [265]
P13_O1: [78.5] x [785]
P13_O2: [78.5] x [785]
P14_O1: [31.4] x [314]
P14_O2: [31.4] x [314]
P15_O1: [7.2] x [72]
P15_O2: [7.4] x [74]
P16_O1: [5.2] x [52]
P16_O2: [5.2] x [52]
P17_O1: [3.8] x [38]
P17_O2: [4] x [40]
P18_O1: [5] x [50]
P18_O2: [5.2] x [52]

- [AlunoID: 7020064][Questionário: Antropometria]

P1_O1: [mary] x [Marta]
P2_O1: [25/11/2015] x [22/11/2015]
P5_O1: [52.4] x [524]
P5_O2: [52.4] x [524]
P10_O1: [31.5] x [315]
P10_O2: [31.5] x [315]
P11_O1: [26] x [260]
P11_O2: [26] x [260]
P12_O1: [72.2] x [722]
P12_O2: [72.3] x [723]
P13_O1: [85.1] x [851]
P13_O2: [85.2] x [852]
P14_O1: [37.5] x [375]
P14_O2: [37.6] x [376]

- [AlunoID: 7020065][Questionário: Antropometria]

P1_O1: [mary] x [.]
P17_O2: [10] x [11]
P17_O3: [10.2] x [10.8]

- [AlunoID: 7020066][Questionário: Antropometria]

P1_O1: [mary] x [.]
P13_O1: [101] x [10.1]
P13_O2: [101] x [10.1]

- [AlunoID: 7020067][Questionário: Antropometria]

P1_O1: [mary] x [.]

- [AlunoID: 7020068][Questionário: Antropometria]

P1_O1: [mari] x [.]
P18_O2: [9] x [90]

- [AlunoID: 7020069][Questionário: Antropometria]

P11_O3: [0] x [68.2]

- [AlunoID: 7020070][Questionário: Antropometria]


- [AlunoID: 7020071][Questionário: Antropometria]


- [AlunoID: 7020072][Questionário: Antropometria]

P1_O1: [mary] x [.]
P11_O2: [27.5] x [27]

- [AlunoID: 7020073][Questionário: Antropometria]

P18_O1: [14.4] x [1.4]

- [AlunoID: 7020074][Questionário: Antropometria]

P1_O1: [mary] x [mara]

- [AlunoID: 7020075][Questionário: Antropometria]

P11_O2: [24.5] x [24.6]
P17_O2: [3.4] x [6.4]

- [AlunoID: 7020076][Questionário: Antropometria]

P10_O3: [0] x [26.5]

- [AlunoID: 7020077][Questionário: Antropometria]

P1_O1: [mary] x [.]

- [AlunoID: 7020078][Questionário: Antropometria]

P1_O1: [mary] x [.]

- [AlunoID: 7020086][Questionário: Antropometria]


- [AlunoID: 7020087][Questionário: Antropometria]


- [AlunoID: 7020090][Questionário: Antropometria]

P9_O1: [1] x [.]

- [AlunoID: 7020091][Questionário: Antropometria]

P9_O1: [1] x [.]

- [AlunoID: 7020095][Questionário: Antropometria]

P5_O2: [23] x [25]
P6_O1: [109.4] x [109]
P6_O2: [109.5] x [109]

- [AlunoID: 7020098][Questionário: Antropometria]

P6_O1: [104] x [10.4]
P6_O2: [104] x [10.4]

- [AlunoID: 7020099][Questionário: Antropometria]

P17_O1: [9.4] x [99.4]

- [AlunoID: 7020100][Questionário: Antropometria]


- [AlunoID: 7020101][Questionário: Antropometria]


- [AlunoID: 7020102][Questionário: Antropometria]

P1_O1: [mari] x [mary]

- [AlunoID: 7020103][Questionário: Antropometria]


- [AlunoID: 7020104][Questionário: Antropometria]


- [AlunoID: 7020105][Questionário: Antropometria]


- [AlunoID: 7020106][Questionário: Antropometria]

P6_O1: [107] x [10.7]
P6_O2: [107] x [10.7]

- [AlunoID: 7020107][Questionário: Antropometria]

P6_O1: [106] x [10.6]
P6_O2: [106] x [10.6]

- [AlunoID: 7020109][Questionário: Antropometria]


- [AlunoID: 7020110][Questionário: Antropometria]


