- [AlunoID: 7020062][Questionário: Maturação]


- [AlunoID: 7020063][Questionário: Maturação]


- [AlunoID: 7020064][Questionário: Maturação]


- [AlunoID: 7020065][Questionário: Maturação]


- [AlunoID: 7020066][Questionário: Maturação]


- [AlunoID: 7020068][Questionário: Maturação]


- [AlunoID: 7020069][Questionário: Maturação]


- [AlunoID: 7020070][Questionário: Maturação]


- [AlunoID: 7020071][Questionário: Maturação]


- [AlunoID: 7020072][Questionário: Maturação]


- [AlunoID: 7020073][Questionário: Maturação]


- [AlunoID: 7020074][Questionário: Maturação]


- [AlunoID: 7020075][Questionário: Maturação]


- [AlunoID: 7020076][Questionário: Maturação]


- [AlunoID: 7020077][Questionário: Maturação]


